<?xml version="1.0" encoding="utf-8"?>
<!DOCTYPE svg PUBLIC "-//W3C//DTD SVG 1.1//EN" "http://www.w3.org/Graphics/SVG/1.1/DTD/svg11.dtd">
<svg version="1.1" id="Layer_1" xmlns="http://www.w3.org/2000/svg" xmlns:xlink="http://www.w3.org/1999/xlink" x="0px" y="0px"
	 width="198px" height="52px" viewBox="0 0 198 52" enable-background="new 0 0 198 52" xml:space="preserve">
<g>
	<path fill="#E8E8E8" d="M44.429,43.654c2.357-2.428,0.84-6.165,2.194-9.578c1.35-3.408,5.019-5.066,4.967-8.443
		c-0.05-3.377-3.747-4.982-5.201-8.347c-1.453-3.361-0.074-7.141-2.496-9.49c-2.422-2.35-6.158-0.859-9.561-2.21
		c-3.406-1.354-5.121-5.001-8.497-4.951c-3.378,0.051-4.944,3.749-8.31,5.201c-3.369,1.454-7.154,0.053-9.508,2.478
		c-2.354,2.424-0.841,6.172-2.193,9.58c-1.356,3.411-5.019,5.097-4.967,8.48c0.05,3.376,3.766,4.962,5.218,8.327
		c1.453,3.366,0.054,7.156,2.478,9.509c2.425,2.353,6.172,0.842,9.578,2.194c3.408,1.352,5.105,5.017,8.479,4.967
		c3.384-0.051,4.941-3.781,8.311-5.236C38.289,44.678,42.075,46.081,44.429,43.654L44.429,43.654z"/>
</g>
<g>
	<g>
		<path fill="#2B2B2B" d="M32.383,22.66l0.443-0.485c-0.006-2.148,0.399-6.58,2.219-9.649l-6.796,5.277
			C30.13,18.765,31.594,20.333,32.383,22.66z"/>
	</g>
	<g>
		<path fill="#2B2B2B" d="M39.506,18.979c0,0-0.199-0.298-0.892-0.834c-0.696-0.534-1.672-0.327-1.672-0.327
			s-1.523,0.222-2.363,2.687c-0.718,2.107-1.348,2.892-1.934,3.542l-8.375,8.716c0,0-1.437,1.332-3.17,1.825
			c-2.381,0.678-7.093,1.439-8.558,1.615s-0.465,1.02,1.097,1.95c1.562,0.93,1.794,1.391,4.915-0.297
			c3.121-1.686,6.11-0.137,12.505-1.975c6.397-1.837,7.695-6.956,7.579-10.716c-0.117-3.76,0.357-4.576,0.734-4.896
			c0.376-0.32,1.783-0.755,1.783-0.755L39.506,18.979z"/>
	</g>
	<g>
		<path fill="#2B2B2B" d="M23.539,31.495c0.06,0.08,0.169,0.231,0.169,0.231l7.765-8.285C30,18.292,24.601,17.12,19.81,17.871
			l-8.231,9.318C16.353,26.387,20.653,27.678,23.539,31.495z"/>
	</g>
</g>
<g>
	<path fill="#FFFFFF" d="M64.087,17.219c3.001,0,4.109,1.845,4.109,7.922c0,6.189-1.316,8.237-4.363,8.237
		c-2.978,0-4.156-1.688-4.156-8.169C59.677,19.222,61.109,17.219,64.087,17.219z M63.925,31.511c1.662,0,2.239-1.733,2.239-6.325
		c0-4.501-0.461-6.1-2.124-6.1c-1.616,0-2.263,1.71-2.263,6.572C61.778,29.845,62.286,31.511,63.925,31.511z"/>
	<path fill="#FFFFFF" d="M70.482,22.598c0.946-0.585,2.124-0.9,3.371-0.9c2.286,0,3.763,0.99,3.763,4.682
		c0,6.054-1.87,7.021-3.44,7.021c-0.854,0-1.478-0.292-1.824-0.63v4.682c-0.3,0.112-0.669,0.157-0.97,0.157
		c-0.646,0-0.9-0.18-0.9-0.787V22.598z M72.353,31.016c0.323,0.518,0.785,0.742,1.247,0.742c0.716,0,1.939-0.495,1.939-5.176
		c0-2.679-0.601-3.286-1.778-3.286c-0.554,0-1.016,0.158-1.408,0.428V31.016z"/>
	<path fill="#FFFFFF" d="M86.805,25.321c0,0.99-0.068,2.116-0.254,2.926c-1.592,0.292-3.716,0.359-4.825,0.359
		c0.092,2.386,0.739,3.017,2.147,3.017c0.924,0,1.847-0.271,2.633-0.698c0.115,0.338,0.161,0.878,0.161,1.238
		c0,0.697-1.455,1.237-3.186,1.237c-2.147,0-3.694-0.877-3.694-5.266c0-5.627,2.055-6.438,4.086-6.438
		C85.812,21.697,86.805,22.89,86.805,25.321z M81.75,27.122c0.877,0.022,2.309-0.022,3.117-0.248
		c0.092-0.405,0.115-0.923,0.115-1.351c-0.023-1.621-0.323-2.228-1.316-2.228C82.719,23.295,81.888,24.083,81.75,27.122z"/>
	<path fill="#FFFFFF" d="M89.253,22.462c0.9-0.382,2.424-0.765,3.647-0.765c2.424,0,3.255,0.833,3.255,3.016v8.102
		c0,0.36-0.046,0.36-1.938,0.36v-7.922c0-1.418-0.231-1.958-1.386-1.958c-0.484,0-1.2,0.135-1.708,0.405v9.115
		c0,0.36-0.047,0.36-1.87,0.36V22.462z"/>
	<path fill="#FFFFFF" d="M103.221,22.305c0.393-0.248,1.755-0.608,3.51-0.608c1.985,0,2.862,0.72,2.862,2.746v1.193
		c0,2.588-0.023,5.289-0.139,7c-0.623,0.36-1.708,0.765-3.209,0.765c-1.686,0.023-3.301-0.337-3.301-3.421
		c0-3.128,1.523-3.691,3.07-3.691c0.508,0,1.224,0.068,1.686,0.293v-1.778c0-1.058-0.509-1.328-1.432-1.328
		c-1.154,0-2.378,0.225-3.048,0.495c-0.207-0.36-0.254-0.766-0.254-1.036C102.967,22.688,103.036,22.44,103.221,22.305z
		 M106.614,27.662c-0.923,0-1.708,0.315-1.708,2.273c0,1.644,0.601,1.936,1.501,1.936c0.508,0,1.016-0.18,1.224-0.383
		c0.069-0.742,0.069-2.408,0.069-3.623C107.399,27.729,106.938,27.662,106.614,27.662z"/>
	<path fill="#FFFFFF" d="M118.643,22.958c0,0.293-0.161,0.653-0.416,0.923c-0.692-0.405-1.385-0.585-2.262-0.585
		c-1.085,0-1.824,0.382-1.824,1.08c0,0.405,0.139,0.766,0.924,1.396l2.146,1.688c0.993,0.945,1.362,1.688,1.362,2.813
		c0,2.003-1.454,3.128-3.81,3.128c-1.639,0-2.816-0.359-2.816-1.147c0-0.27,0.069-0.652,0.323-1.058
		c0.67,0.383,1.408,0.562,2.309,0.562c1.178,0,1.87-0.495,1.87-1.396c0-0.607-0.23-1.147-0.923-1.756l-2.24-1.868
		c-1.038-0.833-1.315-1.643-1.315-2.386c0-1.575,1.178-2.656,3.763-2.656C118.111,21.697,118.643,22.508,118.643,22.958z"/>
	<path fill="#FFFFFF" d="M131.849,22.958c0,0.293-0.161,0.653-0.416,0.923c-0.692-0.405-1.385-0.585-2.262-0.585
		c-1.085,0-1.824,0.382-1.824,1.08c0,0.405,0.139,0.766,0.924,1.396l2.146,1.688c0.993,0.945,1.362,1.688,1.362,2.813
		c0,2.003-1.454,3.128-3.81,3.128c-1.639,0-2.816-0.359-2.816-1.147c0-0.27,0.069-0.652,0.323-1.058
		c0.67,0.383,1.408,0.562,2.309,0.562c1.178,0,1.87-0.495,1.87-1.396c0-0.607-0.23-1.147-0.923-1.756l-2.24-1.868
		c-1.038-0.833-1.315-1.643-1.315-2.386c0-1.575,1.178-2.656,3.763-2.656C131.317,21.697,131.849,22.508,131.849,22.958z"/>
	<path fill="#FFFFFF" d="M135.22,23.498h-1.569c0-1.396,0.022-1.576,0.415-1.576h1.154v-3.421c0-0.63,0.347-0.63,1.894-0.63v4.051
		h2.354c0,1.418,0,1.576-0.369,1.576h-1.985v6.549c0,0.969,0,1.778,0.831,1.778c0.53,0,0.877-0.112,1.339-0.338
		c0.069,0.248,0.139,0.541,0.139,0.9c0,0.833-1.085,1.013-1.985,1.013c-1.963,0-2.217-1.327-2.217-3.354V23.498z"/>
	<path fill="#FFFFFF" d="M141.707,22.305c0.393-0.248,1.755-0.608,3.51-0.608c1.985,0,2.862,0.72,2.862,2.746v1.193
		c0,2.588-0.023,5.289-0.139,7c-0.623,0.36-1.708,0.765-3.209,0.765c-1.686,0.023-3.301-0.337-3.301-3.421
		c0-3.128,1.523-3.691,3.07-3.691c0.508,0,1.224,0.068,1.686,0.293v-1.778c0-1.058-0.509-1.328-1.432-1.328
		c-1.154,0-2.378,0.225-3.048,0.495c-0.207-0.36-0.254-0.766-0.254-1.036C141.453,22.688,141.522,22.44,141.707,22.305z
		 M145.101,27.662c-0.923,0-1.708,0.315-1.708,2.273c0,1.644,0.601,1.936,1.501,1.936c0.508,0,1.016-0.18,1.224-0.383
		c0.069-0.742,0.069-2.408,0.069-3.623C145.886,27.729,145.424,27.662,145.101,27.662z"/>
	<path fill="#FFFFFF" d="M150.781,22.462c0.9-0.382,2.424-0.765,3.647-0.765c2.424,0,3.255,0.833,3.255,3.016v8.102
		c0,0.36-0.046,0.36-1.938,0.36v-7.922c0-1.418-0.231-1.958-1.386-1.958c-0.484,0-1.2,0.135-1.708,0.405v9.115
		c0,0.36-0.047,0.36-1.87,0.36V22.462z"/>
	<path fill="#FFFFFF" d="M165.303,17.466c0-0.833,0.346-0.833,1.87-0.833v16.092c-0.763,0.36-1.87,0.675-3.302,0.675
		c-2.009,0-3.764-0.562-3.764-5.446c0-4.456,1.57-6.257,3.556-6.257c0.716,0,1.247,0.158,1.64,0.45V17.466z M165.303,23.588
		c-0.301-0.225-0.577-0.292-1.062-0.292c-1.016,0-2.031,0.765-2.031,4.456c0,3.376,0.646,4.006,1.731,4.006
		c0.508,0,0.992-0.09,1.362-0.338V23.588z"/>
	<path fill="#FFFFFF" d="M170.035,22.305c0.393-0.248,1.755-0.608,3.51-0.608c1.985,0,2.862,0.72,2.862,2.746v1.193
		c0,2.588-0.023,5.289-0.139,7c-0.623,0.36-1.708,0.765-3.209,0.765c-1.686,0.023-3.301-0.337-3.301-3.421
		c0-3.128,1.523-3.691,3.07-3.691c0.508,0,1.224,0.068,1.686,0.293v-1.778c0-1.058-0.509-1.328-1.432-1.328
		c-1.154,0-2.378,0.225-3.048,0.495c-0.207-0.36-0.254-0.766-0.254-1.036C169.781,22.688,169.851,22.44,170.035,22.305z
		 M173.429,27.662c-0.923,0-1.708,0.315-1.708,2.273c0,1.644,0.601,1.936,1.501,1.936c0.508,0,1.016-0.18,1.224-0.383
		c0.069-0.742,0.069-2.408,0.069-3.623C174.214,27.729,173.752,27.662,173.429,27.662z"/>
	<path fill="#FFFFFF" d="M179.109,22.71c0.9-0.607,2.009-1.013,3.14-1.013c1.178,0,1.616,0.338,1.616,0.945
		c0,0.248-0.046,0.698-0.208,1.081c-0.347-0.18-0.716-0.27-1.108-0.27c-0.508,0-1.085,0.157-1.523,0.518l-0.023,8.845
		c0,0.36-0.022,0.36-1.893,0.36V22.71z"/>
	<path fill="#FFFFFF" d="M190.329,17.466c0-0.833,0.346-0.833,1.87-0.833v16.092c-0.763,0.36-1.87,0.675-3.302,0.675
		c-2.009,0-3.763-0.562-3.763-5.446c0-4.456,1.569-6.257,3.555-6.257c0.716,0,1.247,0.158,1.64,0.45V17.466z M190.329,23.588
		c-0.301-0.225-0.577-0.292-1.062-0.292c-1.016,0-2.031,0.765-2.031,4.456c0,3.376,0.646,4.006,1.731,4.006
		c0.508,0,0.992-0.09,1.362-0.338V23.588z"/>
</g>
</svg>
