<?xml version="1.0" encoding="UTF-8" standalone="no"?>
<!-- Created with Inkscape (http://www.inkscape.org/) -->

<svg
   xmlns:dc="http://purl.org/dc/elements/1.1/"
   xmlns:cc="http://creativecommons.org/ns#"
   xmlns:rdf="http://www.w3.org/1999/02/22-rdf-syntax-ns#"
   xmlns:svg="http://www.w3.org/2000/svg"
   xmlns="http://www.w3.org/2000/svg"
   xmlns:xlink="http://www.w3.org/1999/xlink"
   xmlns:sodipodi="http://sodipodi.sourceforge.net/DTD/sodipodi-0.dtd"
   xmlns:inkscape="http://www.inkscape.org/namespaces/inkscape"
   width="283.46457"
   height="393.30707"
   id="svg5942"
   version="1.1"
   inkscape:version="0.48.4 r9939"
   sodipodi:docname="a7-back.mu.svg"
   inkscape:export-filename="/home/samtuke/fsfe/svn/dfd/artwork/2015/fliers/a7/a7-back.mu.png"
   inkscape:export-xdpi="300"
   inkscape:export-ydpi="300">
  <defs
     id="defs5944">
    <linearGradient
       id="linearGradient6529">
      <stop
         id="stop6531"
         offset="0"
         style="stop-color:#c3f224;stop-opacity:1;" />
      <stop
         id="stop6533"
         offset="1"
         style="stop-color:#48b80e;stop-opacity:1;" />
    </linearGradient>
    <inkscape:perspective
       sodipodi:type="inkscape:persp3d"
       inkscape:vp_x="0 : 526.18109 : 1"
       inkscape:vp_y="0 : 1000 : 0"
       inkscape:vp_z="744.09448 : 526.18109 : 1"
       inkscape:persp3d-origin="372.04724 : 350.78739 : 1"
       id="perspective5950" />
    <inkscape:perspective
       id="perspective5960"
       inkscape:persp3d-origin="0.5 : 0.33333333 : 1"
       inkscape:vp_z="1 : 0.5 : 1"
       inkscape:vp_y="0 : 1000 : 0"
       inkscape:vp_x="0 : 0.5 : 1"
       sodipodi:type="inkscape:persp3d" />
    <linearGradient
       inkscape:collect="always"
       xlink:href="#linearGradient6529"
       id="linearGradient3777"
       gradientUnits="userSpaceOnUse"
       gradientTransform="matrix(0.96795146,0,0,0.96795143,234.44878,343.01893)"
       x1="357.92072"
       y1="589.32819"
       x2="354.89005"
       y2="988.33618" />
    <linearGradient
       id="linearGradient3696">
      <stop
         style="stop-color:#b6e235;stop-opacity:1;"
         offset="0"
         id="stop3698" />
      <stop
         style="stop-color:#36890a;stop-opacity:1;"
         offset="1"
         id="stop3700" />
    </linearGradient>
    <linearGradient
       inkscape:collect="always"
       xlink:href="#linearGradient3696"
       id="linearGradient5968"
       gradientUnits="userSpaceOnUse"
       gradientTransform="translate(6.4720239,-19.284364)"
       x1="357.92072"
       y1="589.32819"
       x2="357.92072"
       y2="657.38831" />
    <linearGradient
       id="linearGradient5970">
      <stop
         style="stop-color:#b6e235;stop-opacity:1;"
         offset="0"
         id="stop5972" />
      <stop
         style="stop-color:#36890a;stop-opacity:1;"
         offset="1"
         id="stop5974" />
    </linearGradient>
    <linearGradient
       inkscape:collect="always"
       xlink:href="#linearGradient3696-8"
       id="linearGradient3773"
       gradientUnits="userSpaceOnUse"
       gradientTransform="matrix(0.64186016,0,0,0.64186015,259.81394,258.39622)"
       x1="279.49557"
       y1="722.70312"
       x2="279.49557"
       y2="586.22162" />
    <linearGradient
       id="linearGradient3696-8">
      <stop
         style="stop-color:#000000;stop-opacity:1;"
         offset="0"
         id="stop3698-2" />
      <stop
         style="stop-color:#36890a;stop-opacity:1;"
         offset="1"
         id="stop3700-0" />
    </linearGradient>
    <linearGradient
       inkscape:collect="always"
       xlink:href="#linearGradient3696-8"
       id="linearGradient5980"
       gradientUnits="userSpaceOnUse"
       gradientTransform="matrix(0.64186016,0,0,0.64186015,259.81394,258.39622)"
       x1="279.49557"
       y1="722.70312"
       x2="279.49557"
       y2="586.22162" />
    <linearGradient
       id="linearGradient5982">
      <stop
         style="stop-color:#000000;stop-opacity:1;"
         offset="0"
         id="stop5984" />
      <stop
         style="stop-color:#36890a;stop-opacity:1;"
         offset="1"
         id="stop5986" />
    </linearGradient>
    <linearGradient
       y2="586.22162"
       x2="279.49557"
       y1="722.70312"
       x1="279.49557"
       gradientTransform="matrix(1.625485,0,0,1.6254849,18.939755,722.11733)"
       gradientUnits="userSpaceOnUse"
       id="linearGradient5993"
       xlink:href="#linearGradient3696-8"
       inkscape:collect="always" />
    <inkscape:perspective
       id="perspective6094"
       inkscape:persp3d-origin="0.5 : 0.33333333 : 1"
       inkscape:vp_z="1 : 0.5 : 1"
       inkscape:vp_y="0 : 1000 : 0"
       inkscape:vp_x="0 : 0.5 : 1"
       sodipodi:type="inkscape:persp3d" />
    <linearGradient
       id="linearGradient4364">
      <stop
         style="stop-color:#ffffff;stop-opacity:1;"
         offset="0"
         id="stop4366" />
      <stop
         style="stop-color:#42b30b;stop-opacity:0;"
         offset="1"
         id="stop4368" />
    </linearGradient>
    <filter
       id="filter3677"
       inkscape:label="Fuzzy Glow"
       inkscape:menu="Shadows and Glows"
       inkscape:menu-tooltip="Overlays a semi-transparent shifted copy to a blurred one"
       color-interpolation-filters="sRGB">
      <feOffset
         id="feOffset3679"
         dx="4"
         dy="4"
         result="result11"
         in="SourceGraphic" />
      <feGaussianBlur
         id="feGaussianBlur3681"
         stdDeviation="4"
         result="result8" />
      <feComposite
         id="feComposite3683"
         in2="result8"
         result="result9"
         in="SourceGraphic"
         operator="in" />
      <feBlend
         id="feBlend3685"
         in2="result8"
         in="result9"
         mode="darken" />
    </filter>
    <linearGradient
       id="linearGradient4352">
      <stop
         style="stop-color:#ffff4f;stop-opacity:0.82745099;"
         offset="0"
         id="stop4354" />
      <stop
         style="stop-color:#42b30b;stop-opacity:0;"
         offset="1"
         id="stop4356" />
    </linearGradient>
    <inkscape:perspective
       id="perspective6257"
       inkscape:persp3d-origin="0.5 : 0.33333333 : 1"
       inkscape:vp_z="1 : 0.5 : 1"
       inkscape:vp_y="0 : 1000 : 0"
       inkscape:vp_x="0 : 0.5 : 1"
       sodipodi:type="inkscape:persp3d" />
    <linearGradient
       id="linearGradient4352-6">
      <stop
         style="stop-color:#ffff4f;stop-opacity:0.82745099;"
         offset="0"
         id="stop4354-6" />
      <stop
         style="stop-color:#42b30b;stop-opacity:0;"
         offset="1"
         id="stop4356-7" />
    </linearGradient>
    <filter
       id="filter3677-2"
       inkscape:label="Fuzzy Glow"
       inkscape:menu="Shadows and Glows"
       inkscape:menu-tooltip="Overlays a semi-transparent shifted copy to a blurred one"
       color-interpolation-filters="sRGB">
      <feOffset
         id="feOffset3679-7"
         dx="4"
         dy="4"
         result="result11"
         in="SourceGraphic" />
      <feGaussianBlur
         id="feGaussianBlur3681-4"
         stdDeviation="4"
         result="result8" />
      <feComposite
         id="feComposite3683-1"
         in2="result8"
         result="result9"
         in="SourceGraphic"
         operator="in" />
      <feBlend
         id="feBlend3685-0"
         in2="result8"
         in="result9"
         mode="darken" />
    </filter>
    <linearGradient
       id="linearGradient4364-6">
      <stop
         style="stop-color:#ffffff;stop-opacity:1;"
         offset="0"
         id="stop4366-4" />
      <stop
         style="stop-color:#42b30b;stop-opacity:0;"
         offset="1"
         id="stop4368-4" />
    </linearGradient>
    <inkscape:perspective
       id="perspective6421"
       inkscape:persp3d-origin="0.5 : 0.33333333 : 1"
       inkscape:vp_z="1 : 0.5 : 1"
       inkscape:vp_y="0 : 1000 : 0"
       inkscape:vp_x="0 : 0.5 : 1"
       sodipodi:type="inkscape:persp3d" />
    <inkscape:perspective
       id="perspective6455"
       inkscape:persp3d-origin="0.5 : 0.33333333 : 1"
       inkscape:vp_z="1 : 0.5 : 1"
       inkscape:vp_y="0 : 1000 : 0"
       inkscape:vp_x="0 : 0.5 : 1"
       sodipodi:type="inkscape:persp3d" />
    <radialGradient
       inkscape:collect="always"
       xlink:href="#linearGradient4352-6-0"
       id="radialGradient6355-1"
       gradientUnits="userSpaceOnUse"
       gradientTransform="matrix(0.21881884,-0.29786409,0.27140068,0.31445673,-98.345913,895.67225)"
       cx="313.43893"
       cy="663.65607"
       fx="313.43893"
       fy="663.65607"
       r="132.9715" />
    <linearGradient
       id="linearGradient4352-6-0">
      <stop
         style="stop-color:#6cc41a;stop-opacity:1;"
         offset="0"
         id="stop4354-6-5" />
      <stop
         style="stop-color:#c6e83a;stop-opacity:1;"
         offset="1"
         id="stop4356-7-3" />
    </linearGradient>
    <linearGradient
       inkscape:collect="always"
       xlink:href="#linearGradient6529"
       id="linearGradient2912"
       gradientUnits="userSpaceOnUse"
       gradientTransform="matrix(0.29221816,0,0,0.29221815,59.586978,686.05405)"
       x1="357.92072"
       y1="589.32819"
       x2="354.89005"
       y2="988.33618" />
    <radialGradient
       inkscape:collect="always"
       xlink:href="#linearGradient4352"
       id="radialGradient3686"
       gradientUnits="userSpaceOnUse"
       gradientTransform="matrix(0.73237103,-0.99692987,0.9083587,1.0524642,-752.39138,615.20924)"
       cx="313.43893"
       cy="663.65607"
       fx="313.43893"
       fy="663.65607"
       r="132.9715" />
    <inkscape:perspective
       id="perspective3698"
       inkscape:persp3d-origin="0.5 : 0.33333333 : 1"
       inkscape:vp_z="1 : 0.5 : 1"
       inkscape:vp_y="0 : 1000 : 0"
       inkscape:vp_x="0 : 0.5 : 1"
       sodipodi:type="inkscape:persp3d" />
    <linearGradient
       inkscape:collect="always"
       xlink:href="#linearGradient6529"
       id="linearGradient3712"
       x1="127.75238"
       y1="771.62238"
       x2="127.75238"
       y2="1052.4729"
       gradientUnits="userSpaceOnUse"
       gradientTransform="matrix(1.1055039,0,0,1.0787256,-1.7716676,-156.08064)" />
    <inkscape:perspective
       id="perspective3722"
       inkscape:persp3d-origin="0.5 : 0.33333333 : 1"
       inkscape:vp_z="1 : 0.5 : 1"
       inkscape:vp_y="0 : 1000 : 0"
       inkscape:vp_x="0 : 0.5 : 1"
       sodipodi:type="inkscape:persp3d" />
    <inkscape:perspective
       id="perspective3753"
       inkscape:persp3d-origin="0.5 : 0.33333333 : 1"
       inkscape:vp_z="1 : 0.5 : 1"
       inkscape:vp_y="0 : 1000 : 0"
       inkscape:vp_x="0 : 0.5 : 1"
       sodipodi:type="inkscape:persp3d" />
    <inkscape:perspective
       id="perspective3804"
       inkscape:persp3d-origin="0.5 : 0.33333333 : 1"
       inkscape:vp_z="1 : 0.5 : 1"
       inkscape:vp_y="0 : 1000 : 0"
       inkscape:vp_x="0 : 0.5 : 1"
       sodipodi:type="inkscape:persp3d" />
    <inkscape:perspective
       id="perspective2907"
       inkscape:persp3d-origin="0.5 : 0.33333333 : 1"
       inkscape:vp_z="1 : 0.5 : 1"
       inkscape:vp_y="0 : 1000 : 0"
       inkscape:vp_x="0 : 0.5 : 1"
       sodipodi:type="inkscape:persp3d" />
    <inkscape:perspective
       id="perspective2904"
       inkscape:persp3d-origin="0.5 : 0.33333333 : 1"
       inkscape:vp_z="1 : 0.5 : 1"
       inkscape:vp_y="0 : 1000 : 0"
       inkscape:vp_x="0 : 0.5 : 1"
       sodipodi:type="inkscape:persp3d" />
    <inkscape:perspective
       id="perspective2929"
       inkscape:persp3d-origin="0.5 : 0.33333333 : 1"
       inkscape:vp_z="1 : 0.5 : 1"
       inkscape:vp_y="0 : 1000 : 0"
       inkscape:vp_x="0 : 0.5 : 1"
       sodipodi:type="inkscape:persp3d" />
    <inkscape:perspective
       id="perspective3113"
       inkscape:persp3d-origin="0.5 : 0.33333333 : 1"
       inkscape:vp_z="1 : 0.5 : 1"
       inkscape:vp_y="0 : 1000 : 0"
       inkscape:vp_x="0 : 0.5 : 1"
       sodipodi:type="inkscape:persp3d" />
    <inkscape:perspective
       id="perspective3929"
       inkscape:persp3d-origin="0.5 : 0.33333333 : 1"
       inkscape:vp_z="1 : 0.5 : 1"
       inkscape:vp_y="0 : 1000 : 0"
       inkscape:vp_x="0 : 0.5 : 1"
       sodipodi:type="inkscape:persp3d" />
    <inkscape:perspective
       id="perspective3979"
       inkscape:persp3d-origin="0.5 : 0.33333333 : 1"
       inkscape:vp_z="1 : 0.5 : 1"
       inkscape:vp_y="0 : 1000 : 0"
       inkscape:vp_x="0 : 0.5 : 1"
       sodipodi:type="inkscape:persp3d" />
    <inkscape:perspective
       id="perspective2903"
       inkscape:persp3d-origin="0.5 : 0.33333333 : 1"
       inkscape:vp_z="1 : 0.5 : 1"
       inkscape:vp_y="0 : 1000 : 0"
       inkscape:vp_x="0 : 0.5 : 1"
       sodipodi:type="inkscape:persp3d" />
    <linearGradient
       inkscape:collect="always"
       xlink:href="#linearGradient6529"
       id="linearGradient4448"
       gradientUnits="userSpaceOnUse"
       gradientTransform="matrix(1.1055039,0,0,1.0787256,-10.629933,-148.99406)"
       x1="127.75238"
       y1="771.62238"
       x2="127.75238"
       y2="1052.4729" />
    <linearGradient
       id="linearGradient6529-6">
      <stop
         id="stop6531-2"
         offset="0"
         style="stop-color:#b6e235;stop-opacity:1;" />
      <stop
         id="stop6533-8"
         offset="1"
         style="stop-color:#36890a;stop-opacity:1" />
    </linearGradient>
    <linearGradient
       inkscape:collect="always"
       xlink:href="#linearGradient6529"
       id="linearGradient4817"
       gradientUnits="userSpaceOnUse"
       gradientTransform="matrix(1.0785404,0,0,1.0596331,-1.8566406e-6,-138.17289)"
       x1="127.75238"
       y1="771.62238"
       x2="127.75238"
       y2="1052.4729" />
    <linearGradient
       inkscape:collect="always"
       xlink:href="#linearGradient6529-62"
       id="linearGradient3146"
       gradientUnits="userSpaceOnUse"
       gradientTransform="matrix(1.105504,0,0,1.0787256,-3.5433049,-156.08068)"
       x1="127.75238"
       y1="771.62238"
       x2="127.75238"
       y2="1052.4729" />
    <linearGradient
       id="linearGradient6529-62">
      <stop
         id="stop6531-6"
         offset="0"
         style="stop-color:#b6e235;stop-opacity:1;" />
      <stop
         id="stop6533-3"
         offset="1"
         style="stop-color:#36890a;stop-opacity:1" />
    </linearGradient>
    <linearGradient
       inkscape:collect="always"
       xlink:href="#linearGradient6529-62"
       id="linearGradient3445"
       gradientUnits="userSpaceOnUse"
       gradientTransform="matrix(1.105504,0,0,1.0787256,-3.809894,-36.08067)"
       x1="127.75238"
       y1="771.62238"
       x2="127.75238"
       y2="1052.4729" />
    <linearGradient
       inkscape:collect="always"
       xlink:href="#linearGradient6529-62"
       id="linearGradient3737"
       gradientUnits="userSpaceOnUse"
       gradientTransform="matrix(1.105504,0,0,1.0787256,-3.5432982,-156.08066)"
       x1="127.75238"
       y1="771.62238"
       x2="127.75238"
       y2="1052.4729" />
  </defs>
  <sodipodi:namedview
     id="base"
     pagecolor="#ffffff"
     bordercolor="#666666"
     borderopacity="1.0"
     inkscape:pageopacity="0.0"
     inkscape:pageshadow="2"
     inkscape:zoom="1.4142136"
     inkscape:cx="-155.21573"
     inkscape:cy="176.63065"
     inkscape:document-units="mm"
     inkscape:current-layer="layer1"
     showgrid="false"
     inkscape:window-width="1920"
     inkscape:window-height="1014"
     inkscape:window-x="0"
     inkscape:window-y="27"
     inkscape:window-maximized="1"
     units="mm"
     borderlayer="true"
     showguides="true"
     inkscape:guide-bbox="true"
     inkscape:showpageshadow="false">
    <sodipodi:guide
       orientation="0,1"
       position="-27.577164,10.629921"
       id="guide5133" />
    <sodipodi:guide
       orientation="0,1"
       position="-197.28279,382.67717"
       id="guide5135" />
    <sodipodi:guide
       orientation="1,0"
       position="10.629921,374.76496"
       id="guide5137" />
    <sodipodi:guide
       orientation="1,0"
       position="272.83465,374.05948"
       id="guide5139" />
  </sodipodi:namedview>
  <metadata
     id="metadata5947">
    <rdf:RDF>
      <cc:Work
         rdf:about="">
        <dc:format>image/svg+xml</dc:format>
        <dc:type
           rdf:resource="http://purl.org/dc/dcmitype/StillImage" />
        <dc:title></dc:title>
      </cc:Work>
    </rdf:RDF>
  </metadata>
  <g
     inkscape:label="Livello 1"
     inkscape:groupmode="layer"
     id="layer1"
     transform="translate(0,-659.05505)">
    <text
       xml:space="preserve"
       style="font-size:28.35808563px;font-style:normal;font-variant:normal;font-weight:bold;font-stretch:normal;text-align:center;line-height:100%;writing-mode:lr-tb;text-anchor:middle;fill:#000000;fill-opacity:1;stroke:none;font-family:Yanone Kaffeesatz;-inkscape-font-specification:Yanone Kaffeesatz Bold"
       x="349.97293"
       y="641.28961"
       id="text3708-1-2"
       sodipodi:linespacing="100%"
       transform="scale(1.1040596,0.9057482)"><tspan
         sodipodi:role="line"
         x="349.97293"
         y="641.28961"
         style="font-size:38px;font-style:normal;font-variant:normal;font-weight:bold;font-stretch:normal;text-align:start;line-height:100%;writing-mode:lr-tb;text-anchor:start;fill:#000000;fill-opacity:1;stroke:none;font-family:Yanone Kaffeesatz;-inkscape-font-specification:Yanone Kaffeesatz Bold"
         id="tspan3902">If you value the</tspan><tspan
         sodipodi:role="line"
         x="349.97293"
         y="679.28961"
         style="font-size:38px;font-style:normal;font-variant:normal;font-weight:bold;font-stretch:normal;text-align:start;line-height:100%;writing-mode:lr-tb;text-anchor:start;fill:#000000;fill-opacity:1;stroke:none;font-family:Yanone Kaffeesatz;-inkscape-font-specification:Yanone Kaffeesatz Bold"
         id="tspan4302">freedom to use</tspan><tspan
         sodipodi:role="line"
         x="349.97293"
         y="717.28961"
         style="font-size:38px;font-style:normal;font-variant:normal;font-weight:bold;font-stretch:normal;text-align:start;line-height:100%;writing-mode:lr-tb;text-anchor:start;fill:#000000;fill-opacity:1;stroke:none;font-family:Yanone Kaffeesatz;-inkscape-font-specification:Yanone Kaffeesatz Bold"
         id="tspan3900">your files</tspan></text>
    <text
       xml:space="preserve"
       style="font-size:33.34799194px;font-style:normal;font-variant:normal;font-weight:bold;font-stretch:normal;text-align:start;line-height:137.00000048%;writing-mode:lr-tb;text-anchor:start;fill:#000000;fill-opacity:1;stroke:none;font-family:Yanone Kaffeesatz;-inkscape-font-specification:Yanone Kaffeesatz Bold"
       x="360.31036"
       y="750.96979"
       id="text3708-1-6-7"
       sodipodi:linespacing="137%"
       transform="scale(1.1040596,0.9057482)"><tspan
         sodipodi:role="line"
         x="360.31036"
         y="750.96979"
         style="font-size:22.06729126px;font-style:normal;font-variant:normal;font-weight:normal;font-stretch:normal;text-align:start;line-height:137.00000048%;writing-mode:lr-tb;text-anchor:start;fill:#000000;fill-opacity:1;stroke:none;font-family:Yanone Kaffeesatz;-inkscape-font-specification:Yanone Kaffeesatz Thin"
         id="tspan2935">with <tspan
   style="font-size:22.06729126px;font-style:normal;font-variant:normal;font-weight:bold;font-stretch:normal;text-align:start;line-height:137.00000048%;writing-mode:lr-tb;text-anchor:start;fill:#000000;font-family:Yanone Kaffeesatz;-inkscape-font-specification:Yanone Kaffeesatz Bold"
   id="tspan3959">any</tspan> ap<tspan
   style="font-size:22.06699944px;font-weight:normal;fill:#000000"
   id="tspan4310">p,</tspan></tspan><tspan
         sodipodi:role="line"
         x="360.31036"
         y="781.20197"
         style="font-size:22.06729126px;font-style:normal;font-variant:normal;font-weight:normal;font-stretch:normal;text-align:start;line-height:137.00000048%;writing-mode:lr-tb;text-anchor:start;fill:#000000;fill-opacity:1;stroke:none;font-family:Yanone Kaffeesatz;-inkscape-font-specification:Yanone Kaffeesatz Thin"
         id="tspan3892">on <tspan
   style="font-size:22.06729126px;font-style:normal;font-variant:normal;font-weight:normal;font-stretch:normal;text-align:start;line-height:137.00000048%;writing-mode:lr-tb;text-anchor:start;fill:#000000;font-family:Yanone Kaffeesatz;-inkscape-font-specification:Yanone Kaffeesatz Bold"
   id="tspan3961"><tspan
   style="font-weight:bold"
   id="tspan3150">any</tspan> device,</tspan></tspan><tspan
         sodipodi:role="line"
         x="360.31036"
         y="811.43414"
         style="font-size:22.06729126px;font-style:normal;font-variant:normal;font-weight:normal;font-stretch:normal;text-align:start;line-height:137.00000048%;writing-mode:lr-tb;text-anchor:start;fill:#000000;fill-opacity:1;stroke:none;font-family:Yanone Kaffeesatz;-inkscape-font-specification:Yanone Kaffeesatz Thin"
         id="tspan3894">on <tspan
   style="font-size:22.06729126px;font-style:normal;font-variant:normal;font-weight:bold;font-stretch:normal;text-align:start;line-height:137.00000048%;writing-mode:lr-tb;text-anchor:start;fill:#000000;font-family:Yanone Kaffeesatz;-inkscape-font-specification:Yanone Kaffeesatz Bold"
   id="tspan3963">any</tspan> platform,</tspan><tspan
         sodipodi:role="line"
         x="360.31036"
         y="841.66638"
         style="font-size:22.06729126px;font-style:normal;font-variant:normal;font-weight:normal;font-stretch:normal;text-align:start;line-height:137.00000048%;writing-mode:lr-tb;text-anchor:start;fill:#000000;fill-opacity:1;stroke:none;font-family:Yanone Kaffeesatz;-inkscape-font-specification:Yanone Kaffeesatz Thin"
         id="tspan3896"><tspan
   style="font-weight:bold"
   id="tspan3156">without </tspan>lock-in,</tspan><tspan
         sodipodi:role="line"
         x="360.31036"
         y="871.89856"
         style="font-size:22.06729126px;font-style:normal;font-variant:normal;font-weight:normal;font-stretch:normal;text-align:start;line-height:137.00000048%;writing-mode:lr-tb;text-anchor:start;fill:#000000;fill-opacity:1;stroke:none;font-family:Yanone Kaffeesatz;-inkscape-font-specification:Yanone Kaffeesatz Thin"
         id="tspan3898"><tspan
   style="font-weight:bold"
   id="tspan3160">without </tspan>patent fees:</tspan></text>
    <text
       xml:space="preserve"
       style="font-size:12px;font-style:normal;font-weight:normal;text-align:center;text-anchor:middle;fill:#000000;fill-opacity:1;stroke:none;font-family:Bitstream Vera Sans"
       x="233.23416"
       y="829.39014"
       id="text4047"><tspan
         sodipodi:role="line"
         id="tspan4049"
         x="233.23416"
         y="829.39014" /></text>
    <text
       sodipodi:linespacing="125%"
       xml:space="preserve"
       style="font-size:84.74745941px;font-style:normal;font-weight:normal;line-height:125%;fill:#000000;fill-opacity:1;stroke:none;font-family:Bitstream Vera Sans"
       x="98.618385"
       y="1039.4767"
       id="text3792"><tspan
         sodipodi:role="line"
         id="tspan3794"
         x="98.618385"
         y="1039.4767"
         style="font-size:20.12752151px;font-style:normal;font-variant:normal;font-weight:normal;font-stretch:normal;text-align:start;line-height:125%;letter-spacing:1.17180514;writing-mode:lr-tb;text-anchor:start;fill:#000000;fill-opacity:1;font-family:Yanone Kaffeesatz;-inkscape-font-specification:Yanone Kaffeesatz" /></text>
    <flowRoot
       xml:space="preserve"
       id="flowRoot4479"
       style="font-size:22px;font-style:normal;font-variant:normal;font-weight:normal;font-stretch:normal;text-align:center;line-height:100%;letter-spacing:-1.51999998px;word-spacing:0px;text-anchor:middle;fill:#000000;fill-opacity:1;stroke:none;font-family:DejaVu Sans;-inkscape-font-specification:DejaVu Sans"><flowRegion
         id="flowRegion4481"><rect
           id="rect4483"
           width="131.52187"
           height="53.740116"
           x="296.98486"
           y="249.0262" /></flowRegion><flowPara
         id="flowPara4485" /></flowRoot>    <g
       transform="translate(-5,195)"
       id="g4525">
      <text
         xml:space="preserve"
         style="font-size:14px;font-style:normal;font-variant:normal;font-weight:bold;font-stretch:normal;text-align:start;line-height:100%;writing-mode:lr-tb;text-anchor:start;fill:#b3f01f;fill-opacity:0.72000002;stroke:none;font-family:Yanone Kaffeesatz;-inkscape-font-specification:Yanone Kaffeesatz Bold"
         x="117.00945"
         y="864.80811"
         id="text4527"
         sodipodi:linespacing="100%"
         transform="scale(1.1040596,0.9057482)"><tspan
           sodipodi:role="line"
           x="117.00945"
           y="864.80811"
           style="font-size:14px;font-style:normal;font-variant:normal;font-weight:bold;font-stretch:normal;text-align:start;line-height:100%;letter-spacing:0.749991;writing-mode:lr-tb;text-anchor:start;fill:#b3f01f;fill-opacity:0.72000002;stroke:none;font-family:Yanone Kaffeesatz;-inkscape-font-specification:Yanone Kaffeesatz Bold"
           id="tspan4529" /></text>
      <text
         transform="scale(1.1040596,0.9057482)"
         sodipodi:linespacing="100%"
         id="text4531"
         y="864.67346"
         x="9.9981985"
         style="font-size:14px;font-style:normal;font-variant:normal;font-weight:bold;font-stretch:normal;text-align:center;line-height:100%;writing-mode:lr-tb;text-anchor:middle;fill:#b3f01f;fill-opacity:1;stroke:none;font-family:Yanone Kaffeesatz;-inkscape-font-specification:Yanone Kaffeesatz Bold"
         xml:space="preserve"><tspan
           id="tspan4533"
           style="font-size:14px;font-style:normal;font-variant:normal;font-weight:bold;font-stretch:normal;text-align:start;line-height:100%;writing-mode:lr-tb;text-anchor:start;fill:#b3f01f;fill-opacity:1;stroke:none;font-family:Yanone Kaffeesatz;-inkscape-font-specification:Yanone Kaffeesatz Bold"
           y="864.67346"
           x="9.9981985"
           sodipodi:role="line" /></text>
      <text
         xml:space="preserve"
         style="font-size:14px;font-style:normal;font-variant:normal;font-weight:bold;font-stretch:normal;text-align:center;line-height:100%;writing-mode:lr-tb;text-anchor:middle;fill:#b3f01f;fill-opacity:0.17000002;stroke:none;font-family:Yanone Kaffeesatz;-inkscape-font-specification:Yanone Kaffeesatz Bold"
         x="9.9981985"
         y="864.67346"
         id="text4583"
         sodipodi:linespacing="100%"
         transform="scale(1.1040596,0.9057482)"><tspan
           sodipodi:role="line"
           x="9.9981985"
           y="864.67346"
           style="font-size:14px;font-style:normal;font-variant:normal;font-weight:bold;font-stretch:normal;text-align:start;line-height:100%;writing-mode:lr-tb;text-anchor:start;fill:#b3f01f;fill-opacity:0.72000002;stroke:none;font-family:Yanone Kaffeesatz;-inkscape-font-specification:Yanone Kaffeesatz Bold"
           id="tspan4585" /></text>
    </g>
    <text
       xml:space="preserve"
       style="font-size:12px;font-style:normal;font-weight:normal;text-align:center;text-anchor:middle;opacity:0.5;fill:#000000;fill-opacity:1;stroke:none;font-family:Bitstream Vera Sans"
       x="-86.765846"
       y="829.3902"
       id="text4047-1"><tspan
         sodipodi:role="line"
         id="tspan4049-1"
         x="-86.765846"
         y="829.3902" /></text>
    <flowRoot
       xml:space="preserve"
       id="flowRoot7196"
       style="font-size:22px;font-style:normal;font-variant:normal;font-weight:normal;font-stretch:normal;text-align:center;line-height:100%;letter-spacing:-1.51999998px;word-spacing:0px;text-anchor:middle;fill:#000000;fill-opacity:1;stroke:none;font-family:DejaVu Sans;-inkscape-font-specification:DejaVu Sans"><flowRegion
         id="flowRegion7198"><rect
           id="rect7200"
           width="340.5"
           height="239"
           x="-37.5"
           y="150.13385" /></flowRegion><flowPara
         id="flowPara7202" /></flowRoot>    <rect
       y="-9.1767731"
       x="-1057.9698"
       height="301.81812"
       width="98.373444"
       id="rect5111"
       style="fill:#ffffff;fill-opacity:1;stroke:none"
       transform="matrix(0,-1,1,0,0,0)" />
    <rect
       style="fill:url(#linearGradient4817);fill-opacity:1;stroke:none"
       id="rect4302-5-3-2"
       width="283.46457"
       height="393.3071"
       x="0"
       y="659.05505"
       inkscape:export-filename="/home/samtuke/fsfe/svn/dfd/trunk/artwork/sources/dfd-2013-a7-back-en-preprint.png"
       inkscape:export-xdpi="300"
       inkscape:export-ydpi="300" />
    <text
       xml:space="preserve"
       style="font-size:20.12752151px;font-style:normal;font-variant:normal;font-weight:normal;font-stretch:normal;text-align:end;line-height:120.00000477%;letter-spacing:0.55000001px;word-spacing:0px;text-anchor:end;fill:#000000;fill-opacity:1;stroke:none;font-family:Abyssinica SIL;-inkscape-font-specification:Abyssinica SIL"
       x="267.19226"
       y="984.29443"
       id="text7787"
       sodipodi:linespacing="120%"><tspan
         sodipodi:role="line"
         x="267.74225"
         y="984.29443"
         id="tspan7791"
         style="font-size:20.12752151px;font-style:normal;font-variant:normal;font-weight:normal;font-stretch:normal;text-align:end;line-height:120.00000477%;letter-spacing:0.55000001px;text-anchor:end;font-family:Yanone Kaffeesatz;-inkscape-font-specification:Yanone Kaffeesatz">#dfd2015</tspan><tspan
         sodipodi:role="line"
         x="267.74225"
         y="1008.4474"
         style="font-size:20.12752151px;font-style:normal;font-variant:normal;font-weight:normal;font-stretch:normal;text-align:end;line-height:120.00000477%;letter-spacing:0.55000001px;text-anchor:end;font-family:Yanone Kaffeesatz;-inkscape-font-specification:Yanone Kaffeesatz"
         id="tspan4193">@documentfreedom</tspan><tspan
         sodipodi:role="line"
         x="267.74228"
         y="1032.6005"
         style="font-size:20.12752151px;font-style:normal;font-variant:normal;font-weight:normal;font-stretch:normal;text-align:end;line-height:120.00000477%;letter-spacing:0.55000001px;text-anchor:end;font-family:Yanone Kaffeesatz;-inkscape-font-specification:Yanone Kaffeesatz"
         id="tspan4195">DocumentFreedom.org</tspan></text>
    <g
       id="g5111"
       transform="translate(0.93879472,0)">
      <text
         transform="scale(1.1040596,0.9057482)"
         sodipodi:linespacing="85.000002%"
         id="text4517"
         y="774.44373"
         x="26.30455"
         style="font-size:18px;font-style:normal;font-variant:normal;font-weight:bold;font-stretch:normal;text-align:start;line-height:85.00000238%;letter-spacing:0.52999997px;writing-mode:lr-tb;text-anchor:start;fill:#ffffff;fill-opacity:1;stroke:none;font-family:Yanone Kaffeesatz;-inkscape-font-specification:Yanone Kaffeesatz Bold"
         xml:space="preserve"><tspan
           id="tspan7797"
           style="font-size:18px;font-style:normal;font-variant:normal;font-weight:bold;font-stretch:normal;text-align:start;line-height:85.00000238%;letter-spacing:0.52999997px;writing-mode:lr-tb;text-anchor:start;fill:#ffffff;fill-opacity:1;stroke:none;font-family:Yanone Kaffeesatz;-inkscape-font-specification:Yanone Kaffeesatz Bold"
           y="774.44373"
           x="26.30455"
           sodipodi:role="line">If you value your freedom:</tspan><tspan
           id="tspan7801"
           style="font-size:18px;font-style:normal;font-variant:normal;font-weight:bold;font-stretch:normal;text-align:start;line-height:85.00000238%;letter-spacing:0.52999997px;writing-mode:lr-tb;text-anchor:start;fill:#ffffff;fill-opacity:1;stroke:none;font-family:Yanone Kaffeesatz;-inkscape-font-specification:Yanone Kaffeesatz Bold"
           y="789.74371"
           x="26.30455"
           sodipodi:role="line">Insist on Open Standards!</tspan></text>
      <text
         xml:space="preserve"
         style="font-size:18px;font-style:normal;font-variant:normal;font-weight:bold;font-stretch:normal;text-align:start;line-height:85.00000238%;letter-spacing:0.52999997px;writing-mode:lr-tb;text-anchor:start;fill:#45a30d;fill-opacity:1;stroke:none;font-family:Yanone Kaffeesatz;-inkscape-font-specification:Yanone Kaffeesatz Bold"
         x="26.30455"
         y="823.6156"
         id="text6402"
         sodipodi:linespacing="85.000002%"
         transform="scale(1.1040596,0.9057482)"><tspan
           id="tspan7803"
           sodipodi:role="line"
           x="26.30455"
           y="823.6156"
           style="font-size:18px;font-style:normal;font-variant:normal;font-weight:bold;font-stretch:normal;text-align:start;line-height:85.00000238%;letter-spacing:0.52999997px;writing-mode:lr-tb;text-anchor:start;fill:#45a30d;fill-opacity:1;stroke:none;font-family:Yanone Kaffeesatz;-inkscape-font-specification:Yanone Kaffeesatz Bold">Si vous tenez à vos libertés :</tspan><tspan
           sodipodi:role="line"
           x="26.30455"
           y="838.91559"
           style="font-size:18px;font-style:normal;font-variant:normal;font-weight:bold;font-stretch:normal;text-align:start;line-height:85.00000238%;letter-spacing:0.52999997px;writing-mode:lr-tb;text-anchor:start;fill:#45a30d;fill-opacity:1;stroke:none;font-family:Yanone Kaffeesatz;-inkscape-font-specification:Yanone Kaffeesatz Bold"
           id="tspan3414">Demandez des Standards Ouverts!</tspan></text>
      <text
         transform="scale(1.1040596,0.9057482)"
         sodipodi:linespacing="85.000002%"
         id="text6406"
         y="871.07745"
         x="26.30455"
         style="font-size:18px;font-style:normal;font-variant:normal;font-weight:bold;font-stretch:normal;text-align:start;line-height:85.00000238%;letter-spacing:0.53198439px;writing-mode:lr-tb;text-anchor:start;fill:#317d0d;fill-opacity:1;stroke:none;font-family:Yanone Kaffeesatz;-inkscape-font-specification:Yanone Kaffeesatz Bold"
         xml:space="preserve"><tspan
           id="tspan6408"
           style="font-size:18px;font-style:normal;font-variant:normal;font-weight:bold;font-stretch:normal;text-align:start;line-height:85.00000238%;letter-spacing:0.53198439px;writing-mode:lr-tb;text-anchor:start;fill:#317d0d;fill-opacity:1;stroke:none;font-family:Yanone Kaffeesatz;-inkscape-font-specification:Yanone Kaffeesatz Bold"
           y="871.07745"
           x="26.30455"
           sodipodi:role="line">Wenn Dir Deine Freiheit wichtig ist:</tspan><tspan
           id="tspan7805"
           style="font-size:18px;font-style:normal;font-variant:normal;font-weight:bold;font-stretch:normal;text-align:start;line-height:85.00000238%;letter-spacing:0.53198439px;writing-mode:lr-tb;text-anchor:start;fill:#317d0d;fill-opacity:1;stroke:none;font-family:Yanone Kaffeesatz;-inkscape-font-specification:Yanone Kaffeesatz Bold"
           y="886.37744"
           x="26.30455"
           sodipodi:role="line">Bestehe auf Offene Standards!</tspan></text>
      <text
         xml:space="preserve"
         style="font-size:16.18465614px;font-style:normal;font-variant:normal;font-weight:bold;font-stretch:normal;text-align:start;line-height:85.00000238%;letter-spacing:0.45262903px;writing-mode:lr-tb;text-anchor:start;fill:#c3f224;fill-opacity:1;stroke:none;font-family:Yanone Kaffeesatz;-inkscape-font-specification:Yanone Kaffeesatz Bold"
         x="25.404476"
         y="998.185"
         id="text8472"
         sodipodi:linespacing="85.000002%"
         transform="scale(1.1040596,0.9057482)"><tspan
           sodipodi:role="line"
           x="25.404476"
           y="998.185"
           style="font-size:16.18465614px;font-style:normal;font-variant:normal;font-weight:bold;font-stretch:normal;text-align:start;line-height:85.00000238%;letter-spacing:0.45262903px;writing-mode:lr-tb;text-anchor:start;fill:#c3f224;fill-opacity:1;stroke:none;font-family:Yanone Kaffeesatz;-inkscape-font-specification:Yanone Kaffeesatz Bold"
           id="tspan8474" /><tspan
           sodipodi:role="line"
           x="25.404476"
           y="1011.942"
           style="font-size:16.18465614px;font-style:normal;font-variant:normal;font-weight:bold;font-stretch:normal;text-align:start;line-height:85.00000238%;letter-spacing:0.45262903px;writing-mode:lr-tb;text-anchor:start;fill:#c3f224;fill-opacity:1;stroke:none;font-family:Yanone Kaffeesatz;-inkscape-font-specification:Yanone Kaffeesatz Bold"
           id="tspan8476">E<tspan
   style="font-size:10.5817728px"
   id="tspan3422">ğ</tspan>er özgürlü<tspan
   style="font-size:10.5817728px"
   id="tspan3420">ğ</tspan>ünüze de<tspan
   style="font-size:10.5817728px"
   id="tspan3416">ğ</tspan>er veriyorsanız:</tspan><tspan
           sodipodi:role="line"
           x="25.404476"
           y="1025.699"
           style="font-size:16.18465614px;font-style:normal;font-variant:normal;font-weight:bold;font-stretch:normal;text-align:start;line-height:85.00000238%;letter-spacing:0.45262903px;writing-mode:lr-tb;text-anchor:start;fill:#c3f224;fill-opacity:1;stroke:none;font-family:Yanone Kaffeesatz;-inkscape-font-specification:Yanone Kaffeesatz Bold"
           id="tspan8478">Açık Standartlar Konusunda Israrcı Olun!</tspan></text>
      <g
         transform="translate(5.3174591,-8.9959522)"
         id="g8511"
         style="fill:#d6f571;fill-opacity:1">
        <text
           transform="scale(1.1040596,0.9057482)"
           sodipodi:linespacing="85.000002%"
           id="text8513"
           y="974.30426"
           x="20.582527"
           style="font-size:18px;font-style:normal;font-variant:normal;font-weight:bold;font-stretch:normal;text-align:start;line-height:85.00000238%;letter-spacing:0.53198439px;writing-mode:lr-tb;text-anchor:start;fill:#d6f571;fill-opacity:1;stroke:none;font-family:Yanone Kaffeesatz;-inkscape-font-specification:Yanone Kaffeesatz Bold"
           xml:space="preserve"><tspan
             style="font-size:18px;font-style:normal;font-variant:normal;font-weight:bold;font-stretch:normal;text-align:start;line-height:85.00000238%;letter-spacing:0.53198439px;writing-mode:lr-tb;text-anchor:start;fill:#d6f571;fill-opacity:1;stroke:none;font-family:Yanone Kaffeesatz;-inkscape-font-specification:Yanone Kaffeesatz Bold"
             y="974.30426"
             x="20.582527"
             sodipodi:role="line"
             id="tspan8517">Se valorizas a tua liberdade:</tspan><tspan
             id="tspan4190"
             style="font-size:18px;font-style:normal;font-variant:normal;font-weight:bold;font-stretch:normal;text-align:start;line-height:85.00000238%;letter-spacing:0.53198439px;writing-mode:lr-tb;text-anchor:start;fill:#d6f571;fill-opacity:1;stroke:none;font-family:Yanone Kaffeesatz;-inkscape-font-specification:Yanone Kaffeesatz Bold"
             y="989.60425"
             x="20.582527"
             sodipodi:role="line">Utiliza padrões abertos</tspan></text>
      </g>
      <text
         transform="scale(1.1040596,0.9057482)"
         sodipodi:linespacing="85.000002%"
         id="text8548"
         y="916.88336"
         x="26.07811"
         style="font-size:18px;font-style:normal;font-variant:normal;font-weight:bold;font-stretch:normal;text-align:start;line-height:85.00000238%;letter-spacing:0.53198439px;writing-mode:lr-tb;text-anchor:start;fill:#406809;fill-opacity:1;stroke:none;font-family:Yanone Kaffeesatz;-inkscape-font-specification:Yanone Kaffeesatz Bold"
         xml:space="preserve"><tspan
           style="font-size:18px;font-style:normal;font-variant:normal;font-weight:bold;font-stretch:normal;text-align:start;line-height:85.00000238%;letter-spacing:0.53198439px;writing-mode:lr-tb;text-anchor:start;fill:#406809;fill-opacity:1;stroke:none;font-family:Yanone Kaffeesatz;-inkscape-font-specification:Yanone Kaffeesatz Bold"
           y="916.88336"
           x="26.07811"
           sodipodi:role="line"
           id="tspan8552">Si valoras tu libertad:</tspan><tspan
           style="font-size:18px;font-style:normal;font-variant:normal;font-weight:bold;font-stretch:normal;text-align:start;line-height:85.00000238%;letter-spacing:0.53198439px;writing-mode:lr-tb;text-anchor:start;fill:#406809;fill-opacity:1;stroke:none;font-family:Yanone Kaffeesatz;-inkscape-font-specification:Yanone Kaffeesatz Bold"
           y="932.18335"
           x="26.07811"
           sodipodi:role="line"
           id="tspan3410">¡Utiliza estándares abiertos!</tspan></text>
    </g>
    <g
       id="barcode"
       transform="matrix(2.0143195,0,0,2.0143195,16.4651,966.06445)"
       style="fill:#000000">
      <rect
         id="rect3744"
         height="35"
         width="35"
         y="0"
         x="0"
         style="fill:#ffffff" />
      <rect
         id="rect3746"
         height="1"
         width="7"
         y="1"
         x="1" />
      <rect
         id="rect3748"
         height="1"
         width="1"
         y="1"
         x="9" />
      <rect
         id="rect3750"
         height="1"
         width="1"
         y="1"
         x="11" />
      <rect
         id="rect3752"
         height="1"
         width="2"
         y="1"
         x="13" />
      <rect
         id="rect3754"
         height="1"
         width="1"
         y="1"
         x="16" />
      <rect
         id="rect3756"
         height="1"
         width="1"
         y="1"
         x="20" />
      <rect
         id="rect3758"
         height="1"
         width="3"
         y="1"
         x="23" />
      <rect
         id="rect3760"
         height="1"
         width="7"
         y="1"
         x="27" />
      <rect
         id="rect3762"
         height="1"
         width="1"
         y="2"
         x="1" />
      <rect
         id="rect3764"
         height="1"
         width="1"
         y="2"
         x="7" />
      <rect
         id="rect3766"
         height="1"
         width="5"
         y="2"
         x="10" />
      <rect
         id="rect3768"
         height="1"
         width="1"
         y="2"
         x="17" />
      <rect
         id="rect3770"
         height="1"
         width="5"
         y="2"
         x="21" />
      <rect
         id="rect3772"
         height="1"
         width="1"
         y="2"
         x="27" />
      <rect
         id="rect3774"
         height="1"
         width="1"
         y="2"
         x="33" />
      <rect
         id="rect3776"
         height="1"
         width="1"
         y="3"
         x="1" />
      <rect
         id="rect3778"
         height="1"
         width="3"
         y="3"
         x="3" />
      <rect
         id="rect3780"
         height="1"
         width="1"
         y="3"
         x="7" />
      <rect
         id="rect3782"
         height="1"
         width="3"
         y="3"
         x="9" />
      <rect
         id="rect3784"
         height="1"
         width="1"
         y="3"
         x="17" />
      <rect
         id="rect3786"
         height="1"
         width="2"
         y="3"
         x="20" />
      <rect
         id="rect3788"
         height="1"
         width="2"
         y="3"
         x="24" />
      <rect
         id="rect3790"
         height="1"
         width="1"
         y="3"
         x="27" />
      <rect
         id="rect3792"
         height="1"
         width="3"
         y="3"
         x="29" />
      <rect
         id="rect3794"
         height="1"
         width="1"
         y="3"
         x="33" />
      <rect
         id="rect3796"
         height="1"
         width="1"
         y="4"
         x="1" />
      <rect
         id="rect3798"
         height="1"
         width="3"
         y="4"
         x="3" />
      <rect
         id="rect3800"
         height="1"
         width="1"
         y="4"
         x="7" />
      <rect
         id="rect3802"
         height="1"
         width="3"
         y="4"
         x="9" />
      <rect
         id="rect3804"
         height="1"
         width="1"
         y="4"
         x="13" />
      <rect
         id="rect3806"
         height="1"
         width="5"
         y="4"
         x="15" />
      <rect
         id="rect3808"
         height="1"
         width="3"
         y="4"
         x="23" />
      <rect
         id="rect3810"
         height="1"
         width="1"
         y="4"
         x="27" />
      <rect
         id="rect3812"
         height="1"
         width="3"
         y="4"
         x="29" />
      <rect
         id="rect3814"
         height="1"
         width="1"
         y="4"
         x="33" />
      <rect
         id="rect3816"
         height="1"
         width="1"
         y="5"
         x="1" />
      <rect
         id="rect3818"
         height="1"
         width="3"
         y="5"
         x="3" />
      <rect
         id="rect3820"
         height="1"
         width="1"
         y="5"
         x="7" />
      <rect
         id="rect3822"
         height="1"
         width="1"
         y="5"
         x="9" />
      <rect
         id="rect3824"
         height="1"
         width="2"
         y="5"
         x="12" />
      <rect
         id="rect3826"
         height="1"
         width="2"
         y="5"
         x="15" />
      <rect
         id="rect3828"
         height="1"
         width="3"
         y="5"
         x="18" />
      <rect
         id="rect3830"
         height="1"
         width="1"
         y="5"
         x="23" />
      <rect
         id="rect3832"
         height="1"
         width="1"
         y="5"
         x="27" />
      <rect
         id="rect3834"
         height="1"
         width="3"
         y="5"
         x="29" />
      <rect
         id="rect3836"
         height="1"
         width="1"
         y="5"
         x="33" />
      <rect
         id="rect3838"
         height="1"
         width="1"
         y="6"
         x="1" />
      <rect
         id="rect3840"
         height="1"
         width="1"
         y="6"
         x="7" />
      <rect
         id="rect3842"
         height="1"
         width="2"
         y="6"
         x="11" />
      <rect
         id="rect3844"
         height="1"
         width="1"
         y="6"
         x="14" />
      <rect
         id="rect3846"
         height="1"
         width="1"
         y="6"
         x="20" />
      <rect
         id="rect3848"
         height="1"
         width="1"
         y="6"
         x="23" />
      <rect
         id="rect3850"
         height="1"
         width="1"
         y="6"
         x="25" />
      <rect
         id="rect3852"
         height="1"
         width="1"
         y="6"
         x="27" />
      <rect
         id="rect3854"
         height="1"
         width="1"
         y="6"
         x="33" />
      <rect
         id="rect3856"
         height="1"
         width="7"
         y="7"
         x="1" />
      <rect
         id="rect3858"
         height="1"
         width="1"
         y="7"
         x="9" />
      <rect
         id="rect3860"
         height="1"
         width="1"
         y="7"
         x="11" />
      <rect
         id="rect3862"
         height="1"
         width="1"
         y="7"
         x="13" />
      <rect
         id="rect3864"
         height="1"
         width="1"
         y="7"
         x="15" />
      <rect
         id="rect3866"
         height="1"
         width="1"
         y="7"
         x="17" />
      <rect
         id="rect3868"
         height="1"
         width="1"
         y="7"
         x="19" />
      <rect
         id="rect3870"
         height="1"
         width="1"
         y="7"
         x="21" />
      <rect
         id="rect3872"
         height="1"
         width="1"
         y="7"
         x="23" />
      <rect
         id="rect3874"
         height="1"
         width="1"
         y="7"
         x="25" />
      <rect
         id="rect3876"
         height="1"
         width="7"
         y="7"
         x="27" />
      <rect
         id="rect3878"
         height="1"
         width="1"
         y="8"
         x="11" />
      <rect
         id="rect3880"
         height="1"
         width="1"
         y="8"
         x="13" />
      <rect
         id="rect3882"
         height="1"
         width="2"
         y="8"
         x="17" />
      <rect
         id="rect3884"
         height="1"
         width="1"
         y="8"
         x="20" />
      <rect
         id="rect3886"
         height="1"
         width="1"
         y="8"
         x="25" />
      <rect
         id="rect3888"
         height="1"
         width="4"
         y="9"
         x="1" />
      <rect
         id="rect3890"
         height="1"
         width="1"
         y="9"
         x="7" />
      <rect
         id="rect3892"
         height="1"
         width="1"
         y="9"
         x="9" />
      <rect
         id="rect3894"
         height="1"
         width="4"
         y="9"
         x="11" />
      <rect
         id="rect3896"
         height="1"
         width="3"
         y="9"
         x="16" />
      <rect
         id="rect3898"
         height="1"
         width="1"
         y="9"
         x="20" />
      <rect
         id="rect3900"
         height="1"
         width="1"
         y="9"
         x="22" />
      <rect
         id="rect3902"
         height="1"
         width="1"
         y="9"
         x="26" />
      <rect
         id="rect3904"
         height="1"
         width="3"
         y="9"
         x="29" />
      <rect
         id="rect3906"
         height="1"
         width="1"
         y="9"
         x="33" />
      <rect
         id="rect3908"
         height="1"
         width="4"
         y="10"
         x="1" />
      <rect
         id="rect3910"
         height="1"
         width="1"
         y="10"
         x="8" />
      <rect
         id="rect3912"
         height="1"
         width="1"
         y="10"
         x="11" />
      <rect
         id="rect3914"
         height="1"
         width="3"
         y="10"
         x="13" />
      <rect
         id="rect3916"
         height="1"
         width="2"
         y="10"
         x="20" />
      <rect
         id="rect3918"
         height="1"
         width="1"
         y="10"
         x="24" />
      <rect
         id="rect3920"
         height="1"
         width="1"
         y="10"
         x="27" />
      <rect
         id="rect3922"
         height="1"
         width="2"
         y="10"
         x="32" />
      <rect
         id="rect3924"
         height="1"
         width="3"
         y="11"
         x="1" />
      <rect
         id="rect3926"
         height="1"
         width="2"
         y="11"
         x="6" />
      <rect
         id="rect3928"
         height="1"
         width="5"
         y="11"
         x="10" />
      <rect
         id="rect3930"
         height="1"
         width="2"
         y="11"
         x="17" />
      <rect
         id="rect3932"
         height="1"
         width="2"
         y="11"
         x="21" />
      <rect
         id="rect3934"
         height="1"
         width="1"
         y="11"
         x="24" />
      <rect
         id="rect3936"
         height="1"
         width="2"
         y="11"
         x="26" />
      <rect
         id="rect3938"
         height="1"
         width="2"
         y="11"
         x="30" />
      <rect
         id="rect3940"
         height="1"
         width="1"
         y="11"
         x="33" />
      <rect
         id="rect3942"
         height="1"
         width="1"
         y="12"
         x="6" />
      <rect
         id="rect3944"
         height="1"
         width="4"
         y="12"
         x="8" />
      <rect
         id="rect3946"
         height="1"
         width="1"
         y="12"
         x="16" />
      <rect
         id="rect3948"
         height="1"
         width="3"
         y="12"
         x="19" />
      <rect
         id="rect3950"
         height="1"
         width="1"
         y="12"
         x="24" />
      <rect
         id="rect3952"
         height="1"
         width="4"
         y="12"
         x="26" />
      <rect
         id="rect3954"
         height="1"
         width="1"
         y="12"
         x="32" />
      <rect
         id="rect3956"
         height="1"
         width="5"
         y="13"
         x="7" />
      <rect
         id="rect3958"
         height="1"
         width="1"
         y="13"
         x="13" />
      <rect
         id="rect3960"
         height="1"
         width="5"
         y="13"
         x="15" />
      <rect
         id="rect3962"
         height="1"
         width="2"
         y="13"
         x="22" />
      <rect
         id="rect3964"
         height="1"
         width="1"
         y="13"
         x="26" />
      <rect
         id="rect3966"
         height="1"
         width="1"
         y="13"
         x="29" />
      <rect
         id="rect3968"
         height="1"
         width="1"
         y="14"
         x="1" />
      <rect
         id="rect3970"
         height="1"
         width="1"
         y="14"
         x="5" />
      <rect
         id="rect3972"
         height="1"
         width="1"
         y="14"
         x="9" />
      <rect
         id="rect3974"
         height="1"
         width="2"
         y="14"
         x="12" />
      <rect
         id="rect3976"
         height="1"
         width="2"
         y="14"
         x="15" />
      <rect
         id="rect3978"
         height="1"
         width="3"
         y="14"
         x="18" />
      <rect
         id="rect3980"
         height="1"
         width="2"
         y="14"
         x="22" />
      <rect
         id="rect3982"
         height="1"
         width="2"
         y="14"
         x="25" />
      <rect
         id="rect3984"
         height="1"
         width="1"
         y="14"
         x="28" />
      <rect
         id="rect3986"
         height="1"
         width="2"
         y="14"
         x="31" />
      <rect
         id="rect3988"
         height="1"
         width="1"
         y="15"
         x="2" />
      <rect
         id="rect3990"
         height="1"
         width="4"
         y="15"
         x="4" />
      <rect
         id="rect3992"
         height="1"
         width="1"
         y="15"
         x="12" />
      <rect
         id="rect3994"
         height="1"
         width="1"
         y="15"
         x="14" />
      <rect
         id="rect3996"
         height="1"
         width="4"
         y="15"
         x="19" />
      <rect
         id="rect3998"
         height="1"
         width="2"
         y="15"
         x="25" />
      <rect
         id="rect4000"
         height="1"
         width="2"
         y="15"
         x="30" />
      <rect
         id="rect4002"
         height="1"
         width="1"
         y="16"
         x="3" />
      <rect
         id="rect4004"
         height="1"
         width="2"
         y="16"
         x="5" />
      <rect
         id="rect4006"
         height="1"
         width="1"
         y="16"
         x="12" />
      <rect
         id="rect4008"
         height="1"
         width="2"
         y="16"
         x="15" />
      <rect
         id="rect4010"
         height="1"
         width="4"
         y="16"
         x="21" />
      <rect
         id="rect4012"
         height="1"
         width="1"
         y="16"
         x="27" />
      <rect
         id="rect4014"
         height="1"
         width="1"
         y="16"
         x="29" />
      <rect
         id="rect4016"
         height="1"
         width="1"
         y="16"
         x="31" />
      <rect
         id="rect4018"
         height="1"
         width="2"
         y="17"
         x="1" />
      <rect
         id="rect4020"
         height="1"
         width="1"
         y="17"
         x="4" />
      <rect
         id="rect4022"
         height="1"
         width="2"
         y="17"
         x="7" />
      <rect
         id="rect4024"
         height="1"
         width="1"
         y="17"
         x="10" />
      <rect
         id="rect4026"
         height="1"
         width="1"
         y="17"
         x="13" />
      <rect
         id="rect4028"
         height="1"
         width="1"
         y="17"
         x="15" />
      <rect
         id="rect4030"
         height="1"
         width="1"
         y="17"
         x="20" />
      <rect
         id="rect4032"
         height="1"
         width="2"
         y="17"
         x="22" />
      <rect
         id="rect4034"
         height="1"
         width="2"
         y="17"
         x="26" />
      <rect
         id="rect4036"
         height="1"
         width="5"
         y="17"
         x="29" />
      <rect
         id="rect4038"
         height="1"
         width="1"
         y="18"
         x="1" />
      <rect
         id="rect4040"
         height="1"
         width="4"
         y="18"
         x="3" />
      <rect
         id="rect4042"
         height="1"
         width="1"
         y="18"
         x="8" />
      <rect
         id="rect4044"
         height="1"
         width="2"
         y="18"
         x="15" />
      <rect
         id="rect4046"
         height="1"
         width="9"
         y="18"
         x="23" />
      <rect
         id="rect4048"
         height="1"
         width="1"
         y="18"
         x="33" />
      <rect
         id="rect4050"
         height="1"
         width="3"
         y="19"
         x="1" />
      <rect
         id="rect4052"
         height="1"
         width="2"
         y="19"
         x="7" />
      <rect
         id="rect4054"
         height="1"
         width="5"
         y="19"
         x="14" />
      <rect
         id="rect4056"
         height="1"
         width="2"
         y="19"
         x="25" />
      <rect
         id="rect4058"
         height="1"
         width="1"
         y="19"
         x="30" />
      <rect
         id="rect4060"
         height="1"
         width="1"
         y="19"
         x="32" />
      <rect
         id="rect4062"
         height="1"
         width="1"
         y="20"
         x="4" />
      <rect
         id="rect4064"
         height="1"
         width="1"
         y="20"
         x="9" />
      <rect
         id="rect4066"
         height="1"
         width="2"
         y="20"
         x="11" />
      <rect
         id="rect4068"
         height="1"
         width="2"
         y="20"
         x="14" />
      <rect
         id="rect4070"
         height="1"
         width="2"
         y="20"
         x="17" />
      <rect
         id="rect4072"
         height="1"
         width="1"
         y="20"
         x="20" />
      <rect
         id="rect4074"
         height="1"
         width="1"
         y="20"
         x="23" />
      <rect
         id="rect4076"
         height="1"
         width="4"
         y="20"
         x="25" />
      <rect
         id="rect4078"
         height="1"
         width="1"
         y="20"
         x="33" />
      <rect
         id="rect4080"
         height="1"
         width="2"
         y="21"
         x="4" />
      <rect
         id="rect4082"
         height="1"
         width="2"
         y="21"
         x="7" />
      <rect
         id="rect4084"
         height="1"
         width="3"
         y="21"
         x="14" />
      <rect
         id="rect4086"
         height="1"
         width="2"
         y="21"
         x="18" />
      <rect
         id="rect4088"
         height="1"
         width="1"
         y="21"
         x="22" />
      <rect
         id="rect4090"
         height="1"
         width="1"
         y="21"
         x="24" />
      <rect
         id="rect4092"
         height="1"
         width="1"
         y="21"
         x="31" />
      <rect
         id="rect4094"
         height="1"
         width="2"
         y="22"
         x="1" />
      <rect
         id="rect4096"
         height="1"
         width="3"
         y="22"
         x="4" />
      <rect
         id="rect4098"
         height="1"
         width="3"
         y="22"
         x="20" />
      <rect
         id="rect4100"
         height="1"
         width="2"
         y="22"
         x="24" />
      <rect
         id="rect4102"
         height="1"
         width="1"
         y="22"
         x="27" />
      <rect
         id="rect4104"
         height="1"
         width="4"
         y="22"
         x="30" />
      <rect
         id="rect4106"
         height="1"
         width="2"
         y="23"
         x="3" />
      <rect
         id="rect4108"
         height="1"
         width="2"
         y="23"
         x="6" />
      <rect
         id="rect4110"
         height="1"
         width="2"
         y="23"
         x="9" />
      <rect
         id="rect4112"
         height="1"
         width="1"
         y="23"
         x="15" />
      <rect
         id="rect4114"
         height="1"
         width="1"
         y="23"
         x="18" />
      <rect
         id="rect4116"
         height="1"
         width="5"
         y="23"
         x="24" />
      <rect
         id="rect4118"
         height="1"
         width="1"
         y="23"
         x="30" />
      <rect
         id="rect4120"
         height="1"
         width="2"
         y="23"
         x="32" />
      <rect
         id="rect4122"
         height="1"
         width="1"
         y="24"
         x="2" />
      <rect
         id="rect4124"
         height="1"
         width="2"
         y="24"
         x="4" />
      <rect
         id="rect4126"
         height="1"
         width="5"
         y="24"
         x="11" />
      <rect
         id="rect4128"
         height="1"
         width="1"
         y="24"
         x="21" />
      <rect
         id="rect4130"
         height="1"
         width="1"
         y="24"
         x="25" />
      <rect
         id="rect4132"
         height="1"
         width="1"
         y="24"
         x="28" />
      <rect
         id="rect4134"
         height="1"
         width="1"
         y="24"
         x="30" />
      <rect
         id="rect4136"
         height="1"
         width="1"
         y="24"
         x="32" />
      <rect
         id="rect4138"
         height="1"
         width="1"
         y="25"
         x="1" />
      <rect
         id="rect4140"
         height="1"
         width="1"
         y="25"
         x="5" />
      <rect
         id="rect4142"
         height="1"
         width="1"
         y="25"
         x="7" />
      <rect
         id="rect4144"
         height="1"
         width="2"
         y="25"
         x="11" />
      <rect
         id="rect4146"
         height="1"
         width="1"
         y="25"
         x="16" />
      <rect
         id="rect4148"
         height="1"
         width="1"
         y="25"
         x="18" />
      <rect
         id="rect4150"
         height="1"
         width="7"
         y="25"
         x="23" />
      <rect
         id="rect4152"
         height="1"
         width="1"
         y="25"
         x="33" />
      <rect
         id="rect4154"
         height="1"
         width="2"
         y="26"
         x="9" />
      <rect
         id="rect4156"
         height="1"
         width="1"
         y="26"
         x="12" />
      <rect
         id="rect4158"
         height="1"
         width="1"
         y="26"
         x="14" />
      <rect
         id="rect4160"
         height="1"
         width="2"
         y="26"
         x="16" />
      <rect
         id="rect4162"
         height="1"
         width="1"
         y="26"
         x="20" />
      <rect
         id="rect4164"
         height="1"
         width="1"
         y="26"
         x="22" />
      <rect
         id="rect4166"
         height="1"
         width="2"
         y="26"
         x="24" />
      <rect
         id="rect4168"
         height="1"
         width="1"
         y="26"
         x="29" />
      <rect
         id="rect4170"
         height="1"
         width="1"
         y="26"
         x="31" />
      <rect
         id="rect4172"
         height="1"
         width="7"
         y="27"
         x="1" />
      <rect
         id="rect4174"
         height="1"
         width="2"
         y="27"
         x="10" />
      <rect
         id="rect4176"
         height="1"
         width="1"
         y="27"
         x="13" />
      <rect
         id="rect4178"
         height="1"
         width="1"
         y="27"
         x="15" />
      <rect
         id="rect4180"
         height="1"
         width="1"
         y="27"
         x="18" />
      <rect
         id="rect4182"
         height="1"
         width="2"
         y="27"
         x="20" />
      <rect
         id="rect4184"
         height="1"
         width="2"
         y="27"
         x="24" />
      <rect
         id="rect4186"
         height="1"
         width="1"
         y="27"
         x="27" />
      <rect
         id="rect4188"
         height="1"
         width="3"
         y="27"
         x="29" />
      <rect
         id="rect4190"
         height="1"
         width="1"
         y="28"
         x="1" />
      <rect
         id="rect4192"
         height="1"
         width="1"
         y="28"
         x="7" />
      <rect
         id="rect4194"
         height="1"
         width="2"
         y="28"
         x="10" />
      <rect
         id="rect4196"
         height="1"
         width="2"
         y="28"
         x="13" />
      <rect
         id="rect4198"
         height="1"
         width="1"
         y="28"
         x="17" />
      <rect
         id="rect4200"
         height="1"
         width="4"
         y="28"
         x="22" />
      <rect
         id="rect4202-4"
         height="1"
         width="5"
         y="28"
         x="29" />
      <rect
         id="rect4204-0"
         height="1"
         width="1"
         y="29"
         x="1" />
      <rect
         id="rect4206-2"
         height="1"
         width="3"
         y="29"
         x="3" />
      <rect
         id="rect4208-9"
         height="1"
         width="1"
         y="29"
         x="7" />
      <rect
         id="rect4210-1"
         height="1"
         width="1"
         y="29"
         x="10" />
      <rect
         id="rect4212-4"
         height="1"
         width="1"
         y="29"
         x="12" />
      <rect
         id="rect4214-2"
         height="1"
         width="15"
         y="29"
         x="17" />
      <rect
         id="rect4216-1"
         height="1"
         width="1"
         y="30"
         x="1" />
      <rect
         id="rect4218-0"
         height="1"
         width="3"
         y="30"
         x="3" />
      <rect
         id="rect4220-7"
         height="1"
         width="1"
         y="30"
         x="7" />
      <rect
         id="rect4222-7"
         height="1"
         width="1"
         y="30"
         x="9" />
      <rect
         id="rect4224-5"
         height="1"
         width="1"
         y="30"
         x="11" />
      <rect
         id="rect4226-9"
         height="1"
         width="2"
         y="30"
         x="13" />
      <rect
         id="rect4228-6"
         height="1"
         width="1"
         y="30"
         x="16" />
      <rect
         id="rect4230-4"
         height="1"
         width="2"
         y="30"
         x="18" />
      <rect
         id="rect4232-6"
         height="1"
         width="1"
         y="30"
         x="21" />
      <rect
         id="rect4234-3"
         height="1"
         width="2"
         y="30"
         x="24" />
      <rect
         id="rect4236-8"
         height="1"
         width="1"
         y="30"
         x="33" />
      <rect
         id="rect4238-6"
         height="1"
         width="1"
         y="31"
         x="1" />
      <rect
         id="rect4240-6"
         height="1"
         width="3"
         y="31"
         x="3" />
      <rect
         id="rect4242-0"
         height="1"
         width="1"
         y="31"
         x="7" />
      <rect
         id="rect4244-2"
         height="1"
         width="5"
         y="31"
         x="9" />
      <rect
         id="rect4246-5"
         height="1"
         width="3"
         y="31"
         x="16" />
      <rect
         id="rect4248-8"
         height="1"
         width="2"
         y="31"
         x="21" />
      <rect
         id="rect4250-7"
         height="1"
         width="1"
         y="31"
         x="24" />
      <rect
         id="rect4252-2"
         height="1"
         width="1"
         y="31"
         x="27" />
      <rect
         id="rect4254-6"
         height="1"
         width="1"
         y="31"
         x="30" />
      <rect
         id="rect4256-9"
         height="1"
         width="1"
         y="32"
         x="1" />
      <rect
         id="rect4258-0"
         height="1"
         width="1"
         y="32"
         x="7" />
      <rect
         id="rect4260-0"
         height="1"
         width="3"
         y="32"
         x="9" />
      <rect
         id="rect4262-7"
         height="1"
         width="1"
         y="32"
         x="13" />
      <rect
         id="rect4264-6"
         height="1"
         width="1"
         y="32"
         x="16" />
      <rect
         id="rect4266-2"
         height="1"
         width="2"
         y="32"
         x="18" />
      <rect
         id="rect4268-1"
         height="1"
         width="1"
         y="32"
         x="21" />
      <rect
         id="rect4270-6"
         height="1"
         width="5"
         y="32"
         x="24" />
      <rect
         id="rect4272-4"
         height="1"
         width="1"
         y="32"
         x="33" />
      <rect
         id="rect4274-7"
         height="1"
         width="7"
         y="33"
         x="1" />
      <rect
         id="rect4276-0"
         height="1"
         width="1"
         y="33"
         x="9" />
      <rect
         id="rect4278-7"
         height="1"
         width="3"
         y="33"
         x="12" />
      <rect
         id="rect4280-9"
         height="1"
         width="5"
         y="33"
         x="16" />
      <rect
         id="rect4282-9"
         height="1"
         width="1"
         y="33"
         x="22" />
      <rect
         id="rect4284-4"
         height="1"
         width="1"
         y="33"
         x="24" />
      <rect
         id="rect4286-5"
         height="1"
         width="1"
         y="33"
         x="26" />
      <rect
         id="rect4288-8"
         height="1"
         width="4"
         y="33"
         x="28" />
    </g>
  </g>
</svg>
