<?xml version="1.0" encoding="UTF-8" standalone="no"?>
<!-- Created with Inkscape (http://www.inkscape.org/) -->

<svg
   xmlns:dc="http://purl.org/dc/elements/1.1/"
   xmlns:cc="http://creativecommons.org/ns#"
   xmlns:rdf="http://www.w3.org/1999/02/22-rdf-syntax-ns#"
   xmlns:svg="http://www.w3.org/2000/svg"
   xmlns="http://www.w3.org/2000/svg"
   xmlns:xlink="http://www.w3.org/1999/xlink"
   xmlns:sodipodi="http://sodipodi.sourceforge.net/DTD/sodipodi-0.dtd"
   xmlns:inkscape="http://www.inkscape.org/namespaces/inkscape"
   width="765.35431"
   height="1073.6221"
   id="svg5942"
   version="1.1"
   inkscape:version="0.48.4 r9939"
   sodipodi:docname="dove-defined-a4.en.svg"
   inkscape:export-filename="/home/samtuke/fsfe/svn/dfd/artwork/2014/posters/dove-defined/dove-defined-a4-pre-print.en.png"
   inkscape:export-xdpi="299.9787"
   inkscape:export-ydpi="299.9787">
  <defs
     id="defs5944">
    <linearGradient
       id="linearGradient6529">
      <stop
         id="stop6531"
         offset="0"
         style="stop-color:#c0ed18;stop-opacity:1;" />
      <stop
         id="stop6533"
         offset="1"
         style="stop-color:#49ba0d;stop-opacity:1;" />
    </linearGradient>
    <inkscape:perspective
       sodipodi:type="inkscape:persp3d"
       inkscape:vp_x="0 : 526.18109 : 1"
       inkscape:vp_y="0 : 1000 : 0"
       inkscape:vp_z="744.09448 : 526.18109 : 1"
       inkscape:persp3d-origin="372.04724 : 350.78739 : 1"
       id="perspective5950" />
    <inkscape:perspective
       id="perspective5960"
       inkscape:persp3d-origin="0.5 : 0.33333333 : 1"
       inkscape:vp_z="1 : 0.5 : 1"
       inkscape:vp_y="0 : 1000 : 0"
       inkscape:vp_x="0 : 0.5 : 1"
       sodipodi:type="inkscape:persp3d" />
    <linearGradient
       inkscape:collect="always"
       xlink:href="#linearGradient6529"
       id="linearGradient3777"
       gradientUnits="userSpaceOnUse"
       gradientTransform="matrix(0.96795146,0,0,0.96795143,234.44878,343.01893)"
       x1="357.92072"
       y1="589.32819"
       x2="354.89005"
       y2="988.33618" />
    <linearGradient
       id="linearGradient3696">
      <stop
         style="stop-color:#b6e235;stop-opacity:1;"
         offset="0"
         id="stop3698" />
      <stop
         style="stop-color:#36890a;stop-opacity:1;"
         offset="1"
         id="stop3700" />
    </linearGradient>
    <linearGradient
       inkscape:collect="always"
       xlink:href="#linearGradient3696"
       id="linearGradient5968"
       gradientUnits="userSpaceOnUse"
       gradientTransform="translate(6.4720239,-19.284364)"
       x1="357.92072"
       y1="589.32819"
       x2="357.92072"
       y2="657.38831" />
    <linearGradient
       id="linearGradient5970">
      <stop
         style="stop-color:#b6e235;stop-opacity:1;"
         offset="0"
         id="stop5972" />
      <stop
         style="stop-color:#36890a;stop-opacity:1;"
         offset="1"
         id="stop5974" />
    </linearGradient>
    <linearGradient
       inkscape:collect="always"
       xlink:href="#linearGradient3696-8"
       id="linearGradient3773"
       gradientUnits="userSpaceOnUse"
       gradientTransform="matrix(0.64186016,0,0,0.64186015,259.81394,258.39622)"
       x1="279.49557"
       y1="722.70312"
       x2="279.49557"
       y2="586.22162" />
    <linearGradient
       id="linearGradient3696-8">
      <stop
         style="stop-color:#000000;stop-opacity:1;"
         offset="0"
         id="stop3698-2" />
      <stop
         style="stop-color:#36890a;stop-opacity:1;"
         offset="1"
         id="stop3700-0" />
    </linearGradient>
    <linearGradient
       inkscape:collect="always"
       xlink:href="#linearGradient3696-8"
       id="linearGradient5980"
       gradientUnits="userSpaceOnUse"
       gradientTransform="matrix(0.64186016,0,0,0.64186015,259.81394,258.39622)"
       x1="279.49557"
       y1="722.70312"
       x2="279.49557"
       y2="586.22162" />
    <linearGradient
       id="linearGradient5982">
      <stop
         style="stop-color:#000000;stop-opacity:1;"
         offset="0"
         id="stop5984" />
      <stop
         style="stop-color:#36890a;stop-opacity:1;"
         offset="1"
         id="stop5986" />
    </linearGradient>
    <linearGradient
       y2="586.22162"
       x2="279.49557"
       y1="722.70312"
       x1="279.49557"
       gradientTransform="matrix(1.625485,0,0,1.6254849,18.939755,722.11733)"
       gradientUnits="userSpaceOnUse"
       id="linearGradient5993"
       xlink:href="#linearGradient3696-8"
       inkscape:collect="always" />
    <inkscape:perspective
       id="perspective6094"
       inkscape:persp3d-origin="0.5 : 0.33333333 : 1"
       inkscape:vp_z="1 : 0.5 : 1"
       inkscape:vp_y="0 : 1000 : 0"
       inkscape:vp_x="0 : 0.5 : 1"
       sodipodi:type="inkscape:persp3d" />
    <linearGradient
       id="linearGradient4364">
      <stop
         style="stop-color:#ffffff;stop-opacity:1;"
         offset="0"
         id="stop4366" />
      <stop
         style="stop-color:#42b30b;stop-opacity:0;"
         offset="1"
         id="stop4368" />
    </linearGradient>
    <filter
       id="filter3677"
       inkscape:label="Fuzzy Glow"
       inkscape:menu="Shadows and Glows"
       inkscape:menu-tooltip="Overlays a semi-transparent shifted copy to a blurred one"
       color-interpolation-filters="sRGB">
      <feOffset
         id="feOffset3679"
         dx="4"
         dy="4"
         result="result11"
         in="SourceGraphic" />
      <feGaussianBlur
         id="feGaussianBlur3681"
         stdDeviation="4"
         result="result8" />
      <feComposite
         id="feComposite3683"
         in2="result8"
         result="result9"
         in="SourceGraphic"
         operator="in" />
      <feBlend
         id="feBlend3685"
         in2="result8"
         in="result9"
         mode="darken" />
    </filter>
    <linearGradient
       id="linearGradient4352">
      <stop
         style="stop-color:#ffff4f;stop-opacity:0.82745099;"
         offset="0"
         id="stop4354" />
      <stop
         style="stop-color:#42b30b;stop-opacity:0;"
         offset="1"
         id="stop4356" />
    </linearGradient>
    <inkscape:perspective
       id="perspective6257"
       inkscape:persp3d-origin="0.5 : 0.33333333 : 1"
       inkscape:vp_z="1 : 0.5 : 1"
       inkscape:vp_y="0 : 1000 : 0"
       inkscape:vp_x="0 : 0.5 : 1"
       sodipodi:type="inkscape:persp3d" />
    <linearGradient
       id="linearGradient4352-6">
      <stop
         style="stop-color:#ffff4f;stop-opacity:0.82745099;"
         offset="0"
         id="stop4354-6" />
      <stop
         style="stop-color:#42b30b;stop-opacity:0;"
         offset="1"
         id="stop4356-7" />
    </linearGradient>
    <filter
       id="filter3677-2"
       inkscape:label="Fuzzy Glow"
       inkscape:menu="Shadows and Glows"
       inkscape:menu-tooltip="Overlays a semi-transparent shifted copy to a blurred one"
       color-interpolation-filters="sRGB">
      <feOffset
         id="feOffset3679-7"
         dx="4"
         dy="4"
         result="result11"
         in="SourceGraphic" />
      <feGaussianBlur
         id="feGaussianBlur3681-4"
         stdDeviation="4"
         result="result8" />
      <feComposite
         id="feComposite3683-1"
         in2="result8"
         result="result9"
         in="SourceGraphic"
         operator="in" />
      <feBlend
         id="feBlend3685-0"
         in2="result8"
         in="result9"
         mode="darken" />
    </filter>
    <linearGradient
       id="linearGradient4364-6">
      <stop
         style="stop-color:#ffffff;stop-opacity:1;"
         offset="0"
         id="stop4366-4" />
      <stop
         style="stop-color:#42b30b;stop-opacity:0;"
         offset="1"
         id="stop4368-4" />
    </linearGradient>
    <inkscape:perspective
       id="perspective6421"
       inkscape:persp3d-origin="0.5 : 0.33333333 : 1"
       inkscape:vp_z="1 : 0.5 : 1"
       inkscape:vp_y="0 : 1000 : 0"
       inkscape:vp_x="0 : 0.5 : 1"
       sodipodi:type="inkscape:persp3d" />
    <inkscape:perspective
       id="perspective6455"
       inkscape:persp3d-origin="0.5 : 0.33333333 : 1"
       inkscape:vp_z="1 : 0.5 : 1"
       inkscape:vp_y="0 : 1000 : 0"
       inkscape:vp_x="0 : 0.5 : 1"
       sodipodi:type="inkscape:persp3d" />
    <radialGradient
       inkscape:collect="always"
       xlink:href="#linearGradient4352-6-0"
       id="radialGradient6355-1"
       gradientUnits="userSpaceOnUse"
       gradientTransform="matrix(0.21881884,-0.29786409,0.27140068,0.31445673,-98.345913,895.67225)"
       cx="313.43893"
       cy="663.65607"
       fx="313.43893"
       fy="663.65607"
       r="132.9715" />
    <linearGradient
       id="linearGradient4352-6-0">
      <stop
         style="stop-color:#6cc41a;stop-opacity:1;"
         offset="0"
         id="stop4354-6-5" />
      <stop
         style="stop-color:#c6e83a;stop-opacity:1;"
         offset="1"
         id="stop4356-7-3" />
    </linearGradient>
    <linearGradient
       inkscape:collect="always"
       xlink:href="#linearGradient6529"
       id="linearGradient2912"
       gradientUnits="userSpaceOnUse"
       gradientTransform="matrix(0.29221816,0,0,0.29221815,59.586978,686.05405)"
       x1="357.92072"
       y1="589.32819"
       x2="354.89005"
       y2="988.33618" />
    <radialGradient
       inkscape:collect="always"
       xlink:href="#linearGradient4352"
       id="radialGradient3686"
       gradientUnits="userSpaceOnUse"
       gradientTransform="matrix(0.73237103,-0.99692987,0.9083587,1.0524642,-752.39138,615.20924)"
       cx="313.43893"
       cy="663.65607"
       fx="313.43893"
       fy="663.65607"
       r="132.9715" />
    <inkscape:perspective
       id="perspective3698"
       inkscape:persp3d-origin="0.5 : 0.33333333 : 1"
       inkscape:vp_z="1 : 0.5 : 1"
       inkscape:vp_y="0 : 1000 : 0"
       inkscape:vp_x="0 : 0.5 : 1"
       sodipodi:type="inkscape:persp3d" />
    <linearGradient
       inkscape:collect="always"
       xlink:href="#linearGradient6529"
       id="linearGradient3712"
       x1="127.75238"
       y1="771.62238"
       x2="127.75238"
       y2="1052.4729"
       gradientUnits="userSpaceOnUse"
       gradientTransform="matrix(2.7098331,0,0,2.0619888,350.78742,-1561.9924)" />
    <inkscape:perspective
       id="perspective3722"
       inkscape:persp3d-origin="0.5 : 0.33333333 : 1"
       inkscape:vp_z="1 : 0.5 : 1"
       inkscape:vp_y="0 : 1000 : 0"
       inkscape:vp_x="0 : 0.5 : 1"
       sodipodi:type="inkscape:persp3d" />
    <inkscape:perspective
       id="perspective3753"
       inkscape:persp3d-origin="0.5 : 0.33333333 : 1"
       inkscape:vp_z="1 : 0.5 : 1"
       inkscape:vp_y="0 : 1000 : 0"
       inkscape:vp_x="0 : 0.5 : 1"
       sodipodi:type="inkscape:persp3d" />
    <inkscape:perspective
       id="perspective3804"
       inkscape:persp3d-origin="0.5 : 0.33333333 : 1"
       inkscape:vp_z="1 : 0.5 : 1"
       inkscape:vp_y="0 : 1000 : 0"
       inkscape:vp_x="0 : 0.5 : 1"
       sodipodi:type="inkscape:persp3d" />
    <inkscape:perspective
       id="perspective2907"
       inkscape:persp3d-origin="0.5 : 0.33333333 : 1"
       inkscape:vp_z="1 : 0.5 : 1"
       inkscape:vp_y="0 : 1000 : 0"
       inkscape:vp_x="0 : 0.5 : 1"
       sodipodi:type="inkscape:persp3d" />
    <inkscape:perspective
       id="perspective2904"
       inkscape:persp3d-origin="0.5 : 0.33333333 : 1"
       inkscape:vp_z="1 : 0.5 : 1"
       inkscape:vp_y="0 : 1000 : 0"
       inkscape:vp_x="0 : 0.5 : 1"
       sodipodi:type="inkscape:persp3d" />
    <inkscape:perspective
       id="perspective2929"
       inkscape:persp3d-origin="0.5 : 0.33333333 : 1"
       inkscape:vp_z="1 : 0.5 : 1"
       inkscape:vp_y="0 : 1000 : 0"
       inkscape:vp_x="0 : 0.5 : 1"
       sodipodi:type="inkscape:persp3d" />
    <inkscape:perspective
       id="perspective2924"
       inkscape:persp3d-origin="0.5 : 0.33333333 : 1"
       inkscape:vp_z="1 : 0.5 : 1"
       inkscape:vp_y="0 : 1000 : 0"
       inkscape:vp_x="0 : 0.5 : 1"
       sodipodi:type="inkscape:persp3d" />
    <inkscape:perspective
       id="perspective3748"
       inkscape:persp3d-origin="0.5 : 0.33333333 : 1"
       inkscape:vp_z="1 : 0.5 : 1"
       inkscape:vp_y="0 : 1000 : 0"
       inkscape:vp_x="0 : 0.5 : 1"
       sodipodi:type="inkscape:persp3d" />
    <inkscape:perspective
       id="perspective4490"
       inkscape:persp3d-origin="0.5 : 0.33333333 : 1"
       inkscape:vp_z="1 : 0.5 : 1"
       inkscape:vp_y="0 : 1000 : 0"
       inkscape:vp_x="0 : 0.5 : 1"
       sodipodi:type="inkscape:persp3d" />
    <inkscape:perspective
       id="perspective4490-4"
       inkscape:persp3d-origin="0.5 : 0.33333333 : 1"
       inkscape:vp_z="1 : 0.5 : 1"
       inkscape:vp_y="0 : 1000 : 0"
       inkscape:vp_x="0 : 0.5 : 1"
       sodipodi:type="inkscape:persp3d" />
    <inkscape:perspective
       id="perspective4536"
       inkscape:persp3d-origin="0.5 : 0.33333333 : 1"
       inkscape:vp_z="1 : 0.5 : 1"
       inkscape:vp_y="0 : 1000 : 0"
       inkscape:vp_x="0 : 0.5 : 1"
       sodipodi:type="inkscape:persp3d" />
    <inkscape:perspective
       id="perspective4558"
       inkscape:persp3d-origin="0.5 : 0.33333333 : 1"
       inkscape:vp_z="1 : 0.5 : 1"
       inkscape:vp_y="0 : 1000 : 0"
       inkscape:vp_x="0 : 0.5 : 1"
       sodipodi:type="inkscape:persp3d" />
    <radialGradient
       r="11.63"
       gradientTransform="matrix(2.111,0,0,2.5349,-28.919,-38.044)"
       cx="26.030001"
       cy="24.226999"
       gradientUnits="userSpaceOnUse"
       id="radialGradient2622">
      <stop
         offset="0"
         id="stop2618" />
      <stop
         offset="1"
         stop-opacity="0"
         id="stop2620" />
    </radialGradient>
    <radialGradient
       r="5.257"
       gradientTransform="matrix(0.2297,0,0,0.2297,4.6135,3.9798)"
       cx="20.892"
       cy="64.568001"
       gradientUnits="userSpaceOnUse"
       id="radialGradient2285">
      <stop
         offset="0"
         stop-color="#F0F0F0"
         id="stop15573" />
      <stop
         offset="1"
         stop-color="#9a9a9a"
         id="stop15575" />
    </radialGradient>
    <radialGradient
       r="5.256"
       gradientTransform="matrix(0.2297,0,0,0.2297,4.6135,3.9798)"
       cx="20.892"
       cy="114.57"
       gradientUnits="userSpaceOnUse"
       id="radialGradient2283">
      <stop
         offset="0"
         stop-color="#F0F0F0"
         id="stop15566" />
      <stop
         offset="1"
         stop-color="#9a9a9a"
         id="stop15568" />
    </radialGradient>
    <radialGradient
       r="38.159"
       gradientTransform="matrix(0.96827,0,0,1.0328,3.3536,0.64645)"
       cx="8.1436005"
       cy="7.2679"
       gradientUnits="userSpaceOnUse"
       id="radialGradient15668">
      <stop
         offset="0"
         stop-color="#fff"
         id="stop15664" />
      <stop
         offset="1"
         stop-color="#f8f8f8"
         id="stop15666" />
    </radialGradient>
    <radialGradient
       r="86.708"
       gradientTransform="scale(0.96049,1.0411)"
       cx="33.966999"
       cy="35.737"
       gradientUnits="userSpaceOnUse"
       id="radialGradient15658">
      <stop
         offset="0"
         stop-color="#fafafa"
         id="stop260" />
      <stop
         offset="1"
         stop-color="#bbb"
         id="stop261" />
    </radialGradient>
    <radialGradient
       r="37.751999"
       gradientTransform="matrix(0.96827,0,0,1.0328,3.3536,0.64645)"
       cx="8.8243999"
       cy="3.7560999"
       gradientUnits="userSpaceOnUse"
       id="radialGradient15656">
      <stop
         offset="0"
         stop-color="#a3a3a3"
         id="stop270" />
      <stop
         offset="1"
         stop-color="#4c4c4c"
         id="stop271" />
    </radialGradient>
    <linearGradient
       y2="609.51001"
       x2="302.85999"
       gradientTransform="matrix(2.7744,0,0,1.9697,-1892.2,-872.89)"
       y1="366.64999"
       gradientUnits="userSpaceOnUse"
       x1="302.85999"
       id="linearGradient5027">
      <stop
         offset="0"
         stop-opacity="0"
         id="stop5050" />
      <stop
         offset=".5"
         id="stop5056" />
      <stop
         offset="1"
         stop-opacity="0"
         id="stop5052" />
    </linearGradient>
    <radialGradient
       r="117.14"
       gradientTransform="matrix(2.7744,0,0,1.9697,-1891.6,-872.89)"
       cx="605.71002"
       cy="486.64999"
       gradientUnits="userSpaceOnUse"
       xlink:href="#linearGradient5060"
       id="radialGradient5029" />
    <linearGradient
       id="linearGradient5060">
      <stop
         offset="0"
         id="stop5062" />
      <stop
         offset="1"
         stop-opacity="0"
         id="stop5064" />
    </linearGradient>
    <radialGradient
       r="117.14"
       gradientTransform="matrix(-2.7744,0,0,1.9697,112.76,-872.89)"
       cx="605.71002"
       cy="486.64999"
       gradientUnits="userSpaceOnUse"
       xlink:href="#linearGradient5060"
       id="radialGradient5031" />
    <filter
       inkscape:collect="always"
       id="filter4738"
       x="-0.01973947"
       width="1.0394789"
       y="-0.20426361"
       height="1.4085273"
       color-interpolation-filters="sRGB">
      <feGaussianBlur
         inkscape:collect="always"
         stdDeviation="1.7297079"
         id="feGaussianBlur4740" />
    </filter>
    <filter
       inkscape:collect="always"
       id="filter5591"
       x="-0.013349213"
       width="1.0266984"
       y="-0.1187289"
       height="1.2374578"
       color-interpolation-filters="sRGB">
      <feGaussianBlur
         inkscape:collect="always"
         stdDeviation="0.80401436"
         id="feGaussianBlur5593" />
    </filter>
    <filter
       inkscape:collect="always"
       id="filter5595"
       x="-0.013159647"
       width="1.0263193"
       y="-0.13617574"
       height="1.2723515"
       color-interpolation-filters="sRGB">
      <feGaussianBlur
         inkscape:collect="always"
         stdDeviation="1.1531386"
         id="feGaussianBlur5597" />
    </filter>
    <filter
       inkscape:collect="always"
       id="filter5020"
       color-interpolation-filters="sRGB">
      <feGaussianBlur
         inkscape:collect="always"
         stdDeviation="1.8762741"
         id="feGaussianBlur5022" />
    </filter>
    <filter
       inkscape:collect="always"
       id="filter5122"
       x="-0.014776074"
       width="1.0295521"
       y="-0.1051494"
       height="1.2102988"
       color-interpolation-filters="sRGB">
      <feGaussianBlur
         inkscape:collect="always"
         stdDeviation="1.1630291"
         id="feGaussianBlur5124" />
    </filter>
    <linearGradient
       inkscape:collect="always"
       xlink:href="#linearGradient6529"
       id="linearGradient5378"
       gradientUnits="userSpaceOnUse"
       gradientTransform="matrix(1.3751391,0,0,2.0619888,-10.629918,-1561.9926)"
       x1="127.75238"
       y1="771.62238"
       x2="127.75238"
       y2="1052.4729" />
    <linearGradient
       inkscape:collect="always"
       xlink:href="#linearGradient5027"
       id="linearGradient5632"
       gradientUnits="userSpaceOnUse"
       gradientTransform="matrix(2.7744,0,0,1.9697,-1892.2,-872.89)"
       x1="302.85999"
       y1="366.64999"
       x2="302.85999"
       y2="609.51001" />
    <radialGradient
       inkscape:collect="always"
       xlink:href="#linearGradient5060"
       id="radialGradient5634"
       gradientUnits="userSpaceOnUse"
       gradientTransform="matrix(2.7744,0,0,1.9697,-1891.6,-872.89)"
       cx="605.71002"
       cy="486.64999"
       r="117.14" />
    <radialGradient
       inkscape:collect="always"
       xlink:href="#radialGradient15658"
       id="radialGradient5636"
       gradientUnits="userSpaceOnUse"
       gradientTransform="scale(0.96049,1.0411)"
       cx="33.966999"
       cy="35.737"
       r="86.708" />
    <radialGradient
       inkscape:collect="always"
       xlink:href="#radialGradient15656"
       id="radialGradient5638"
       gradientUnits="userSpaceOnUse"
       gradientTransform="matrix(0.96827,0,0,1.0328,3.3536,0.64645)"
       cx="8.8243999"
       cy="3.7560999"
       r="37.751999" />
    <radialGradient
       inkscape:collect="always"
       xlink:href="#radialGradient15668"
       id="radialGradient5640"
       gradientUnits="userSpaceOnUse"
       gradientTransform="matrix(0.96827,0,0,1.0328,3.3536,0.64645)"
       cx="8.1436005"
       cy="7.2679"
       r="38.159" />
    <radialGradient
       inkscape:collect="always"
       xlink:href="#radialGradient2283"
       id="radialGradient5642"
       gradientUnits="userSpaceOnUse"
       gradientTransform="matrix(0.2297,0,0,0.2297,4.6135,3.9798)"
       cx="20.892"
       cy="114.57"
       r="5.256" />
    <radialGradient
       inkscape:collect="always"
       xlink:href="#radialGradient2285"
       id="radialGradient5644"
       gradientUnits="userSpaceOnUse"
       gradientTransform="matrix(0.2297,0,0,0.2297,4.6135,3.9798)"
       cx="20.892"
       cy="64.568001"
       r="5.257" />
    <radialGradient
       inkscape:collect="always"
       xlink:href="#radialGradient2622"
       id="radialGradient5646"
       gradientUnits="userSpaceOnUse"
       gradientTransform="matrix(7.0422699,0,0,9.2906259,94.11286,-58.099674)"
       cx="26.030001"
       cy="24.226999"
       r="11.63" />
    <linearGradient
       inkscape:collect="always"
       xlink:href="#linearGradient6529"
       id="linearGradient7346"
       gradientUnits="userSpaceOnUse"
       gradientTransform="matrix(2.7098331,0,0,2.0619888,350.78742,-1561.9924)"
       x1="127.75238"
       y1="771.62238"
       x2="127.75238"
       y2="1052.4729" />
    <linearGradient
       inkscape:collect="always"
       xlink:href="#linearGradient6529"
       id="linearGradient7348"
       gradientUnits="userSpaceOnUse"
       gradientTransform="matrix(1.3751391,0,0,2.0619888,-10.629918,-1561.9926)"
       x1="127.75238"
       y1="771.62238"
       x2="127.75238"
       y2="1052.4729" />
    <radialGradient
       inkscape:collect="always"
       xlink:href="#linearGradient3898"
       id="radialGradient3904"
       cx="74.780403"
       cy="75.906113"
       fx="74.780403"
       fy="75.906113"
       r="385"
       gradientTransform="matrix(-2.3869592,-0.01909287,0.02119179,-2.6493628,229.06075,198.99571)"
       gradientUnits="userSpaceOnUse" />
    <linearGradient
       id="linearGradient3898">
      <stop
         style="stop-color:#c7e25a;stop-opacity:1"
         offset="0"
         id="stop3900" />
      <stop
         id="stop3843"
         offset="0.30973855"
         style="stop-color:#97d239;stop-opacity:1;" />
      <stop
         style="stop-color:#75b726;stop-opacity:1;"
         offset="0.80005145"
         id="stop3847" />
      <stop
         style="stop-color:#549c14;stop-opacity:1;"
         offset="1"
         id="stop3902" />
    </linearGradient>
    <path
       sodipodi:nodetypes="czc"
       inkscape:connector-curvature="0"
       id="path4045"
       d="m 84.852814,686.40855 c 0,0 170.273426,-22.55125 220.617316,-47.37616 50.34388,-24.82491 84.85281,-72.83199 84.85281,-72.83199"
       style="color:#000000;fill:none;stroke:none;stroke-width:1px;marker:none;visibility:visible;display:inline;overflow:visible;enable-background:accumulate" />
    <path
       sodipodi:nodetypes="cccc"
       d="m 442.09542,736.11983 c 30.88368,-2.46144 66.58593,-7.67847 109.42474,-19.98435 137.0136,-39.34798 164.8494,-148.97441 162.3562,-229.48008 -2.5035,-80.51137 7.6408,-98.03596 15.6979,-104.85516"
       id="path3902"
       style="fill:none;stroke:none"
       inkscape:connector-curvature="0" />
    <path
       inkscape:connector-curvature="0"
       style="fill:none;stroke:none"
       id="path3900"
       d="m 493.49729,752.94226 c 30.88368,-2.46144 66.58593,-7.67847 109.42474,-19.98435 137.0136,-39.34798 164.8494,-148.97441 162.3562,-229.48008 -2.5035,-80.51137 7.6408,-98.03596 15.6979,-104.85516"
       sodipodi:nodetypes="cccc" />
    <path
       sodipodi:nodetypes="ccsc"
       d="m -177.26746,1133.6217 c 6.7239,4.4248 13.7955,8.2715 18.1419,10.8682 33.47788,19.9175 38.46937,29.7774 105.321031,-6.3374 66.85168,-36.1148 130.861453,-2.9501 267.885509,-42.3117"
       id="path3956"
       style="fill:none;stroke:none"
       inkscape:connector-curvature="0" />
    <path
       sodipodi:nodetypes="ccc"
       d="m 575.86608,622.89439 c 67.34661,-51.19598 82.89128,-128.97555 81.00094,-190.01469 -2.5035,-80.51137 7.6408,-98.03596 15.6979,-104.85516"
       id="path3926"
       style="fill:none;stroke:none"
       inkscape:connector-curvature="0" />
    <path
       style="fill:none;stroke:none"
       d="m 384.2952,528.9988 c 0,0 143.09035,-148.15975 149.22797,-154.64552 6.13763,-6.48575 25.07727,-29.74746 34.27085,-62.84677 9.19358,-33.09931 21.45144,-46.70199 37.63557,-55.35975 16.18412,-8.65777 31.43663,-5.28851 42.37538,1.98962 10.93876,7.27812 14.89983,13.48539 14.89983,13.48539"
       id="path3145"
       inkscape:connector-curvature="0"
       sodipodi:nodetypes="cszzsc" />
    <radialGradient
       inkscape:collect="always"
       xlink:href="#linearGradient3898"
       id="radialGradient3946"
       gradientUnits="userSpaceOnUse"
       gradientTransform="matrix(-2.3725579,-0.02066384,0.02106393,-2.8673531,229.66668,-114.15841)"
       cx="74.780403"
       cy="75.906113"
       fx="74.780403"
       fy="75.906113"
       r="385" />
  </defs>
  <sodipodi:namedview
     id="base"
     pagecolor="#ffffff"
     bordercolor="#666666"
     borderopacity="1.0"
     inkscape:pageopacity="1"
     inkscape:pageshadow="2"
     inkscape:zoom="0.50000001"
     inkscape:cx="-63.494908"
     inkscape:cy="475.75036"
     inkscape:document-units="mm"
     inkscape:current-layer="layer3"
     showgrid="false"
     inkscape:window-width="1920"
     inkscape:window-height="1014"
     inkscape:window-x="0"
     inkscape:window-y="27"
     inkscape:window-maximized="1"
     units="mm"
     borderlayer="true"
     showguides="true"
     inkscape:guide-bbox="true"
     showborder="true"
     inkscape:showpageshadow="false">
    <sodipodi:guide
       orientation="1,0"
       position="754.72441,534"
       id="guide3179" />
    <sodipodi:guide
       orientation="1,0"
       position="10.629921,722.66313"
       id="guide3181" />
    <sodipodi:guide
       orientation="0,1"
       position="179.60512,10.629921"
       id="guide3395" />
    <sodipodi:guide
       orientation="0,1"
       position="188.0904,1062.9921"
       id="guide3397" />
  </sodipodi:namedview>
  <metadata
     id="metadata5947">
    <rdf:RDF>
      <cc:Work
         rdf:about="">
        <dc:format>image/svg+xml</dc:format>
        <dc:type
           rdf:resource="http://purl.org/dc/dcmitype/StillImage" />
        <dc:title></dc:title>
      </cc:Work>
    </rdf:RDF>
  </metadata>
  <g
     inkscape:groupmode="layer"
     id="layer3"
     inkscape:label="background"
     style="opacity:0.93999999"
     transform="translate(0,329.52758)" />
  <g
     inkscape:label="Livello 1"
     inkscape:groupmode="layer"
     id="layer1"
     transform="translate(0,21.259881)" />
  <g
     inkscape:groupmode="layer"
     id="layer2"
     inkscape:label="dove"
     transform="translate(0,329.52758)">
    <rect
       style="fill:url(#radialGradient3946);fill-opacity:1;stroke:none"
       id="rect3120"
       width="765.35431"
       height="1073.6221"
       x="4.3341064e-08"
       y="-329.52756" />
    <text
       sodipodi:linespacing="125%"
       id="text3113"
       y="647.82526"
       x="385.18439"
       style="font-style:normal;font-variant:normal;font-weight:normal;font-stretch:normal;text-align:center;line-height:125%;letter-spacing:0px;word-spacing:0px;text-anchor:middle;color:#000000;fill:#000000;fill-opacity:1;fill-rule:evenodd;stroke:none;stroke-width:1px;marker:none;visibility:visible;display:inline;overflow:visible;enable-background:accumulate;font-family:Vegur;-inkscape-font-specification:Vegur"
       xml:space="preserve"><tspan
         style="font-size:36px;font-style:normal;font-variant:normal;font-weight:300;font-stretch:normal;text-align:center;line-height:125%;writing-mode:lr-tb;text-anchor:middle;fill:#000000;fill-opacity:1;font-family:Roboto;-inkscape-font-specification:Roboto Light"
         y="647.82526"
         x="385.18439"
         id="tspan3115"
         sodipodi:role="line"><tspan
           style="fill:#ffffff"
           id="tspan3128">document</tspan><tspan
           style="font-size:36px;font-style:normal;font-variant:normal;font-weight:500;font-stretch:normal;text-align:center;line-height:125%;writing-mode:lr-tb;text-anchor:middle;font-family:Roboto;-inkscape-font-specification:Roboto Medium"
           id="tspan3132">freedom</tspan><tspan
           style="fill:#ffffff"
           id="tspan3130">.org</tspan></tspan></text>
    <g
       id="g3948"
       transform="translate(-2.7798246,10)">
      <g
         style="stroke:none"
         id="g3182"
         transform="translate(1.2765489,-337.65734)">
        <text
           xml:space="preserve"
           style="font-size:9.45402145px;font-style:normal;font-variant:normal;font-weight:normal;font-stretch:normal;line-height:125%;letter-spacing:0px;word-spacing:0px;color:#000000;fill:#ffffff;fill-opacity:1;fill-rule:evenodd;stroke:none;stroke-width:1px;marker:none;visibility:visible;display:inline;overflow:visible;enable-background:accumulate;font-family:Vegur;-inkscape-font-specification:Vegur"
           x="499.71591"
           y="548.26385"
           id="text3051"
           sodipodi:linespacing="125%"
           transform="matrix(0.92940492,-0.36906163,0.36906163,0.92940492,0,0)"><tspan
             style="font-size:9px;font-style:normal;font-variant:normal;font-weight:500;font-stretch:normal;text-align:start;line-height:125%;writing-mode:lr-tb;text-anchor:start;font-family:Roboto;-inkscape-font-specification:Roboto Medium"
             sodipodi:role="line"
             x="499.71591"
             y="548.26385"
             id="tspan3806">SPEECH</tspan></text>
        <text
           sodipodi:linespacing="125%"
           id="text3055"
           y="491.09222"
           x="172.22318"
           style="font-size:12px;font-style:normal;font-variant:normal;font-weight:normal;font-stretch:normal;line-height:125%;letter-spacing:0px;word-spacing:0px;color:#000000;fill:#ffffff;fill-opacity:1;fill-rule:evenodd;stroke:none;stroke-width:1px;marker:none;visibility:visible;display:inline;overflow:visible;enable-background:accumulate;font-family:Vegur;-inkscape-font-specification:Vegur"
           xml:space="preserve"
           transform="matrix(0.7911558,-0.61161466,0.61161466,0.7911558,0,0)"><tspan
             y="491.09222"
             x="172.22318"
             id="tspan3057"
             sodipodi:role="line"
             style="font-size:20px;font-style:normal;font-variant:normal;font-weight:normal;font-stretch:normal;text-align:start;line-height:125%;writing-mode:lr-tb;text-anchor:start;fill:#ffffff;fill-opacity:1;stroke:none;font-family:Roboto;-inkscape-font-specification:Roboto">ANY <tspan
   id="tspan3065"
   style="font-size:20px;font-style:normal;font-variant:normal;font-weight:300;font-stretch:normal;text-align:start;line-height:125%;writing-mode:lr-tb;text-anchor:start;font-family:Roboto;-inkscape-font-specification:Roboto Light">APPLICATION</tspan></tspan><tspan
             y="512.11963"
             x="172.22318"
             sodipodi:role="line"
             style="font-size:16px;font-style:normal;font-variant:normal;font-weight:normal;font-stretch:normal;text-align:start;line-height:125%;writing-mode:lr-tb;text-anchor:start;fill:#ffffff;fill-opacity:1;stroke:none;font-family:Roboto;-inkscape-font-specification:Roboto"
             id="tspan4343">  ANY <tspan
   id="tspan3069"
   style="font-size:16px;font-style:normal;font-variant:normal;font-weight:300;font-stretch:normal;text-align:start;line-height:125%;writing-mode:lr-tb;text-anchor:start;font-family:Roboto;-inkscape-font-specification:Roboto Light">COMPUTER</tspan></tspan><tspan
             y="528.14703"
             x="172.22318"
             sodipodi:role="line"
             style="font-size:12px;font-style:normal;font-variant:normal;font-weight:normal;font-stretch:normal;text-align:start;line-height:125%;writing-mode:lr-tb;text-anchor:start;fill:#ffffff;fill-opacity:1;stroke:none;font-family:Roboto;-inkscape-font-specification:Roboto"
             id="tspan4349">     ANY <tspan
   id="tspan3073"
   style="font-size:12px;font-style:normal;font-variant:normal;font-weight:300;font-stretch:normal;text-align:start;line-height:125%;writing-mode:lr-tb;text-anchor:start;font-family:Roboto;-inkscape-font-specification:Roboto Light">PLATFORM</tspan></tspan><tspan
             y="543.14703"
             x="172.22318"
             sodipodi:role="line"
             style="font-size:12px;font-style:normal;font-variant:normal;font-weight:normal;font-stretch:normal;text-align:start;line-height:125%;writing-mode:lr-tb;text-anchor:start;fill:#ffffff;fill-opacity:1;stroke:none;font-family:Roboto;-inkscape-font-specification:Roboto"
             id="tspan4357">      NO <tspan
   id="tspan3075"
   style="font-size:12px;font-style:normal;font-variant:normal;font-weight:300;font-stretch:normal;text-align:start;line-height:125%;writing-mode:lr-tb;text-anchor:start;font-family:Roboto;-inkscape-font-specification:Roboto Light">PATENTS</tspan></tspan><tspan
             y="558.14703"
             x="172.22318"
             sodipodi:role="line"
             style="font-size:12px;font-style:normal;font-variant:normal;font-weight:normal;font-stretch:normal;text-align:start;line-height:125%;writing-mode:lr-tb;text-anchor:start;fill:#ffffff;fill-opacity:1;stroke:none;font-family:Roboto;-inkscape-font-specification:Roboto"
             id="tspan4361">       NO <tspan
   id="tspan3077"
   style="font-size:12px;font-style:normal;font-variant:normal;font-weight:300;font-stretch:normal;text-align:start;line-height:125%;writing-mode:lr-tb;text-anchor:start;font-family:Roboto;-inkscape-font-specification:Roboto Light">LOCK-IN</tspan></tspan><tspan
             y="571.16071"
             x="172.22318"
             sodipodi:role="line"
             style="font-size:10px;font-style:normal;font-variant:normal;font-weight:normal;font-stretch:normal;text-align:start;line-height:125%;writing-mode:lr-tb;text-anchor:start;fill:#ffffff;fill-opacity:1;stroke:none;font-family:Roboto;-inkscape-font-specification:Roboto"
             id="tspan4375">       FREEDOM</tspan></text>
        <text
           xml:space="preserve"
           style="font-size:12px;font-style:normal;font-variant:normal;font-weight:normal;font-stretch:normal;line-height:120.00000477%;letter-spacing:0px;word-spacing:0px;color:#000000;fill:#ffffff;fill-opacity:1;fill-rule:evenodd;stroke:none;stroke-width:1px;marker:none;visibility:visible;display:inline;overflow:visible;enable-background:accumulate;font-family:Vegur;-inkscape-font-specification:Vegur"
           x="-310.35889"
           y="373.85406"
           id="text4022"
           sodipodi:linespacing="120%"
           transform="matrix(0.65681227,-0.75405414,0.75405414,0.65681227,0,0)"><tspan
             sodipodi:role="line"
             id="tspan4024"
             x="-310.35889"
             y="373.85406"
             style="font-size:14px;font-style:normal;font-variant:normal;font-weight:300;font-stretch:normal;text-align:start;line-height:120.00000477%;writing-mode:lr-tb;text-anchor:start;fill:#ffffff;fill-opacity:1;stroke:none;font-family:Roboto;-inkscape-font-specification:Roboto Light">&quot;<tspan
   id="tspan3091"
   style="font-size:14px;font-style:normal;font-variant:normal;font-weight:500;font-stretch:normal;text-align:start;line-height:120.00000477%;writing-mode:lr-tb;text-anchor:start;font-family:Roboto;-inkscape-font-specification:Roboto Medium">Open standards</tspan> are the strong foundation for</tspan><tspan
             sodipodi:role="line"
             x="-310.35889"
             y="390.65405"
             style="font-size:14px;font-style:normal;font-variant:normal;font-weight:300;font-stretch:normal;text-align:start;line-height:120.00000477%;writing-mode:lr-tb;text-anchor:start;fill:#ffffff;fill-opacity:1;stroke:none;font-family:Roboto;-inkscape-font-specification:Roboto Light"
             id="tspan4032">        interoperability, competition and choice. Three</tspan><tspan
             sodipodi:role="line"
             x="-310.35889"
             y="407.45407"
             id="tspan4028"
             style="font-size:14px;font-style:normal;font-variant:normal;font-weight:300;font-stretch:normal;text-align:start;line-height:120.00000477%;writing-mode:lr-tb;text-anchor:start;fill:#ffffff;fill-opacity:1;stroke:none;font-family:Roboto;-inkscape-font-specification:Roboto Light">             crucial things for an <tspan
   id="tspan3087"
   style="font-size:14px;font-style:normal;font-variant:normal;font-weight:500;font-stretch:normal;text-align:start;line-height:120.00000477%;writing-mode:lr-tb;text-anchor:start;font-family:Roboto;-inkscape-font-specification:Roboto Medium">OPEN, INNOVATIVE</tspan>, and</tspan><tspan
             sodipodi:role="line"
             x="-310.35889"
             y="424.25406"
             style="font-size:14px;font-style:normal;font-variant:normal;font-weight:300;font-stretch:normal;text-align:start;line-height:120.00000477%;writing-mode:lr-tb;text-anchor:start;fill:#ffffff;fill-opacity:1;stroke:none;font-family:Roboto;-inkscape-font-specification:Roboto Light"
             id="tspan4044">                 successful society.&quot; -- Peter H. Ganten,</tspan><tspan
             sodipodi:role="line"
             x="-310.35889"
             y="441.05408"
             style="font-size:14px;font-style:normal;font-variant:normal;font-weight:300;font-stretch:normal;text-align:start;line-height:120.00000477%;writing-mode:lr-tb;text-anchor:start;fill:#ffffff;fill-opacity:1;stroke:none;font-family:Roboto;-inkscape-font-specification:Roboto Light"
             id="tspan4040">                     Chairman of the board, OSB Alliance</tspan></text>
        <path
           inkscape:connector-curvature="0"
           style="fill:none;stroke:none"
           id="path4271"
           d="m 666.65152,300.16362 c 0,0 -4.268,-6.38733 -19.1384,-17.83989 -14.8704,-11.4583 -35.8097,-7.00183 -35.8097,-7.00183 0,0 -32.6086,4.73535 -50.5968,57.50321 -15.4064,45.16665 -28.8715,61.97478 -41.4621,75.86709 l -179.3711,186.66631 c 0,0 -30.7922,28.54633 -67.9291,39.0894 -50.9871,14.48127 -151.9621,30.83466 -183.3215,34.57569"
           sodipodi:nodetypes="cccccccc" />
        <path
           inkscape:connector-curvature="0"
           style="fill:none;stroke:none"
           id="path4276"
           d="m 237.40146,169.19854 c 73.39921,7.65331 139.39241,42.93156 162.06194,122.10883"
           sodipodi:nodetypes="cc" />
        <path
           sodipodi:nodetypes="cc"
           d="m 257.96221,149.10508 c 73.39921,7.65331 139.39241,42.93156 162.06194,122.10883"
           id="path4332"
           style="fill:none;stroke:none"
           inkscape:connector-curvature="0" />
        <text
           sodipodi:linespacing="125%"
           id="text3020"
           style="font-size:12px;font-style:normal;font-variant:normal;font-weight:normal;font-stretch:normal;line-height:125%;letter-spacing:0px;word-spacing:0px;color:#000000;fill:#ffffff;fill-opacity:1;fill-rule:evenodd;stroke:none;stroke-width:1px;marker:none;visibility:visible;display:inline;overflow:visible;enable-background:accumulate;font-family:Vegur;-inkscape-font-specification:Vegur"
           xml:space="preserve"
           transform="translate(4,-4)"><textPath
             xlink:href="#path4045"
             id="textPath4047"
             style="font-size:28px;font-style:normal;font-variant:normal;font-weight:500;font-stretch:normal;text-align:start;line-height:125%;letter-spacing:-0.84613198;writing-mode:lr-tb;text-anchor:start;fill:#ffffff;fill-opacity:1;stroke:none;font-family:Roboto;-inkscape-font-specification:Roboto Medium">OPEN DOCUMENT FORMAT ALLIANCE</textPath></text>
        <path
           inkscape:connector-curvature="0"
           style="fill:none;stroke:none"
           id="path3030"
           d="M 378.82948,554.71976 339.57766,595.568 c 0,0 -30.79216,28.54633 -67.92907,39.0894 -32.97903,9.36664 -86.87117,19.51651 -129.31148,26.53007 -23.17442,3.82974 -42.934269,6.72433 -54.0101,8.04562 -31.364702,3.74625 -9.972571,21.84787 23.49489,41.77577"
           sodipodi:nodetypes="cccscc" />
        <text
           sodipodi:linespacing="125%"
           id="text3808"
           y="61.17765"
           x="728.93561"
           style="font-size:8.48016644px;font-style:normal;font-variant:normal;font-weight:normal;font-stretch:normal;line-height:125%;letter-spacing:0px;word-spacing:0px;color:#000000;fill:#ffffff;fill-opacity:1;fill-rule:evenodd;stroke:none;stroke-width:1px;marker:none;visibility:visible;display:inline;overflow:visible;enable-background:accumulate;font-family:Vegur;-inkscape-font-specification:Vegur"
           xml:space="preserve"
           transform="matrix(0.94210422,0.3353202,-0.3353202,0.94210422,0,0)"><tspan
             style="font-size:9px;font-style:normal;font-variant:normal;font-weight:500;font-stretch:normal;text-align:start;line-height:125%;writing-mode:lr-tb;text-anchor:start;font-family:Roboto;-inkscape-font-specification:Roboto Medium"
             id="tspan3812"
             y="61.17765"
             x="728.93561"
             sodipodi:role="line">FREE</tspan></text>
        <text
           xml:space="preserve"
           style="font-size:12px;font-style:normal;font-variant:normal;font-weight:normal;font-stretch:normal;line-height:125%;letter-spacing:0px;word-spacing:0px;color:#000000;fill:#ffffff;fill-opacity:1;fill-rule:evenodd;stroke:none;stroke-width:1px;marker:none;visibility:visible;display:inline;overflow:visible;enable-background:accumulate;font-family:Vegur;-inkscape-font-specification:Vegur"
           id="text3818"
           sodipodi:linespacing="125%"
           transform="translate(-74.766355,-72.467289)"><textPath
             style="font-size:14px;font-style:normal;font-variant:normal;font-weight:300;font-stretch:normal;text-align:start;line-height:125%;letter-spacing:-0.465817;writing-mode:lr-tb;text-anchor:start;fill:#ffffff;fill-opacity:1;stroke:none;font-family:Roboto;-inkscape-font-specification:Roboto Light"
             xlink:href="#path3902"
             id="textPath3904">      CONTINUOUS DEVELOPMENT</textPath></text>
        <text
           sodipodi:linespacing="125%"
           id="text3824"
           style="font-size:16.16161537px;font-style:normal;font-variant:normal;font-weight:normal;font-stretch:normal;line-height:125%;letter-spacing:0px;word-spacing:0px;color:#000000;fill:#ffffff;fill-opacity:1;fill-rule:evenodd;stroke:none;stroke-width:1px;marker:none;visibility:visible;display:inline;overflow:visible;enable-background:accumulate;font-family:Vegur;-inkscape-font-specification:Vegur"
           xml:space="preserve"
           transform="translate(-118.03738,-75.663551)"><textPath
             style="font-size:18px;font-style:normal;font-variant:normal;font-weight:normal;font-stretch:normal;text-align:start;line-height:125%;letter-spacing:1.89715695;writing-mode:lr-tb;text-anchor:start;fill:#ffffff;fill-opacity:1;stroke:none;font-family:Roboto;-inkscape-font-specification:Roboto"
             xlink:href="#path3900"
             id="textPath3907">COMMUNITY EFFORT</textPath></text>
        <text
           xml:space="preserve"
           style="font-style:normal;font-variant:normal;font-weight:normal;font-stretch:normal;line-height:125%;letter-spacing:0px;word-spacing:0px;color:#000000;fill:#ffffff;fill-opacity:1;fill-rule:evenodd;stroke:none;stroke-width:1px;marker:none;visibility:visible;display:inline;overflow:visible;enable-background:accumulate;font-family:Vegur;-inkscape-font-specification:Vegur"
           id="text3843"
           sodipodi:linespacing="125%"
           transform="translate(266.30407,-440.15932)"><textPath
             xlink:href="#path3956"
             id="textPath3958"
             style="font-size:10px;font-style:normal;font-variant:normal;font-weight:500;font-stretch:normal;text-align:start;line-height:125%;letter-spacing:0.323378;writing-mode:lr-tb;text-anchor:start;fill:#ffffff;fill-opacity:1;stroke:none;font-family:Roboto;-inkscape-font-specification:Roboto Medium">LIBREOFFICE, OPENOFFICE.ORG, CALLIGRA SUITE, WEBODF, ...</textPath></text>
        <text
           xml:space="preserve"
           style="font-style:normal;font-variant:normal;font-weight:normal;font-stretch:normal;line-height:125%;letter-spacing:0px;word-spacing:0px;color:#000000;fill:#ffffff;fill-opacity:1;fill-rule:evenodd;stroke:none;stroke-width:1px;marker:none;visibility:visible;display:inline;overflow:visible;enable-background:accumulate;font-family:Vegur;-inkscape-font-specification:Vegur"
           id="text3922"
           sodipodi:linespacing="125%"
           transform="translate(-4.542056,-7.6074766)"><textPath
             xlink:href="#path3926"
             id="textPath3937"
             style="font-size:28px;font-style:normal;font-variant:normal;font-weight:500;font-stretch:normal;text-align:start;line-height:125%;letter-spacing:0.247026;writing-mode:lr-tb;text-anchor:start;fill:#ffffff;fill-opacity:1;stroke:none;font-family:Roboto;-inkscape-font-specification:Roboto Medium">NEVERENDING SUPPORT</textPath></text>
        <path
           inkscape:connector-curvature="0"
           style="fill:none;stroke:none"
           id="path5126"
           d="m 575.86608,622.89439 c 67.34661,-51.19598 82.89128,-128.97555 81.00094,-190.01469 -2.5035,-80.51137 7.6408,-98.03596 15.6979,-104.85516"
           sodipodi:nodetypes="ccc" />
        <text
           xml:space="preserve"
           style="font-size:12px;font-style:normal;font-variant:normal;font-weight:normal;font-stretch:normal;text-align:center;line-height:100%;letter-spacing:0px;word-spacing:0px;text-anchor:middle;color:#000000;fill:#000000;fill-opacity:1;fill-rule:evenodd;stroke:none;stroke-width:1px;marker:none;visibility:visible;display:inline;overflow:visible;enable-background:accumulate;font-family:Vegur;-inkscape-font-specification:Vegur"
           x="-31.090025"
           y="727.50146"
           id="text3962"
           sodipodi:linespacing="100%"
           transform="matrix(0.68084156,-0.73243073,0.73243073,0.68084156,0,0)"><tspan
             id="tspan3063"
             sodipodi:role="line"
             x="-31.090025"
             y="727.50146"
             style="font-size:40px;font-style:normal;font-variant:normal;font-weight:normal;font-stretch:normal;text-align:center;line-height:100%;writing-mode:lr-tb;text-anchor:middle;fill:#000000;fill-opacity:1;stroke:none;font-family:Roboto;-inkscape-font-specification:Roboto">DOCUMENT</tspan><tspan
             id="tspan3103"
             sodipodi:role="line"
             x="-31.090025"
             y="767.50146"
             style="font-size:40px;font-style:normal;font-variant:normal;font-weight:normal;font-stretch:normal;text-align:center;line-height:100%;writing-mode:lr-tb;text-anchor:middle;fill:#000000;fill-opacity:1;stroke:none;font-family:Roboto;-inkscape-font-specification:Roboto">FREEDOM</tspan></text>
        <path
           inkscape:connector-curvature="0"
           style="fill:none;stroke:none"
           id="path3998"
           d="m 325.20425,567.25381 c -13.73487,-18.18212 -39.26828,-46.64089 -62.31224,-61.19397 -37.35862,-23.5933 -81.69275,-30.78675 -81.69275,-30.78675 L 367.4381,270.54363 c 0,0 43.50201,18.44502 73.5713,41.44408 26.51709,20.28209 45.7584,52.36616 54.37925,82.47596 L 328.81642,572.1723 c 0,0 -2.33701,-3.22175 -3.61217,-4.91849 z"
           sodipodi:nodetypes="csccsccc" />
        <flowRoot
           xml:space="preserve"
           style="font-style:normal;font-variant:normal;font-weight:normal;font-stretch:normal;line-height:125%;letter-spacing:0px;word-spacing:0px;color:#000000;fill:#ffffff;fill-opacity:1;fill-rule:evenodd;stroke:none;stroke-width:1px;marker:none;visibility:visible;display:inline;overflow:visible;enable-background:accumulate;font-family:Vegur;-inkscape-font-specification:Vegur"
           id="flowRoot4022"><flowRegion
             id="flowRegion4024"><use
               x="0"
               y="0"
               xlink:href="#path3998"
               id="use4026"
               width="765"
               height="990" /></flowRegion><flowPara
             id="flowPara4028"
             style="font-size:13px;font-style:normal;font-variant:normal;font-weight:300;font-stretch:normal;text-align:start;line-height:121.00000381%;writing-mode:lr-tb;text-anchor:start;fill:#ffffff;fill-opacity:1;stroke:none;font-family:Roboto;-inkscape-font-specification:Roboto Light">“Open Standards lie at the heart of the Internet and much of what has emerged to function on this global and growing platform. The essence of open standards is <flowSpan
   id="flowSpan3099"
   style="font-size:13px;font-style:normal;font-variant:normal;font-weight:500;font-stretch:normal;text-align:start;line-height:121.00000381%;writing-mode:lr-tb;text-anchor:start;font-family:Roboto;-inkscape-font-specification:Roboto Medium">INTEROPERABILITY</flowSpan>. Adoption of open standards leads to the interworking of competitive products. By any metric, open standards lower barriers to entry into existing markets and increase consumer choice.” -- Vint Cerf, Chief Internet Evangelist, Google</flowPara></flowRoot>        <text
           xml:space="preserve"
           style="font-size:12px;font-style:normal;font-variant:normal;font-weight:normal;font-stretch:normal;line-height:110.00000238%;letter-spacing:0px;word-spacing:0px;color:#000000;fill:#ffffff;fill-opacity:1;fill-rule:evenodd;stroke:none;stroke-width:1px;marker:none;visibility:visible;display:inline;overflow:visible;enable-background:accumulate;font-family:Vegur;-inkscape-font-specification:Vegur"
           x="-36.837635"
           y="704.59814"
           id="text4036"
           sodipodi:linespacing="110%"
           transform="matrix(0.97611891,-0.21723691,0.21723691,0.97611891,0,0)"><tspan
             sodipodi:role="line"
             id="tspan4038"
             x="-36.837635"
             y="704.59814"
             style="font-size:11px;font-style:normal;font-variant:normal;font-weight:300;font-stretch:normal;text-align:start;line-height:110.00000238%;writing-mode:lr-tb;text-anchor:start;fill:#ffffff;fill-opacity:1;stroke:none;font-family:Roboto;-inkscape-font-specification:Roboto Light">COME SUPPORT CHOICE AND PLATFORM</tspan><tspan
             sodipodi:role="line"
             x="-36.837635"
             y="716.69812"
             id="tspan4043"
             style="font-size:11px;font-style:normal;font-variant:normal;font-weight:300;font-stretch:normal;text-align:start;line-height:110.00000238%;writing-mode:lr-tb;text-anchor:start;fill:#ffffff;fill-opacity:1;stroke:none;font-family:Roboto;-inkscape-font-specification:Roboto Light">    INDEPENDENCE</tspan></text>
        <path
           style="color:#000000;fill:none;stroke:none;stroke-width:1px;marker:none;visibility:visible;display:inline;overflow:visible;enable-background:accumulate"
           d="m 84.852814,686.40855 c 0,0 170.273426,-22.55125 220.617316,-47.37616 50.34388,-24.82491 84.85281,-72.83199 84.85281,-72.83199"
           id="path5140"
           inkscape:connector-curvature="0"
           sodipodi:nodetypes="czc" />
        <path
           sodipodi:type="arc"
           style="color:#000000;fill:#000000;fill-opacity:1;fill-rule:evenodd;stroke:none;stroke-width:1px;marker:none;visibility:visible;display:inline;overflow:visible;enable-background:accumulate"
           id="path3045"
           sodipodi:cx="627.91083"
           sodipodi:cy="297.03534"
           sodipodi:rx="5.6568542"
           sodipodi:ry="5.6568542"
           d="m 633.56768,297.03534 c 0,3.12419 -2.53266,5.65685 -5.65685,5.65685 -3.1242,0 -5.65686,-2.53266 -5.65686,-5.65685 0,-3.12419 2.53266,-5.65685 5.65686,-5.65685 3.12419,0 5.65685,2.53266 5.65685,5.65685 z"
           transform="matrix(0.88388349,0,0,0.88388349,72.253959,39.147561)" />
      </g>
      <text
         sodipodi:linespacing="125%"
         id="text3043"
         style="font-style:normal;font-variant:normal;font-weight:normal;font-stretch:normal;line-height:125%;letter-spacing:0px;word-spacing:0px;writing-mode:lr-tb;color:#000000;fill:#ffffff;fill-opacity:1;fill-rule:evenodd;stroke:none;stroke-width:1px;marker:none;visibility:visible;display:inline;overflow:visible;enable-background:accumulate;font-family:Vegur;-inkscape-font-specification:Vegur"
         xml:space="preserve"
         transform="translate(1.9999989,-307.9055)"><textPath
           style="font-size:13px;font-style:normal;font-variant:normal;font-weight:500;font-stretch:normal;text-align:start;line-height:125%;letter-spacing:-0.199349;writing-mode:lr-tb;text-anchor:start;font-family:Roboto;-inkscape-font-specification:Roboto Medium"
           id="textPath4102"
           xlink:href="#path3145"><tspan
   dx="6.0700002 -0.64999998 -2.2 -6.1700015 2.9499993"
   id="tspan3045"
   style="font-size:13px;font-style:normal;font-variant:normal;font-weight:500;font-stretch:normal;text-align:start;line-height:125%;letter-spacing:-0.199349;writing-mode:lr-tb;text-anchor:start;fill:#ffffff;fill-opacity:1;font-family:Roboto;-inkscape-font-specification:Roboto Medium">ONE FORMAT, MULITPLE CONTRIBUTORS, MULTIPLE IMPLEMENTATIONS</tspan></textPath></text>
      <path
         sodipodi:nodetypes="cszzsc"
         inkscape:connector-curvature="0"
         id="path5151"
         d="m 386.2952,221.0933 c 0,0 143.09035,-148.15975 149.22797,-154.64552 6.13763,-6.48575 25.07727,-29.747459 34.27085,-62.846769 9.19358,-33.09931 21.45144,-46.70199 37.63557,-55.35975 16.18412,-8.65777 31.43663,-5.28851 42.37538,1.98962 10.93876,7.27812 14.89983,13.48539 14.89983,13.48539"
         style="fill:none;stroke:none" />
    </g>
  </g>
</svg>
