<?xml version="1.0" encoding="UTF-8" standalone="no"?>
<!-- Created with Inkscape (http://www.inkscape.org/) -->

<svg
   xmlns:dc="http://purl.org/dc/elements/1.1/"
   xmlns:cc="http://creativecommons.org/ns#"
   xmlns:rdf="http://www.w3.org/1999/02/22-rdf-syntax-ns#"
   xmlns:svg="http://www.w3.org/2000/svg"
   xmlns="http://www.w3.org/2000/svg"
   xmlns:xlink="http://www.w3.org/1999/xlink"
   xmlns:sodipodi="http://sodipodi.sourceforge.net/DTD/sodipodi-0.dtd"
   xmlns:inkscape="http://www.inkscape.org/namespaces/inkscape"
   width="80"
   height="15"
   id="svg2"
   version="1.1"
   inkscape:version="0.48.2 r9819"
   inkscape:export-filename="/home/stian/Dokument/FSFE/df-web/stiantest/dfd-minthing.png"
   inkscape:export-xdpi="90"
   inkscape:export-ydpi="90"
   sodipodi:docname="dfd-2012-minibadge.svg">
  <defs
     id="defs4">
    <linearGradient
       inkscape:collect="always"
       xlink:href="#linearGradient3696"
       id="linearGradient3095"
       gradientUnits="userSpaceOnUse"
       gradientTransform="matrix(0.3018934,0,0,0.3018934,-8.3595376,920.88874)"
       x1="357.92072"
       y1="589.32819"
       x2="357.92072"
       y2="657.38831" />
    <linearGradient
       id="linearGradient3696">
      <stop
         style="stop-color:#b6e235;stop-opacity:1;"
         offset="0"
         id="stop3698" />
      <stop
         style="stop-color:#36890a;stop-opacity:1;"
         offset="1"
         id="stop3700" />
    </linearGradient>
    <linearGradient
       inkscape:collect="always"
       xlink:href="#linearGradient3696"
       id="linearGradient3111"
       gradientUnits="userSpaceOnUse"
       gradientTransform="matrix(0.3018934,0,0,0.3018934,-8.3595376,920.88874)"
       x1="357.92072"
       y1="589.32819"
       x2="357.92072"
       y2="657.38831" />
    <linearGradient
       id="linearGradient3113">
      <stop
         style="stop-color:#b6e235;stop-opacity:1;"
         offset="0"
         id="stop3115" />
      <stop
         style="stop-color:#36890a;stop-opacity:1;"
         offset="1"
         id="stop3117" />
    </linearGradient>
    <linearGradient
       inkscape:collect="always"
       xlink:href="#linearGradient3696"
       id="linearGradient3119"
       gradientUnits="userSpaceOnUse"
       gradientTransform="matrix(0.3018934,0,0,0.3018934,-8.3595376,920.88874)"
       x1="357.92072"
       y1="589.32819"
       x2="357.92072"
       y2="657.38831" />
    <linearGradient
       id="linearGradient3121">
      <stop
         style="stop-color:#b6e235;stop-opacity:1;"
         offset="0"
         id="stop3123" />
      <stop
         style="stop-color:#36890a;stop-opacity:1;"
         offset="1"
         id="stop3125" />
    </linearGradient>
    <linearGradient
       inkscape:collect="always"
       xlink:href="#linearGradient3696"
       id="linearGradient3127"
       gradientUnits="userSpaceOnUse"
       gradientTransform="matrix(0.3018934,0,0,0.3018934,-8.3595376,920.88874)"
       x1="357.92072"
       y1="589.32819"
       x2="357.92072"
       y2="657.38831" />
    <linearGradient
       id="linearGradient3129">
      <stop
         style="stop-color:#b6e235;stop-opacity:1;"
         offset="0"
         id="stop3131" />
      <stop
         style="stop-color:#36890a;stop-opacity:1;"
         offset="1"
         id="stop3133" />
    </linearGradient>
    <linearGradient
       y2="657.38831"
       x2="357.92072"
       y1="589.32819"
       x1="357.92072"
       gradientTransform="matrix(0.3018934,0,0,0.3018934,-47.159875,962.73934)"
       gradientUnits="userSpaceOnUse"
       id="linearGradient3139"
       xlink:href="#linearGradient3696"
       inkscape:collect="always" />
    <linearGradient
       inkscape:collect="always"
       xlink:href="#linearGradient3696"
       id="linearGradient3815"
       x1="28.149378"
       y1="1027.9307"
       x2="36.248955"
       y2="1054.2212"
       gradientUnits="userSpaceOnUse" />
  </defs>
  <sodipodi:namedview
     id="base"
     pagecolor="#ffffff"
     bordercolor="#666666"
     borderopacity="1.0"
     inkscape:pageopacity="1"
     inkscape:pageshadow="2"
     inkscape:zoom="7.53125"
     inkscape:cx="40.799209"
     inkscape:cy="6.9878271"
     inkscape:document-units="px"
     inkscape:current-layer="layer1"
     showgrid="false"
     inkscape:window-width="1366"
     inkscape:window-height="691"
     inkscape:window-x="0"
     inkscape:window-y="24"
     inkscape:window-maximized="1" />
  <metadata
     id="metadata7">
    <rdf:RDF>
      <cc:Work
         rdf:about="">
        <dc:format>image/svg+xml</dc:format>
        <dc:type
           rdf:resource="http://purl.org/dc/dcmitype/StillImage" />
        <dc:title></dc:title>
      </cc:Work>
    </rdf:RDF>
  </metadata>
  <g
     inkscape:label="Layer 1"
     inkscape:groupmode="layer"
     id="layer1"
     transform="translate(0,-1037.3622)">
    <path
       inkscape:connector-curvature="0"
       id="path4190"
       style="fill:#36890a;fill-opacity:1"
       d="m 11.026013,1043.3463 c 0,0 -0.203703,0.2232 -0.203703,0.2232 -0.362789,-1.0697 -1.0360142,-1.7901 -1.9010162,-2.2326 0,0 3.1251332,-2.4267 3.1251332,-2.4267 -0.837527,1.4114 -1.024205,3.4487 -1.020414,4.4361 z m 1.892042,-2.0025 c 0,0 -0.699728,0.1006 -1.085799,1.2347 -0.330498,0.9692 -0.619598,1.3302 -0.88966,1.6284 0,0 -3.8492332,4.0072 -3.8492332,4.0072 0,0 -0.660779,0.6127 -1.457779,0.839 -1.094253,0.311 -3.261002,0.6619 -3.933993,0.7423 -0.672872,0.081 -0.214036,0.4686 0.504328,0.8965 0.718313,0.4278 0.825415,0.6395 2.259979,-0.1358 1.434497,-0.7753 2.808289,-0.064 5.7486392,-0.9082 2.940283,-0.8447 3.537757,-3.1981 3.484147,-4.9263 -0.05368,-1.7284 0.163882,-2.1045 0.336872,-2.2509 0.172957,-0.146 0.819897,-0.3469 0.819897,-0.3469 0,0 -0.758168,-0.2466 -0.758168,-0.2466 0,0 -0.09192,-0.1376 -0.410762,-0.3831 -0.318992,-0.2458 -0.768468,-0.151 -0.768468,-0.151 z m -6.1617162,6.2877 c -1.325734,-1.7556 -3.303306,-2.3483 -5.498236,-1.9798 0,0 3.784402,-4.2838 3.784402,-4.2838 2.202176,-0.3452 4.683891,0.1939 5.3614942,2.5614 0,0 -3.5700462,3.8077 -3.5700462,3.8077 0,0 -0.04999,-0.069 -0.07766,-0.1057 z"
       inkscape:export-filename="/home/ivan/Desktop/wiki.png"
       inkscape:export-xdpi="72.031548"
       inkscape:export-ydpi="72.031548" />
    <rect
       style="fill:url(#linearGradient3815);fill-opacity:1;stroke:none"
       id="rect2992"
       width="64.398338"
       height="14.871369"
       x="15.800831"
       y="1037.4908" />
    <text
       xml:space="preserve"
       style="font-size:11.38663578px;font-style:normal;font-variant:normal;font-weight:bold;font-stretch:normal;text-align:start;line-height:125%;letter-spacing:0px;word-spacing:0px;writing-mode:lr-tb;text-anchor:start;fill:#ffffff;fill-opacity:1;stroke:none;font-family:DejaVu Sans Mono;-inkscape-font-specification:DejaVu Sans Mono Bold"
       x="18.531227"
       y="1049.108"
       id="text3817"
       sodipodi:linespacing="125%"><tspan
         sodipodi:role="line"
         id="tspan3819"
         x="18.531227"
         y="1049.108"
         dx="0 0 0 0 0 -2.5228217">27/3 #dfd</tspan></text>
  </g>
</svg>
