<?xml version="1.0" encoding="UTF-8" standalone="no"?>
<!-- Created with Inkscape (http://www.inkscape.org/) -->

<svg
   xmlns:dc="http://purl.org/dc/elements/1.1/"
   xmlns:cc="http://creativecommons.org/ns#"
   xmlns:rdf="http://www.w3.org/1999/02/22-rdf-syntax-ns#"
   xmlns:svg="http://www.w3.org/2000/svg"
   xmlns="http://www.w3.org/2000/svg"
   xmlns:xlink="http://www.w3.org/1999/xlink"
   xmlns:sodipodi="http://sodipodi.sourceforge.net/DTD/sodipodi-0.dtd"
   xmlns:inkscape="http://www.inkscape.org/namespaces/inkscape"
   width="156.25"
   height="156.25"
   id="svg3784"
   version="1.1"
   inkscape:version="0.48.3.1 r9886"
   sodipodi:docname="125x125.svg"
   inkscape:export-filename="/home/albert/Escriptori/baners/250x250.png"
   inkscape:export-xdpi="72"
   inkscape:export-ydpi="72">
  <defs
     id="defs3786">
    <linearGradient
       id="linearGradient3696">
      <stop
         style="stop-color:#b6e235;stop-opacity:1;"
         offset="0"
         id="stop3698" />
      <stop
         style="stop-color:#36890a;stop-opacity:1;"
         offset="1"
         id="stop3700" />
    </linearGradient>
    <linearGradient
       id="linearGradient3980">
      <stop
         style="stop-color:#ffffff;stop-opacity:1;"
         offset="0"
         id="stop3982" />
      <stop
         style="stop-color:#ffffff;stop-opacity:0;"
         offset="1"
         id="stop3984" />
    </linearGradient>
    <linearGradient
       inkscape:collect="always"
       xlink:href="#linearGradient3696"
       id="linearGradient3974"
       gradientUnits="userSpaceOnUse"
       gradientTransform="matrix(5.8026644,0,0,20.930681,-91.029676,-20975.002)"
       x1="28.149378"
       y1="1027.9307"
       x2="36.248955"
       y2="1054.2212" />
    <linearGradient
       inkscape:collect="always"
       xlink:href="#linearGradient3980"
       id="linearGradient3976"
       gradientUnits="userSpaceOnUse"
       gradientTransform="matrix(0.79846573,0,0,5.2309231,0.65724186,-4452.9526)"
       x1="108.70062"
       y1="915.66998"
       x2="121.24387"
       y2="1023.9117" />
    <linearGradient
       inkscape:collect="always"
       xlink:href="#linearGradient3696"
       id="linearGradient3041"
       gradientUnits="userSpaceOnUse"
       gradientTransform="matrix(5.8026644,0,0,20.930681,-91.029676,-20975.002)"
       x1="28.149378"
       y1="1027.9307"
       x2="36.248955"
       y2="1054.2212" />
    <linearGradient
       inkscape:collect="always"
       xlink:href="#linearGradient3980"
       id="linearGradient3043"
       gradientUnits="userSpaceOnUse"
       gradientTransform="matrix(0.79846573,0,0,5.2309231,0.65724186,-4452.9526)"
       x1="108.70062"
       y1="915.66998"
       x2="121.24387"
       y2="1023.9117" />
  </defs>
  <sodipodi:namedview
     id="base"
     pagecolor="#ffffff"
     bordercolor="#666666"
     borderopacity="1.0"
     inkscape:pageopacity="0.0"
     inkscape:pageshadow="2"
     inkscape:zoom="2.1055907"
     inkscape:cx="181.69557"
     inkscape:cy="59.363481"
     inkscape:document-units="pt"
     inkscape:current-layer="layer1"
     showgrid="true"
     units="pt"
     inkscape:window-width="1024"
     inkscape:window-height="713"
     inkscape:window-x="0"
     inkscape:window-y="27"
     inkscape:window-maximized="1">
    <inkscape:grid
       type="xygrid"
       id="grid3002"
       empspacing="5"
       visible="true"
       enabled="true"
       snapvisiblegridlinesonly="true" />
  </sodipodi:namedview>
  <metadata
     id="metadata3789">
    <rdf:RDF>
      <cc:Work
         rdf:about="">
        <dc:format>image/svg+xml</dc:format>
        <dc:type
           rdf:resource="http://purl.org/dc/dcmitype/StillImage" />
        <dc:title></dc:title>
      </cc:Work>
    </rdf:RDF>
  </metadata>
  <g
     inkscape:label="Layer 1"
     inkscape:groupmode="layer"
     id="layer1"
     transform="translate(0,-896.11218)">
    <g
       id="g3968"
       transform="matrix(0.41496381,0,0,0.49831663,0.57052207,527.41526)">
      <rect
         y="740.38654"
         x="0.65724188"
         height="311.26791"
         width="373.68198"
         id="rect2992"
         style="fill:url(#linearGradient3041);fill-opacity:1;stroke:none" />
      <path
         sodipodi:nodetypes="cccsc"
         inkscape:connector-curvature="0"
         id="path3210"
         d="m 261.07491,740.63423 -260.018266,0 0,296.09127 c 0,0 23.468026,-111.93971 76.872309,-163.01967 C 140.2559,814.09266 261.07491,740.63423 261.07491,740.63423 z"
         style="fill:url(#linearGradient3043);fill-opacity:1;stroke:none" />
      <rect
         y="740.9563"
         x="0.65724188"
         height="310.69812"
         width="373.68198"
         id="rect2992-7"
         style="fill:none;stroke:#505050;stroke-width:2.03339529;stroke-opacity:1" />
      <path
         inkscape:connector-curvature="0"
         id="rect2992-7-9"
         d="m 3.993127,1047.4088 c 122.134993,0 244.270003,0 366.404993,0 0,-100.66699 0,-201.33339 0,-302.00033 -122.13499,0 -244.27,0 -366.404993,0 0,100.66694 0,201.33334 0,302.00033 z"
         style="fill:none;stroke:#acacac;stroke-width:2.06362772;stroke-opacity:0.82442747" />
    </g>
    <path
       inkscape:connector-curvature="0"
       id="path4190"
       style="fill:#ffffff;fill-opacity:1;stroke:#36890a;stroke-width:0.9764266;stroke-opacity:1"
       d="m 89.003538,915.32733 c 0,0 -0.710949,0.77902 -0.710949,0.77902 -1.266176,-3.73331 -3.615849,-6.24771 -6.634828,-7.79212 0,0 10.907154,-8.46946 10.907154,-8.46946 -2.923071,4.92592 -3.57461,12.03644 -3.561377,15.48256 z m 6.603495,-6.98894 c 0,0 -2.44216,0.3511 -3.789598,4.30924 -1.153495,3.38268 -2.162496,4.64269 -3.105052,5.6833 0,0 -13.434357,13.98578 -13.434357,13.98578 0,0 -2.306225,2.13836 -5.087869,2.92819 -3.819084,1.08554 -11.381348,2.31014 -13.730183,2.59078 -2.348413,0.28266 -0.747025,1.63551 1.760185,3.1289 2.507003,1.49305 2.880799,2.23187 7.887618,-0.47387 5.00661,-2.70592 9.801337,-0.22343 20.063579,-3.16979 10.262044,-2.94821 12.347294,-11.16188 12.160184,-17.19356 -0.18743,-6.03237 0.57197,-7.34493 1.17571,-7.85592 0.60366,-0.50964 2.86158,-1.21086 2.86158,-1.21086 0,0 -2.64612,-0.86054 -2.64612,-0.86054 0,0 -0.32075,-0.48026 -1.43361,-1.33708 -1.113326,-0.85792 -2.682067,-0.52699 -2.682067,-0.52699 z m -21.50526,21.94508 c -4.627024,-6.12747 -11.529019,-8.19601 -19.18964,-6.90999 0,0 13.208101,-14.951 13.208101,-14.951 7.685921,-1.20487 16.347437,0.67677 18.712406,8.9397 0,0 -12.459998,13.28953 -12.459998,13.28953 0,0 -0.174507,-0.24091 -0.271183,-0.36915 z"
       inkscape:export-filename="/home/ivan/Desktop/wiki.png"
       inkscape:export-xdpi="72.031548"
       inkscape:export-ydpi="72.031548" />
    <text
       xml:space="preserve"
       style="font-size:26.55036163000000116px;font-style:normal;font-variant:normal;font-weight:normal;font-stretch:normal;text-align:start;line-height:101%;letter-spacing:0px;word-spacing:0px;writing-mode:lr-tb;text-anchor:start;fill:#ffffff;fill-opacity:1;stroke:#36890a;stroke-width:0.77907830000000000;stroke-opacity:0.67625900000000005;font-family:Yanone Kaffeesatz;-inkscape-font-specification:Yanone Kaffeesatz"
       x="78.374565"
       y="967.36218"
       id="text4040"
       sodipodi:linespacing="101%"><tspan
         sodipodi:role="line"
         x="78.374565"
         y="967.36218"
         style="text-align:center;line-height:101%;text-anchor:middle;stroke-width:0.77907830000000000"
         id="tspan3062">Allibereu els</tspan><tspan
         sodipodi:role="line"
         x="78.374565"
         y="989.39899"
         style="text-align:center;line-height:101%;text-anchor:middle;stroke-width:0.77907830000000000"
         id="tspan3107">vostres</tspan><tspan
         sodipodi:role="line"
         x="78.374565"
         y="1011.4358"
         style="text-align:center;line-height:101%;text-anchor:middle;stroke-width:0.77907830000000000"
         id="tspan3109">documents!</tspan></text>
    <text
       xml:space="preserve"
       style="font-size:10.62372589px;font-style:normal;font-variant:normal;font-weight:normal;font-stretch:normal;text-align:start;line-height:125%;letter-spacing:0px;word-spacing:0px;writing-mode:lr-tb;text-anchor:start;fill:#ffffff;fill-opacity:1;stroke:#36890a;stroke-width:0.75883758;stroke-opacity:0;font-family:Yanone Kaffeesatz;-inkscape-font-specification:Yanone Kaffeesatz"
       x="28.378988"
       y="1117.1447"
       id="text4044"
       sodipodi:linespacing="125%"
       transform="scale(1.0796414,0.92623346)"><tspan
         sodipodi:role="line"
         id="tspan4046"
         x="28.378988"
         y="1117.1447"
         style="font-size:10.62372589px;font-style:normal;font-variant:normal;font-weight:normal;font-stretch:normal;text-align:start;line-height:125%;writing-mode:lr-tb;text-anchor:start;fill:#ffffff;stroke-width:0.75883758;font-family:Yanone Kaffeesatz;-inkscape-font-specification:Yanone Kaffeesatz">vegeu per què és important</tspan><tspan
         sodipodi:role="line"
         x="28.378988"
         y="1130.4243"
         style="font-size:10.62372589px;font-style:normal;font-variant:normal;font-weight:normal;font-stretch:normal;text-align:start;line-height:125%;writing-mode:lr-tb;text-anchor:start;fill:#ffffff;stroke-width:0.75883758;font-family:Yanone Kaffeesatz;-inkscape-font-specification:Yanone Kaffeesatz"
         id="tspan3064">a documentfreedom.org/ca</tspan></text>
  </g>
</svg>
