<?xml version="1.0" encoding="UTF-8" standalone="no"?>
<!-- Created with Inkscape (http://www.inkscape.org/) -->

<svg
   xmlns:dc="http://purl.org/dc/elements/1.1/"
   xmlns:cc="http://creativecommons.org/ns#"
   xmlns:rdf="http://www.w3.org/1999/02/22-rdf-syntax-ns#"
   xmlns:svg="http://www.w3.org/2000/svg"
   xmlns="http://www.w3.org/2000/svg"
   xmlns:xlink="http://www.w3.org/1999/xlink"
   xmlns:sodipodi="http://sodipodi.sourceforge.net/DTD/sodipodi-0.dtd"
   xmlns:inkscape="http://www.inkscape.org/namespaces/inkscape"
   width="292.5"
   height="75"
   id="svg3784"
   version="1.1"
   inkscape:version="0.48.3.1 r9886"
   sodipodi:docname="234x60-b.svg"
   inkscape:export-filename="/home/albert/Escriptori/baners/234x60-b.png"
   inkscape:export-xdpi="72"
   inkscape:export-ydpi="72">
  <defs
     id="defs3786">
    <linearGradient
       id="linearGradient3696">
      <stop
         style="stop-color:#b6e235;stop-opacity:1;"
         offset="0"
         id="stop3698" />
      <stop
         style="stop-color:#36890a;stop-opacity:1;"
         offset="1"
         id="stop3700" />
    </linearGradient>
    <linearGradient
       id="linearGradient3980">
      <stop
         style="stop-color:#ffffff;stop-opacity:1;"
         offset="0"
         id="stop3982" />
      <stop
         style="stop-color:#ffffff;stop-opacity:0;"
         offset="1"
         id="stop3984" />
    </linearGradient>
    <linearGradient
       inkscape:collect="always"
       xlink:href="#linearGradient3696"
       id="linearGradient3126"
       gradientUnits="userSpaceOnUse"
       gradientTransform="matrix(8.4718651,0,0,14.04197,-133.01925,-13725.765)"
       x1="28.149378"
       y1="1027.9307"
       x2="36.248955"
       y2="1054.2212" />
    <linearGradient
       inkscape:collect="always"
       xlink:href="#linearGradient3980"
       id="linearGradient3128"
       gradientUnits="userSpaceOnUse"
       gradientTransform="matrix(1.1657565,0,0,3.5093203,0.84325359,-2641.4572)"
       x1="108.70062"
       y1="915.66998"
       x2="121.24387"
       y2="1023.9117" />
  </defs>
  <sodipodi:namedview
     id="base"
     pagecolor="#ffffff"
     bordercolor="#666666"
     borderopacity="1.0"
     inkscape:pageopacity="0.0"
     inkscape:pageshadow="2"
     inkscape:zoom="4.6976172"
     inkscape:cx="186.3582"
     inkscape:cy="14.768599"
     inkscape:document-units="pt"
     inkscape:current-layer="layer1"
     showgrid="true"
     units="pt"
     inkscape:window-width="1024"
     inkscape:window-height="713"
     inkscape:window-x="0"
     inkscape:window-y="27"
     inkscape:window-maximized="1">
    <inkscape:grid
       type="xygrid"
       id="grid3002"
       empspacing="5"
       visible="true"
       enabled="true"
       snapvisiblegridlinesonly="true" />
  </sodipodi:namedview>
  <metadata
     id="metadata3789">
    <rdf:RDF>
      <cc:Work
         rdf:about="">
        <dc:format>image/svg+xml</dc:format>
        <dc:type
           rdf:resource="http://purl.org/dc/dcmitype/StillImage" />
        <dc:title></dc:title>
      </cc:Work>
    </rdf:RDF>
  </metadata>
  <g
     inkscape:label="Layer 1"
     inkscape:groupmode="layer"
     id="layer1"
     transform="translate(0,-977.36218)">
    <g
       id="g3023"
       transform="matrix(0.53433085,0,0,0.35510911,0.39267718,678.58404)">
      <rect
         y="842.6488"
         x="0.84325361"
         height="208.82333"
         width="545.5741"
         id="rect2992"
         style="fill:url(#linearGradient3126);fill-opacity:1;stroke:none" />
      <path
         sodipodi:nodetypes="cccsc"
         inkscape:connector-curvature="0"
         id="path3210"
         d="m 381.05193,842.81499 -379.625551,0 0,198.64161 c 0,0 34.263217,-75.09806 112.233241,-109.36657 90.99707,-39.99327 267.39231,-89.27504 267.39231,-89.27504 z"
         style="fill:url(#linearGradient3128);fill-opacity:1;stroke:none" />
      <rect
         y="843.03107"
         x="0.84325361"
         height="208.44107"
         width="545.5741"
         id="rect2992-7"
         style="fill:none;stroke:#505050;stroke-width:2.01242614;stroke-opacity:1" />
      <path
         inkscape:connector-curvature="0"
         id="rect2992-7-9"
         d="m 5,1047.3622 c 179,0 358.00001,0 537,0 0,-66.66682 0,-133.33324 0,-200.00002 -178.99999,0 -358,0 -537,0 0,66.66678 0,133.3332 0,200.00002 z"
         style="fill:none;stroke:#acacac;stroke-width:2.03305483;stroke-opacity:0.82442747" />
    </g>
    <path
       inkscape:connector-curvature="0"
       id="path4190"
       style="fill:#ffffff;fill-opacity:1;stroke:#36890a;stroke-width:1.29530513;stroke-opacity:1"
       d="m 89.492521,1006.807 c 0,0 -0.943122,1.0334 -0.943122,1.0334 -1.679679,-4.9525 -4.796698,-8.28803 -8.801612,-10.33682 0,0 14.469185,-11.23538 14.469185,-11.23538 -3.87768,6.5346 -4.741999,15.9673 -4.724451,20.5388 z m 8.760053,-9.27136 c 0,0 -3.239716,0.46575 -5.0272,5.71656 -1.530199,4.4874 -2.868714,6.1589 -4.119091,7.5393 0,0 -17.821703,18.5527 -17.821703,18.5527 0,0 -3.05939,2.8367 -6.749455,3.8845 -5.066307,1.44 -15.098232,3.0645 -18.214142,3.4368 -3.115351,0.3749 -0.990986,2.1696 2.33502,4.1507 3.325733,1.9807 3.821603,2.9607 10.463535,-0.6286 6.641652,-3.5896 13.002225,-0.2965 26.615885,-4.2049 13.613383,-3.911 16.379637,-14.8071 16.131417,-22.8081 -0.24863,-8.0024 0.75877,-9.7436 1.55969,-10.4215 0.8008,-0.676 3.7961,-1.6063 3.7961,-1.6063 0,0 -3.5103,-1.1415 -3.5103,-1.1415 0,0 -0.42548,-0.63715 -1.90179,-1.77378 -1.47691,-1.1381 -3.557966,-0.69909 -3.557966,-0.69909 z M 69.724186,1026.647 c -6.138103,-8.1281 -15.294131,-10.8722 -25.456533,-9.1662 0,0 17.521564,-19.83361 17.521564,-19.83361 10.195966,-1.59834 21.686133,0.89779 24.823446,11.85921 0,0 -16.529149,17.6291 -16.529149,17.6291 0,0 -0.231493,-0.3196 -0.359745,-0.4897 z"
       inkscape:export-filename="/home/ivan/Desktop/wiki.png"
       inkscape:export-xdpi="72.031548"
       inkscape:export-ydpi="72.031548" />
    <text
       xml:space="preserve"
       style="font-size:19.38947868px;font-style:normal;font-variant:normal;font-weight:normal;font-stretch:normal;text-align:start;line-height:87.99999952%;letter-spacing:0px;word-spacing:0px;writing-mode:lr-tb;text-anchor:start;fill:#ffffff;fill-opacity:1;stroke:#36890a;stroke-width:0.56895351;stroke-opacity:0.676259;font-family:Yanone Kaffeesatz;-inkscape-font-specification:Yanone Kaffeesatz"
       x="180.2505"
       y="1000.3618"
       id="text4040"
       sodipodi:linespacing="88%"><tspan
         sodipodi:role="line"
         x="180.2505"
         y="1000.3618"
         style="text-align:center;line-height:87.99999952%;text-anchor:middle;stroke-width:0.56895351"
         id="tspan3013">Allibereu els</tspan><tspan
         id="tspan3132"
         sodipodi:role="line"
         x="180.2505"
         y="1017.4245"
         style="text-align:center;line-height:87.99999952%;text-anchor:middle;stroke-width:0.56895351">vostres</tspan><tspan
         id="tspan3134"
         sodipodi:role="line"
         x="180.2505"
         y="1034.4873"
         style="text-align:center;line-height:87.99999952%;text-anchor:middle;stroke-width:0.56895351">documents!</tspan></text>
    <text
       xml:space="preserve"
       style="font-size:6.46588898px;font-style:normal;font-variant:normal;font-weight:normal;font-stretch:normal;text-align:start;line-height:125%;letter-spacing:0px;word-spacing:0px;writing-mode:lr-tb;text-anchor:start;fill:#ffffff;fill-opacity:1;stroke:#36890a;stroke-width:0.46184924;stroke-opacity:0;font-family:Yanone Kaffeesatz;-inkscape-font-specification:Yanone Kaffeesatz"
       x="113.03547"
       y="1123.8774"
       id="text4044"
       sodipodi:linespacing="125%"
       transform="scale(1.0796414,0.92623346)"><tspan
         sodipodi:role="line"
         id="tspan4046"
         x="113.03547"
         y="1123.8774"
         style="font-size:6.46588898px;font-style:normal;font-variant:normal;font-weight:normal;font-stretch:normal;text-align:start;line-height:125%;writing-mode:lr-tb;text-anchor:start;fill:#ffffff;stroke-width:0.46184924;font-family:Yanone Kaffeesatz;-inkscape-font-specification:Yanone Kaffeesatz">vegeu per què és important a documentfreedom.org/ca</tspan></text>
  </g>
</svg>
