<?xml version="1.0" encoding="UTF-8" standalone="no"?>
<!-- Created with Inkscape (http://www.inkscape.org/) -->

<svg
   xmlns:dc="http://purl.org/dc/elements/1.1/"
   xmlns:cc="http://creativecommons.org/ns#"
   xmlns:rdf="http://www.w3.org/1999/02/22-rdf-syntax-ns#"
   xmlns:svg="http://www.w3.org/2000/svg"
   xmlns="http://www.w3.org/2000/svg"
   xmlns:xlink="http://www.w3.org/1999/xlink"
   xmlns:sodipodi="http://sodipodi.sourceforge.net/DTD/sodipodi-0.dtd"
   xmlns:inkscape="http://www.inkscape.org/namespaces/inkscape"
   width="160"
   height="600"
   id="svg5942"
   version="1.1"
   inkscape:version="0.48.3.1 r9886"
   sodipodi:docname="dfd-a7-en.svg"
   inkscape:export-filename="/home/deneb/eventi/dfd2011/svg-2011/banner-160x300-dfd2011.png"
   inkscape:export-xdpi="90"
   inkscape:export-ydpi="90">
  <defs
     id="defs5944">
    <linearGradient
       id="linearGradient6529">
      <stop
         id="stop6531"
         offset="0"
         style="stop-color:#b6e235;stop-opacity:1;" />
      <stop
         id="stop6533"
         offset="1"
         style="stop-color:#36890a;stop-opacity:1" />
    </linearGradient>
    <inkscape:perspective
       sodipodi:type="inkscape:persp3d"
       inkscape:vp_x="0 : 526.18109 : 1"
       inkscape:vp_y="0 : 1000 : 0"
       inkscape:vp_z="744.09448 : 526.18109 : 1"
       inkscape:persp3d-origin="372.04724 : 350.78739 : 1"
       id="perspective5950" />
    <inkscape:perspective
       id="perspective5960"
       inkscape:persp3d-origin="0.5 : 0.33333333 : 1"
       inkscape:vp_z="1 : 0.5 : 1"
       inkscape:vp_y="0 : 1000 : 0"
       inkscape:vp_x="0 : 0.5 : 1"
       sodipodi:type="inkscape:persp3d" />
    <linearGradient
       inkscape:collect="always"
       xlink:href="#linearGradient6529"
       id="linearGradient3777"
       gradientUnits="userSpaceOnUse"
       gradientTransform="matrix(0.96795146,0,0,0.96795143,234.44878,343.01893)"
       x1="357.92072"
       y1="589.32819"
       x2="354.89005"
       y2="988.33618" />
    <linearGradient
       id="linearGradient3696">
      <stop
         style="stop-color:#b6e235;stop-opacity:1;"
         offset="0"
         id="stop3698" />
      <stop
         style="stop-color:#36890a;stop-opacity:1;"
         offset="1"
         id="stop3700" />
    </linearGradient>
    <linearGradient
       inkscape:collect="always"
       xlink:href="#linearGradient3696"
       id="linearGradient5968"
       gradientUnits="userSpaceOnUse"
       gradientTransform="translate(6.4720239,-19.284364)"
       x1="357.92072"
       y1="589.32819"
       x2="357.92072"
       y2="657.38831" />
    <linearGradient
       id="linearGradient5970">
      <stop
         style="stop-color:#b6e235;stop-opacity:1;"
         offset="0"
         id="stop5972" />
      <stop
         style="stop-color:#36890a;stop-opacity:1;"
         offset="1"
         id="stop5974" />
    </linearGradient>
    <linearGradient
       inkscape:collect="always"
       xlink:href="#linearGradient3696-8"
       id="linearGradient3773"
       gradientUnits="userSpaceOnUse"
       gradientTransform="matrix(0.64186016,0,0,0.64186015,259.81394,258.39622)"
       x1="279.49557"
       y1="722.70312"
       x2="279.49557"
       y2="586.22162" />
    <linearGradient
       id="linearGradient3696-8">
      <stop
         style="stop-color:#000000;stop-opacity:1;"
         offset="0"
         id="stop3698-2" />
      <stop
         style="stop-color:#36890a;stop-opacity:1;"
         offset="1"
         id="stop3700-0" />
    </linearGradient>
    <linearGradient
       inkscape:collect="always"
       xlink:href="#linearGradient3696-8"
       id="linearGradient5980"
       gradientUnits="userSpaceOnUse"
       gradientTransform="matrix(0.64186016,0,0,0.64186015,259.81394,258.39622)"
       x1="279.49557"
       y1="722.70312"
       x2="279.49557"
       y2="586.22162" />
    <linearGradient
       id="linearGradient5982">
      <stop
         style="stop-color:#000000;stop-opacity:1;"
         offset="0"
         id="stop5984" />
      <stop
         style="stop-color:#36890a;stop-opacity:1;"
         offset="1"
         id="stop5986" />
    </linearGradient>
    <linearGradient
       y2="586.22162"
       x2="279.49557"
       y1="722.70312"
       x1="279.49557"
       gradientTransform="matrix(1.625485,0,0,1.6254849,18.939755,722.11733)"
       gradientUnits="userSpaceOnUse"
       id="linearGradient5993"
       xlink:href="#linearGradient3696-8"
       inkscape:collect="always" />
    <inkscape:perspective
       id="perspective6094"
       inkscape:persp3d-origin="0.5 : 0.33333333 : 1"
       inkscape:vp_z="1 : 0.5 : 1"
       inkscape:vp_y="0 : 1000 : 0"
       inkscape:vp_x="0 : 0.5 : 1"
       sodipodi:type="inkscape:persp3d" />
    <linearGradient
       id="linearGradient4364">
      <stop
         style="stop-color:#ffffff;stop-opacity:1;"
         offset="0"
         id="stop4366" />
      <stop
         style="stop-color:#42b30b;stop-opacity:0;"
         offset="1"
         id="stop4368" />
    </linearGradient>
    <filter
       id="filter3677"
       inkscape:label="Fuzzy Glow"
       inkscape:menu="Shadows and Glows"
       inkscape:menu-tooltip="Overlays a semi-transparent shifted copy to a blurred one"
       color-interpolation-filters="sRGB">
      <feOffset
         id="feOffset3679"
         dx="4"
         dy="4"
         result="result11"
         in="SourceGraphic" />
      <feGaussianBlur
         id="feGaussianBlur3681"
         stdDeviation="4"
         result="result8" />
      <feComposite
         id="feComposite3683"
         in2="result8"
         result="result9"
         in="SourceGraphic"
         operator="in" />
      <feBlend
         id="feBlend3685"
         in2="result8"
         in="result9"
         mode="darken" />
    </filter>
    <linearGradient
       id="linearGradient4352">
      <stop
         style="stop-color:#ffff4f;stop-opacity:0.82745099;"
         offset="0"
         id="stop4354" />
      <stop
         style="stop-color:#42b30b;stop-opacity:0;"
         offset="1"
         id="stop4356" />
    </linearGradient>
    <inkscape:perspective
       id="perspective6257"
       inkscape:persp3d-origin="0.5 : 0.33333333 : 1"
       inkscape:vp_z="1 : 0.5 : 1"
       inkscape:vp_y="0 : 1000 : 0"
       inkscape:vp_x="0 : 0.5 : 1"
       sodipodi:type="inkscape:persp3d" />
    <linearGradient
       id="linearGradient4352-6">
      <stop
         style="stop-color:#ffff4f;stop-opacity:0.82745099;"
         offset="0"
         id="stop4354-6" />
      <stop
         style="stop-color:#42b30b;stop-opacity:0;"
         offset="1"
         id="stop4356-7" />
    </linearGradient>
    <filter
       id="filter3677-2"
       inkscape:label="Fuzzy Glow"
       inkscape:menu="Shadows and Glows"
       inkscape:menu-tooltip="Overlays a semi-transparent shifted copy to a blurred one"
       color-interpolation-filters="sRGB">
      <feOffset
         id="feOffset3679-7"
         dx="4"
         dy="4"
         result="result11"
         in="SourceGraphic" />
      <feGaussianBlur
         id="feGaussianBlur3681-4"
         stdDeviation="4"
         result="result8" />
      <feComposite
         id="feComposite3683-1"
         in2="result8"
         result="result9"
         in="SourceGraphic"
         operator="in" />
      <feBlend
         id="feBlend3685-0"
         in2="result8"
         in="result9"
         mode="darken" />
    </filter>
    <linearGradient
       id="linearGradient4364-6">
      <stop
         style="stop-color:#ffffff;stop-opacity:1;"
         offset="0"
         id="stop4366-4" />
      <stop
         style="stop-color:#42b30b;stop-opacity:0;"
         offset="1"
         id="stop4368-4" />
    </linearGradient>
    <inkscape:perspective
       id="perspective6421"
       inkscape:persp3d-origin="0.5 : 0.33333333 : 1"
       inkscape:vp_z="1 : 0.5 : 1"
       inkscape:vp_y="0 : 1000 : 0"
       inkscape:vp_x="0 : 0.5 : 1"
       sodipodi:type="inkscape:persp3d" />
    <inkscape:perspective
       id="perspective6455"
       inkscape:persp3d-origin="0.5 : 0.33333333 : 1"
       inkscape:vp_z="1 : 0.5 : 1"
       inkscape:vp_y="0 : 1000 : 0"
       inkscape:vp_x="0 : 0.5 : 1"
       sodipodi:type="inkscape:persp3d" />
    <radialGradient
       inkscape:collect="always"
       xlink:href="#linearGradient4352-6-0"
       id="radialGradient6355-1"
       gradientUnits="userSpaceOnUse"
       gradientTransform="matrix(0.21881884,-0.29786409,0.27140068,0.31445673,-98.345913,895.67225)"
       cx="313.43893"
       cy="663.65607"
       fx="313.43893"
       fy="663.65607"
       r="132.9715" />
    <linearGradient
       id="linearGradient4352-6-0">
      <stop
         style="stop-color:#6cc41a;stop-opacity:1;"
         offset="0"
         id="stop4354-6-5" />
      <stop
         style="stop-color:#c6e83a;stop-opacity:1;"
         offset="1"
         id="stop4356-7-3" />
    </linearGradient>
    <linearGradient
       inkscape:collect="always"
       xlink:href="#linearGradient6529"
       id="linearGradient2912"
       gradientUnits="userSpaceOnUse"
       gradientTransform="matrix(0.29221816,0,0,0.29221815,59.586978,686.05405)"
       x1="357.92072"
       y1="589.32819"
       x2="354.89005"
       y2="988.33618" />
    <radialGradient
       inkscape:collect="always"
       xlink:href="#linearGradient4352"
       id="radialGradient3686"
       gradientUnits="userSpaceOnUse"
       gradientTransform="matrix(0.73237103,-0.99692987,0.9083587,1.0524642,-752.39138,615.20924)"
       cx="313.43893"
       cy="663.65607"
       fx="313.43893"
       fy="663.65607"
       r="132.9715" />
    <inkscape:perspective
       id="perspective3698"
       inkscape:persp3d-origin="0.5 : 0.33333333 : 1"
       inkscape:vp_z="1 : 0.5 : 1"
       inkscape:vp_y="0 : 1000 : 0"
       inkscape:vp_x="0 : 0.5 : 1"
       sodipodi:type="inkscape:persp3d" />
    <inkscape:perspective
       id="perspective3722"
       inkscape:persp3d-origin="0.5 : 0.33333333 : 1"
       inkscape:vp_z="1 : 0.5 : 1"
       inkscape:vp_y="0 : 1000 : 0"
       inkscape:vp_x="0 : 0.5 : 1"
       sodipodi:type="inkscape:persp3d" />
    <inkscape:perspective
       id="perspective3753"
       inkscape:persp3d-origin="0.5 : 0.33333333 : 1"
       inkscape:vp_z="1 : 0.5 : 1"
       inkscape:vp_y="0 : 1000 : 0"
       inkscape:vp_x="0 : 0.5 : 1"
       sodipodi:type="inkscape:persp3d" />
    <inkscape:perspective
       id="perspective3804"
       inkscape:persp3d-origin="0.5 : 0.33333333 : 1"
       inkscape:vp_z="1 : 0.5 : 1"
       inkscape:vp_y="0 : 1000 : 0"
       inkscape:vp_x="0 : 0.5 : 1"
       sodipodi:type="inkscape:persp3d" />
    <inkscape:perspective
       id="perspective2907"
       inkscape:persp3d-origin="0.5 : 0.33333333 : 1"
       inkscape:vp_z="1 : 0.5 : 1"
       inkscape:vp_y="0 : 1000 : 0"
       inkscape:vp_x="0 : 0.5 : 1"
       sodipodi:type="inkscape:persp3d" />
    <inkscape:perspective
       id="perspective2904"
       inkscape:persp3d-origin="0.5 : 0.33333333 : 1"
       inkscape:vp_z="1 : 0.5 : 1"
       inkscape:vp_y="0 : 1000 : 0"
       inkscape:vp_x="0 : 0.5 : 1"
       sodipodi:type="inkscape:persp3d" />
    <inkscape:perspective
       id="perspective2929"
       inkscape:persp3d-origin="0.5 : 0.33333333 : 1"
       inkscape:vp_z="1 : 0.5 : 1"
       inkscape:vp_y="0 : 1000 : 0"
       inkscape:vp_x="0 : 0.5 : 1"
       sodipodi:type="inkscape:persp3d" />
    <inkscape:perspective
       id="perspective3113"
       inkscape:persp3d-origin="0.5 : 0.33333333 : 1"
       inkscape:vp_z="1 : 0.5 : 1"
       inkscape:vp_y="0 : 1000 : 0"
       inkscape:vp_x="0 : 0.5 : 1"
       sodipodi:type="inkscape:persp3d" />
    <inkscape:perspective
       id="perspective3929"
       inkscape:persp3d-origin="0.5 : 0.33333333 : 1"
       inkscape:vp_z="1 : 0.5 : 1"
       inkscape:vp_y="0 : 1000 : 0"
       inkscape:vp_x="0 : 0.5 : 1"
       sodipodi:type="inkscape:persp3d" />
    <inkscape:perspective
       id="perspective3979"
       inkscape:persp3d-origin="0.5 : 0.33333333 : 1"
       inkscape:vp_z="1 : 0.5 : 1"
       inkscape:vp_y="0 : 1000 : 0"
       inkscape:vp_x="0 : 0.5 : 1"
       sodipodi:type="inkscape:persp3d" />
    <inkscape:perspective
       id="perspective2903"
       inkscape:persp3d-origin="0.5 : 0.33333333 : 1"
       inkscape:vp_z="1 : 0.5 : 1"
       inkscape:vp_y="0 : 1000 : 0"
       inkscape:vp_x="0 : 0.5 : 1"
       sodipodi:type="inkscape:persp3d" />
    <inkscape:perspective
       sodipodi:type="inkscape:persp3d"
       inkscape:vp_x="0 : 0.5 : 1"
       inkscape:vp_y="0 : 1000 : 0"
       inkscape:vp_z="1 : 0.5 : 1"
       inkscape:persp3d-origin="0.5 : 0.33333333 : 1"
       id="perspective4558" />
    <inkscape:perspective
       sodipodi:type="inkscape:persp3d"
       inkscape:vp_x="0 : 0.5 : 1"
       inkscape:vp_y="0 : 1000 : 0"
       inkscape:vp_z="1 : 0.5 : 1"
       inkscape:persp3d-origin="0.5 : 0.33333333 : 1"
       id="perspective4536" />
    <inkscape:perspective
       sodipodi:type="inkscape:persp3d"
       inkscape:vp_x="0 : 0.5 : 1"
       inkscape:vp_y="0 : 1000 : 0"
       inkscape:vp_z="1 : 0.5 : 1"
       inkscape:persp3d-origin="0.5 : 0.33333333 : 1"
       id="perspective4490-4" />
    <inkscape:perspective
       sodipodi:type="inkscape:persp3d"
       inkscape:vp_x="0 : 0.5 : 1"
       inkscape:vp_y="0 : 1000 : 0"
       inkscape:vp_z="1 : 0.5 : 1"
       inkscape:persp3d-origin="0.5 : 0.33333333 : 1"
       id="perspective4490" />
    <inkscape:perspective
       sodipodi:type="inkscape:persp3d"
       inkscape:vp_x="0 : 0.5 : 1"
       inkscape:vp_y="0 : 1000 : 0"
       inkscape:vp_z="1 : 0.5 : 1"
       inkscape:persp3d-origin="0.5 : 0.33333333 : 1"
       id="perspective3748" />
    <inkscape:perspective
       sodipodi:type="inkscape:persp3d"
       inkscape:vp_x="0 : 0.5 : 1"
       inkscape:vp_y="0 : 1000 : 0"
       inkscape:vp_z="1 : 0.5 : 1"
       inkscape:persp3d-origin="0.5 : 0.33333333 : 1"
       id="perspective2924" />
    <inkscape:perspective
       sodipodi:type="inkscape:persp3d"
       inkscape:vp_x="0 : 0.5 : 1"
       inkscape:vp_y="0 : 1000 : 0"
       inkscape:vp_z="1 : 0.5 : 1"
       inkscape:persp3d-origin="0.5 : 0.33333333 : 1"
       id="perspective2929-7" />
    <inkscape:perspective
       sodipodi:type="inkscape:persp3d"
       inkscape:vp_x="0 : 0.5 : 1"
       inkscape:vp_y="0 : 1000 : 0"
       inkscape:vp_z="1 : 0.5 : 1"
       inkscape:persp3d-origin="0.5 : 0.33333333 : 1"
       id="perspective2904-7" />
    <inkscape:perspective
       sodipodi:type="inkscape:persp3d"
       inkscape:vp_x="0 : 0.5 : 1"
       inkscape:vp_y="0 : 1000 : 0"
       inkscape:vp_z="1 : 0.5 : 1"
       inkscape:persp3d-origin="0.5 : 0.33333333 : 1"
       id="perspective2907-8" />
    <inkscape:perspective
       sodipodi:type="inkscape:persp3d"
       inkscape:vp_x="0 : 0.5 : 1"
       inkscape:vp_y="0 : 1000 : 0"
       inkscape:vp_z="1 : 0.5 : 1"
       inkscape:persp3d-origin="0.5 : 0.33333333 : 1"
       id="perspective3804-2" />
    <inkscape:perspective
       sodipodi:type="inkscape:persp3d"
       inkscape:vp_x="0 : 0.5 : 1"
       inkscape:vp_y="0 : 1000 : 0"
       inkscape:vp_z="1 : 0.5 : 1"
       inkscape:persp3d-origin="0.5 : 0.33333333 : 1"
       id="perspective3753-7" />
    <inkscape:perspective
       sodipodi:type="inkscape:persp3d"
       inkscape:vp_x="0 : 0.5 : 1"
       inkscape:vp_y="0 : 1000 : 0"
       inkscape:vp_z="1 : 0.5 : 1"
       inkscape:persp3d-origin="0.5 : 0.33333333 : 1"
       id="perspective3722-0" />
    <inkscape:perspective
       sodipodi:type="inkscape:persp3d"
       inkscape:vp_x="0 : 0.5 : 1"
       inkscape:vp_y="0 : 1000 : 0"
       inkscape:vp_z="1 : 0.5 : 1"
       inkscape:persp3d-origin="0.5 : 0.33333333 : 1"
       id="perspective3698-5" />
    <radialGradient
       r="132.9715"
       fy="663.65607"
       fx="313.43893"
       cy="663.65607"
       cx="313.43893"
       gradientTransform="matrix(0.73237103,-0.99692987,0.9083587,1.0524642,-752.39138,615.20924)"
       gradientUnits="userSpaceOnUse"
       id="radialGradient3686-3"
       xlink:href="#linearGradient4352-3"
       inkscape:collect="always" />
    <linearGradient
       y2="988.33618"
       x2="354.89005"
       y1="589.32819"
       x1="357.92072"
       gradientTransform="matrix(0.29221816,0,0,0.29221815,59.586978,686.05405)"
       gradientUnits="userSpaceOnUse"
       id="linearGradient2912-6"
       xlink:href="#linearGradient6529-9"
       inkscape:collect="always" />
    <linearGradient
       id="linearGradient4352-6-0-4">
      <stop
         id="stop4354-6-5-3"
         offset="0"
         style="stop-color:#6cc41a;stop-opacity:1;" />
      <stop
         id="stop4356-7-3-1"
         offset="1"
         style="stop-color:#c6e83a;stop-opacity:1;" />
    </linearGradient>
    <radialGradient
       r="132.9715"
       fy="663.65607"
       fx="313.43893"
       cy="663.65607"
       cx="313.43893"
       gradientTransform="matrix(0.21881884,-0.29786409,0.27140068,0.31445673,-98.345913,895.67225)"
       gradientUnits="userSpaceOnUse"
       id="radialGradient6355-1-0"
       xlink:href="#linearGradient4352-6-0-4"
       inkscape:collect="always" />
    <inkscape:perspective
       sodipodi:type="inkscape:persp3d"
       inkscape:vp_x="0 : 0.5 : 1"
       inkscape:vp_y="0 : 1000 : 0"
       inkscape:vp_z="1 : 0.5 : 1"
       inkscape:persp3d-origin="0.5 : 0.33333333 : 1"
       id="perspective6455-9" />
    <inkscape:perspective
       sodipodi:type="inkscape:persp3d"
       inkscape:vp_x="0 : 0.5 : 1"
       inkscape:vp_y="0 : 1000 : 0"
       inkscape:vp_z="1 : 0.5 : 1"
       inkscape:persp3d-origin="0.5 : 0.33333333 : 1"
       id="perspective6421-2" />
    <linearGradient
       id="linearGradient4364-6-7">
      <stop
         id="stop4366-4-9"
         offset="0"
         style="stop-color:#ffffff;stop-opacity:1;" />
      <stop
         id="stop4368-4-0"
         offset="1"
         style="stop-color:#42b30b;stop-opacity:0;" />
    </linearGradient>
    <filter
       color-interpolation-filters="sRGB"
       inkscape:menu-tooltip="Overlays a semi-transparent shifted copy to a blurred one"
       inkscape:menu="Shadows and Glows"
       inkscape:label="Fuzzy Glow"
       id="filter3677-2-3">
      <feOffset
         in="SourceGraphic"
         result="result11"
         dy="4"
         dx="4"
         id="feOffset3679-7-1" />
      <feGaussianBlur
         result="result8"
         stdDeviation="4"
         id="feGaussianBlur3681-4-5" />
      <feComposite
         operator="in"
         in="SourceGraphic"
         result="result9"
         in2="result8"
         id="feComposite3683-1-0" />
      <feBlend
         mode="darken"
         in="result9"
         in2="result8"
         id="feBlend3685-0-2" />
    </filter>
    <linearGradient
       id="linearGradient4352-6-9">
      <stop
         id="stop4354-6-8"
         offset="0"
         style="stop-color:#ffff4f;stop-opacity:0.82745099;" />
      <stop
         id="stop4356-7-39"
         offset="1"
         style="stop-color:#42b30b;stop-opacity:0;" />
    </linearGradient>
    <inkscape:perspective
       sodipodi:type="inkscape:persp3d"
       inkscape:vp_x="0 : 0.5 : 1"
       inkscape:vp_y="0 : 1000 : 0"
       inkscape:vp_z="1 : 0.5 : 1"
       inkscape:persp3d-origin="0.5 : 0.33333333 : 1"
       id="perspective6257-9" />
    <linearGradient
       id="linearGradient4352-3">
      <stop
         id="stop4354-9"
         offset="0"
         style="stop-color:#ffff4f;stop-opacity:0.82745099;" />
      <stop
         id="stop4356-8"
         offset="1"
         style="stop-color:#42b30b;stop-opacity:0;" />
    </linearGradient>
    <filter
       color-interpolation-filters="sRGB"
       inkscape:menu-tooltip="Overlays a semi-transparent shifted copy to a blurred one"
       inkscape:menu="Shadows and Glows"
       inkscape:label="Fuzzy Glow"
       id="filter3677-7">
      <feOffset
         in="SourceGraphic"
         result="result11"
         dy="4"
         dx="4"
         id="feOffset3679-0" />
      <feGaussianBlur
         result="result8"
         stdDeviation="4"
         id="feGaussianBlur3681-2" />
      <feComposite
         operator="in"
         in="SourceGraphic"
         result="result9"
         in2="result8"
         id="feComposite3683-6" />
      <feBlend
         mode="darken"
         in="result9"
         in2="result8"
         id="feBlend3685-9" />
    </filter>
    <linearGradient
       id="linearGradient4364-0">
      <stop
         id="stop4366-8"
         offset="0"
         style="stop-color:#ffffff;stop-opacity:1;" />
      <stop
         id="stop4368-43"
         offset="1"
         style="stop-color:#42b30b;stop-opacity:0;" />
    </linearGradient>
    <inkscape:perspective
       sodipodi:type="inkscape:persp3d"
       inkscape:vp_x="0 : 0.5 : 1"
       inkscape:vp_y="0 : 1000 : 0"
       inkscape:vp_z="1 : 0.5 : 1"
       inkscape:persp3d-origin="0.5 : 0.33333333 : 1"
       id="perspective6094-8" />
    <linearGradient
       inkscape:collect="always"
       xlink:href="#linearGradient3696-8-2"
       id="linearGradient5993-2"
       gradientUnits="userSpaceOnUse"
       gradientTransform="matrix(1.625485,0,0,1.6254849,18.939755,722.11733)"
       x1="279.49557"
       y1="722.70312"
       x2="279.49557"
       y2="586.22162" />
    <linearGradient
       id="linearGradient5982-9">
      <stop
         id="stop5984-0"
         offset="0"
         style="stop-color:#000000;stop-opacity:1;" />
      <stop
         id="stop5986-2"
         offset="1"
         style="stop-color:#36890a;stop-opacity:1;" />
    </linearGradient>
    <linearGradient
       y2="586.22162"
       x2="279.49557"
       y1="722.70312"
       x1="279.49557"
       gradientTransform="matrix(0.64186016,0,0,0.64186015,259.81394,258.39622)"
       gradientUnits="userSpaceOnUse"
       id="linearGradient5980-3"
       xlink:href="#linearGradient3696-8-2"
       inkscape:collect="always" />
    <linearGradient
       id="linearGradient3696-8-2">
      <stop
         id="stop3698-2-7"
         offset="0"
         style="stop-color:#000000;stop-opacity:1;" />
      <stop
         id="stop3700-0-6"
         offset="1"
         style="stop-color:#36890a;stop-opacity:1;" />
    </linearGradient>
    <linearGradient
       y2="586.22162"
       x2="279.49557"
       y1="722.70312"
       x1="279.49557"
       gradientTransform="matrix(0.64186016,0,0,0.64186015,259.81394,258.39622)"
       gradientUnits="userSpaceOnUse"
       id="linearGradient3773-0"
       xlink:href="#linearGradient3696-8-2"
       inkscape:collect="always" />
    <linearGradient
       id="linearGradient5970-6">
      <stop
         id="stop5972-5"
         offset="0"
         style="stop-color:#b6e235;stop-opacity:1;" />
      <stop
         id="stop5974-7"
         offset="1"
         style="stop-color:#36890a;stop-opacity:1;" />
    </linearGradient>
    <linearGradient
       y2="657.38831"
       x2="357.92072"
       y1="589.32819"
       x1="357.92072"
       gradientTransform="translate(6.4720239,-19.284364)"
       gradientUnits="userSpaceOnUse"
       id="linearGradient5968-5"
       xlink:href="#linearGradient3696-80"
       inkscape:collect="always" />
    <linearGradient
       id="linearGradient3696-80">
      <stop
         id="stop3698-1"
         offset="0"
         style="stop-color:#b6e235;stop-opacity:1;" />
      <stop
         id="stop3700-8"
         offset="1"
         style="stop-color:#36890a;stop-opacity:1;" />
    </linearGradient>
    <linearGradient
       y2="988.33618"
       x2="354.89005"
       y1="589.32819"
       x1="357.92072"
       gradientTransform="matrix(0.96795146,0,0,0.96795143,234.44878,343.01893)"
       gradientUnits="userSpaceOnUse"
       id="linearGradient3777-6"
       xlink:href="#linearGradient6529-9"
       inkscape:collect="always" />
    <inkscape:perspective
       sodipodi:type="inkscape:persp3d"
       inkscape:vp_x="0 : 0.5 : 1"
       inkscape:vp_y="0 : 1000 : 0"
       inkscape:vp_z="1 : 0.5 : 1"
       inkscape:persp3d-origin="0.5 : 0.33333333 : 1"
       id="perspective5960-6" />
    <inkscape:perspective
       id="perspective5950-1"
       inkscape:persp3d-origin="372.04724 : 350.78739 : 1"
       inkscape:vp_z="744.09448 : 526.18109 : 1"
       inkscape:vp_y="0 : 1000 : 0"
       inkscape:vp_x="0 : 526.18109 : 1"
       sodipodi:type="inkscape:persp3d" />
    <linearGradient
       id="linearGradient6529-9">
      <stop
         style="stop-color:#b6e235;stop-opacity:1;"
         offset="0"
         id="stop6531-7" />
      <stop
         style="stop-color:#36890a;stop-opacity:1"
         offset="1"
         id="stop6533-1" />
    </linearGradient>
    <linearGradient
       id="linearGradient6529-9-0">
      <stop
         style="stop-color:#b6e235;stop-opacity:1;"
         offset="0"
         id="stop6531-7-7" />
      <stop
         style="stop-color:#36890a;stop-opacity:1"
         offset="1"
         id="stop6533-1-3" />
    </linearGradient>
    <filter
       color-interpolation-filters="sRGB"
       id="filter4607-1"
       inkscape:collect="always">
      <feGaussianBlur
         id="feGaussianBlur4609-7"
         stdDeviation="4.2961991"
         inkscape:collect="always" />
    </filter>
    <filter
       color-interpolation-filters="sRGB"
       height="1.3219731"
       y="-0.16098654"
       width="1.0442249"
       x="-0.02211245"
       id="filter3754-5"
       inkscape:collect="always">
      <feGaussianBlur
         id="feGaussianBlur3756-0"
         stdDeviation="1.7429477"
         inkscape:collect="always" />
    </filter>
    <filter
       color-interpolation-filters="sRGB"
       id="filter3785-9"
       inkscape:collect="always">
      <feGaussianBlur
         id="feGaussianBlur3787-2"
         stdDeviation="2.9747937"
         inkscape:collect="always" />
    </filter>
    <linearGradient
       inkscape:collect="always"
       xlink:href="#linearGradient6529-0"
       id="linearGradient3712-3"
       x1="127.75238"
       y1="771.62238"
       x2="127.75238"
       y2="1052.4729"
       gradientUnits="userSpaceOnUse"
       gradientTransform="matrix(1.0380952,0,0,1.0405406,-1.7716676,-113.17844)" />
    <linearGradient
       id="linearGradient6529-0">
      <stop
         id="stop6531-0"
         offset="0"
         style="stop-color:#b6e235;stop-opacity:1;" />
      <stop
         id="stop6533-6"
         offset="1"
         style="stop-color:#36890a;stop-opacity:1" />
    </linearGradient>
    <linearGradient
       y2="1052.4729"
       x2="127.75238"
       y1="771.62238"
       x1="127.75238"
       gradientTransform="matrix(1.0380952,0,0,1.0405406,-1.7716676,-786.40673)"
       gradientUnits="userSpaceOnUse"
       id="linearGradient3691-3"
       xlink:href="#linearGradient6529-0-4"
       inkscape:collect="always" />
    <linearGradient
       id="linearGradient6529-0-4">
      <stop
         id="stop6531-0-6"
         offset="0"
         style="stop-color:#b6e235;stop-opacity:1;" />
      <stop
         id="stop6533-6-9"
         offset="1"
         style="stop-color:#36890a;stop-opacity:1" />
    </linearGradient>
    <linearGradient
       y2="1160.2628"
       x2="88.940544"
       y1="818.71503"
       x1="153.97659"
       gradientTransform="matrix(1.0380952,0,0,1.0405406,-3.0000001,-1006.7296)"
       gradientUnits="userSpaceOnUse"
       id="linearGradient3253"
       xlink:href="#linearGradient6529-0-4"
       inkscape:collect="always" />
    <filter
       color-interpolation-filters="sRGB"
       id="filter4607"
       inkscape:collect="always">
      <feGaussianBlur
         id="feGaussianBlur4609"
         stdDeviation="4.2961991"
         inkscape:collect="always" />
    </filter>
    <inkscape:perspective
       sodipodi:type="inkscape:persp3d"
       inkscape:vp_x="0 : 0.5 : 1"
       inkscape:vp_y="0 : 1000 : 0"
       inkscape:vp_z="1 : 0.5 : 1"
       inkscape:persp3d-origin="0.5 : 0.33333333 : 1"
       id="perspective4558-1" />
    <inkscape:perspective
       sodipodi:type="inkscape:persp3d"
       inkscape:vp_x="0 : 0.5 : 1"
       inkscape:vp_y="0 : 1000 : 0"
       inkscape:vp_z="1 : 0.5 : 1"
       inkscape:persp3d-origin="0.5 : 0.33333333 : 1"
       id="perspective4536-4" />
    <inkscape:perspective
       sodipodi:type="inkscape:persp3d"
       inkscape:vp_x="0 : 0.5 : 1"
       inkscape:vp_y="0 : 1000 : 0"
       inkscape:vp_z="1 : 0.5 : 1"
       inkscape:persp3d-origin="0.5 : 0.33333333 : 1"
       id="perspective4490-4-1" />
    <inkscape:perspective
       sodipodi:type="inkscape:persp3d"
       inkscape:vp_x="0 : 0.5 : 1"
       inkscape:vp_y="0 : 1000 : 0"
       inkscape:vp_z="1 : 0.5 : 1"
       inkscape:persp3d-origin="0.5 : 0.33333333 : 1"
       id="perspective4490-5" />
    <filter
       color-interpolation-filters="sRGB"
       id="filter3785"
       inkscape:collect="always">
      <feGaussianBlur
         id="feGaussianBlur3787"
         stdDeviation="2.9747937"
         inkscape:collect="always" />
    </filter>
    <inkscape:perspective
       sodipodi:type="inkscape:persp3d"
       inkscape:vp_x="0 : 0.5 : 1"
       inkscape:vp_y="0 : 1000 : 0"
       inkscape:vp_z="1 : 0.5 : 1"
       inkscape:persp3d-origin="0.5 : 0.33333333 : 1"
       id="perspective3748-0" />
    <filter
       color-interpolation-filters="sRGB"
       height="1.3219731"
       y="-0.16098654"
       width="1.0442249"
       x="-0.02211245"
       id="filter3754"
       inkscape:collect="always">
      <feGaussianBlur
         id="feGaussianBlur3756"
         stdDeviation="1.7429477"
         inkscape:collect="always" />
    </filter>
    <inkscape:perspective
       sodipodi:type="inkscape:persp3d"
       inkscape:vp_x="0 : 0.5 : 1"
       inkscape:vp_y="0 : 1000 : 0"
       inkscape:vp_z="1 : 0.5 : 1"
       inkscape:persp3d-origin="0.5 : 0.33333333 : 1"
       id="perspective2924-9" />
    <inkscape:perspective
       sodipodi:type="inkscape:persp3d"
       inkscape:vp_x="0 : 0.5 : 1"
       inkscape:vp_y="0 : 1000 : 0"
       inkscape:vp_z="1 : 0.5 : 1"
       inkscape:persp3d-origin="0.5 : 0.33333333 : 1"
       id="perspective2929-71" />
    <inkscape:perspective
       sodipodi:type="inkscape:persp3d"
       inkscape:vp_x="0 : 0.5 : 1"
       inkscape:vp_y="0 : 1000 : 0"
       inkscape:vp_z="1 : 0.5 : 1"
       inkscape:persp3d-origin="0.5 : 0.33333333 : 1"
       id="perspective2904-0" />
    <inkscape:perspective
       sodipodi:type="inkscape:persp3d"
       inkscape:vp_x="0 : 0.5 : 1"
       inkscape:vp_y="0 : 1000 : 0"
       inkscape:vp_z="1 : 0.5 : 1"
       inkscape:persp3d-origin="0.5 : 0.33333333 : 1"
       id="perspective2907-3" />
    <inkscape:perspective
       sodipodi:type="inkscape:persp3d"
       inkscape:vp_x="0 : 0.5 : 1"
       inkscape:vp_y="0 : 1000 : 0"
       inkscape:vp_z="1 : 0.5 : 1"
       inkscape:persp3d-origin="0.5 : 0.33333333 : 1"
       id="perspective3804-3" />
    <inkscape:perspective
       sodipodi:type="inkscape:persp3d"
       inkscape:vp_x="0 : 0.5 : 1"
       inkscape:vp_y="0 : 1000 : 0"
       inkscape:vp_z="1 : 0.5 : 1"
       inkscape:persp3d-origin="0.5 : 0.33333333 : 1"
       id="perspective3753-1" />
    <inkscape:perspective
       sodipodi:type="inkscape:persp3d"
       inkscape:vp_x="0 : 0.5 : 1"
       inkscape:vp_y="0 : 1000 : 0"
       inkscape:vp_z="1 : 0.5 : 1"
       inkscape:persp3d-origin="0.5 : 0.33333333 : 1"
       id="perspective3722-3" />
    <linearGradient
       gradientTransform="matrix(1.0380952,0,0,1.0405406,-3.0000001,206.49872)"
       gradientUnits="userSpaceOnUse"
       y2="830.349"
       x2="433.42288"
       y1="765.65405"
       x1="437.16104"
       id="linearGradient3712"
       xlink:href="#linearGradient6529-2"
       inkscape:collect="always" />
    <inkscape:perspective
       sodipodi:type="inkscape:persp3d"
       inkscape:vp_x="0 : 0.5 : 1"
       inkscape:vp_y="0 : 1000 : 0"
       inkscape:vp_z="1 : 0.5 : 1"
       inkscape:persp3d-origin="0.5 : 0.33333333 : 1"
       id="perspective3698-9" />
    <radialGradient
       r="132.9715"
       fy="663.65607"
       fx="313.43893"
       cy="663.65607"
       cx="313.43893"
       gradientTransform="matrix(0.73237103,-0.99692987,0.9083587,1.0524642,-752.39138,615.20924)"
       gradientUnits="userSpaceOnUse"
       id="radialGradient3686-7"
       xlink:href="#linearGradient4352-8"
       inkscape:collect="always" />
    <linearGradient
       y2="988.33618"
       x2="354.89005"
       y1="589.32819"
       x1="357.92072"
       gradientTransform="matrix(0.29221816,0,0,0.29221815,59.586978,686.05405)"
       gradientUnits="userSpaceOnUse"
       id="linearGradient2912-5"
       xlink:href="#linearGradient6529-2"
       inkscape:collect="always" />
    <linearGradient
       id="linearGradient4352-6-0-6">
      <stop
         id="stop4354-6-5-33"
         offset="0"
         style="stop-color:#6cc41a;stop-opacity:1;" />
      <stop
         id="stop4356-7-3-8"
         offset="1"
         style="stop-color:#c6e83a;stop-opacity:1;" />
    </linearGradient>
    <radialGradient
       r="132.9715"
       fy="663.65607"
       fx="313.43893"
       cy="663.65607"
       cx="313.43893"
       gradientTransform="matrix(0.21881884,-0.29786409,0.27140068,0.31445673,-98.345913,895.67225)"
       gradientUnits="userSpaceOnUse"
       id="radialGradient6355-1-2"
       xlink:href="#linearGradient4352-6-0-6"
       inkscape:collect="always" />
    <inkscape:perspective
       sodipodi:type="inkscape:persp3d"
       inkscape:vp_x="0 : 0.5 : 1"
       inkscape:vp_y="0 : 1000 : 0"
       inkscape:vp_z="1 : 0.5 : 1"
       inkscape:persp3d-origin="0.5 : 0.33333333 : 1"
       id="perspective6455-2" />
    <inkscape:perspective
       sodipodi:type="inkscape:persp3d"
       inkscape:vp_x="0 : 0.5 : 1"
       inkscape:vp_y="0 : 1000 : 0"
       inkscape:vp_z="1 : 0.5 : 1"
       inkscape:persp3d-origin="0.5 : 0.33333333 : 1"
       id="perspective6421-9" />
    <linearGradient
       id="linearGradient4364-6-5">
      <stop
         id="stop4366-4-5"
         offset="0"
         style="stop-color:#ffffff;stop-opacity:1;" />
      <stop
         id="stop4368-4-8"
         offset="1"
         style="stop-color:#42b30b;stop-opacity:0;" />
    </linearGradient>
    <filter
       color-interpolation-filters="sRGB"
       inkscape:menu-tooltip="Overlays a semi-transparent shifted copy to a blurred one"
       inkscape:menu="Shadows and Glows"
       inkscape:label="Fuzzy Glow"
       id="filter3677-2-4">
      <feOffset
         in="SourceGraphic"
         result="result11"
         dy="4"
         dx="4"
         id="feOffset3679-7-4" />
      <feGaussianBlur
         result="result8"
         stdDeviation="4"
         id="feGaussianBlur3681-4-6" />
      <feComposite
         operator="in"
         in="SourceGraphic"
         result="result9"
         in2="result8"
         id="feComposite3683-1-4" />
      <feBlend
         mode="darken"
         in="result9"
         in2="result8"
         id="feBlend3685-0-7" />
    </filter>
    <linearGradient
       id="linearGradient4352-6-2">
      <stop
         id="stop4354-6-4"
         offset="0"
         style="stop-color:#ffff4f;stop-opacity:0.82745099;" />
      <stop
         id="stop4356-7-5"
         offset="1"
         style="stop-color:#42b30b;stop-opacity:0;" />
    </linearGradient>
    <inkscape:perspective
       sodipodi:type="inkscape:persp3d"
       inkscape:vp_x="0 : 0.5 : 1"
       inkscape:vp_y="0 : 1000 : 0"
       inkscape:vp_z="1 : 0.5 : 1"
       inkscape:persp3d-origin="0.5 : 0.33333333 : 1"
       id="perspective6257-2" />
    <linearGradient
       id="linearGradient4352-8">
      <stop
         id="stop4354-8"
         offset="0"
         style="stop-color:#ffff4f;stop-opacity:0.82745099;" />
      <stop
         id="stop4356-1"
         offset="1"
         style="stop-color:#42b30b;stop-opacity:0;" />
    </linearGradient>
    <filter
       color-interpolation-filters="sRGB"
       inkscape:menu-tooltip="Overlays a semi-transparent shifted copy to a blurred one"
       inkscape:menu="Shadows and Glows"
       inkscape:label="Fuzzy Glow"
       id="filter3677-4">
      <feOffset
         in="SourceGraphic"
         result="result11"
         dy="4"
         dx="4"
         id="feOffset3679-2" />
      <feGaussianBlur
         result="result8"
         stdDeviation="4"
         id="feGaussianBlur3681-8" />
      <feComposite
         operator="in"
         in="SourceGraphic"
         result="result9"
         in2="result8"
         id="feComposite3683-7" />
      <feBlend
         mode="darken"
         in="result9"
         in2="result8"
         id="feBlend3685-3" />
    </filter>
    <linearGradient
       id="linearGradient4364-02">
      <stop
         id="stop4366-9"
         offset="0"
         style="stop-color:#ffffff;stop-opacity:1;" />
      <stop
         id="stop4368-8"
         offset="1"
         style="stop-color:#42b30b;stop-opacity:0;" />
    </linearGradient>
    <inkscape:perspective
       sodipodi:type="inkscape:persp3d"
       inkscape:vp_x="0 : 0.5 : 1"
       inkscape:vp_y="0 : 1000 : 0"
       inkscape:vp_z="1 : 0.5 : 1"
       inkscape:persp3d-origin="0.5 : 0.33333333 : 1"
       id="perspective6094-81" />
    <linearGradient
       inkscape:collect="always"
       xlink:href="#linearGradient3696-8-9"
       id="linearGradient5993-0"
       gradientUnits="userSpaceOnUse"
       gradientTransform="matrix(1.625485,0,0,1.6254849,18.939755,722.11733)"
       x1="279.49557"
       y1="722.70312"
       x2="279.49557"
       y2="586.22162" />
    <linearGradient
       id="linearGradient5982-7">
      <stop
         id="stop5984-4"
         offset="0"
         style="stop-color:#000000;stop-opacity:1;" />
      <stop
         id="stop5986-5"
         offset="1"
         style="stop-color:#36890a;stop-opacity:1;" />
    </linearGradient>
    <linearGradient
       y2="586.22162"
       x2="279.49557"
       y1="722.70312"
       x1="279.49557"
       gradientTransform="matrix(0.64186016,0,0,0.64186015,259.81394,258.39622)"
       gradientUnits="userSpaceOnUse"
       id="linearGradient5980-4"
       xlink:href="#linearGradient3696-8-9"
       inkscape:collect="always" />
    <linearGradient
       id="linearGradient3696-8-9">
      <stop
         id="stop3698-2-9"
         offset="0"
         style="stop-color:#000000;stop-opacity:1;" />
      <stop
         id="stop3700-0-9"
         offset="1"
         style="stop-color:#36890a;stop-opacity:1;" />
    </linearGradient>
    <linearGradient
       y2="586.22162"
       x2="279.49557"
       y1="722.70312"
       x1="279.49557"
       gradientTransform="matrix(0.64186016,0,0,0.64186015,259.81394,258.39622)"
       gradientUnits="userSpaceOnUse"
       id="linearGradient3773-1"
       xlink:href="#linearGradient3696-8-9"
       inkscape:collect="always" />
    <linearGradient
       id="linearGradient5970-0">
      <stop
         id="stop5972-8"
         offset="0"
         style="stop-color:#b6e235;stop-opacity:1;" />
      <stop
         id="stop5974-0"
         offset="1"
         style="stop-color:#36890a;stop-opacity:1;" />
    </linearGradient>
    <linearGradient
       y2="657.38831"
       x2="357.92072"
       y1="589.32819"
       x1="357.92072"
       gradientTransform="translate(6.4720239,-19.284364)"
       gradientUnits="userSpaceOnUse"
       id="linearGradient5968-2"
       xlink:href="#linearGradient3696-1"
       inkscape:collect="always" />
    <linearGradient
       id="linearGradient3696-1">
      <stop
         id="stop3698-0"
         offset="0"
         style="stop-color:#b6e235;stop-opacity:1;" />
      <stop
         id="stop3700-3"
         offset="1"
         style="stop-color:#36890a;stop-opacity:1;" />
    </linearGradient>
    <linearGradient
       y2="988.33618"
       x2="354.89005"
       y1="589.32819"
       x1="357.92072"
       gradientTransform="matrix(0.96795146,0,0,0.96795143,234.44878,343.01893)"
       gradientUnits="userSpaceOnUse"
       id="linearGradient3777-4"
       xlink:href="#linearGradient6529-2"
       inkscape:collect="always" />
    <inkscape:perspective
       sodipodi:type="inkscape:persp3d"
       inkscape:vp_x="0 : 0.5 : 1"
       inkscape:vp_y="0 : 1000 : 0"
       inkscape:vp_z="1 : 0.5 : 1"
       inkscape:persp3d-origin="0.5 : 0.33333333 : 1"
       id="perspective5960-8" />
    <inkscape:perspective
       id="perspective5950-9"
       inkscape:persp3d-origin="372.04724 : 350.78739 : 1"
       inkscape:vp_z="744.09448 : 526.18109 : 1"
       inkscape:vp_y="0 : 1000 : 0"
       inkscape:vp_x="0 : 526.18109 : 1"
       sodipodi:type="inkscape:persp3d" />
    <linearGradient
       id="linearGradient6529-2">
      <stop
         style="stop-color:#b6e235;stop-opacity:1;"
         offset="0"
         id="stop6531-9" />
      <stop
         style="stop-color:#36890a;stop-opacity:1"
         offset="1"
         id="stop6533-7" />
    </linearGradient>
    <linearGradient
       inkscape:collect="always"
       xlink:href="#linearGradient6529-2"
       id="linearGradient4599"
       gradientUnits="userSpaceOnUse"
       gradientTransform="matrix(1.0380952,0,0,1.0405406,-447.19964,-836.46878)"
       x1="437.16104"
       y1="765.65405"
       x2="433.42288"
       y2="830.349" />
  </defs>
  <sodipodi:namedview
     id="base"
     pagecolor="#ffffff"
     bordercolor="#666666"
     borderopacity="1.0"
     inkscape:pageopacity="0.0"
     inkscape:pageshadow="2"
     inkscape:zoom="0.91833333"
     inkscape:cx="80"
     inkscape:cy="300"
     inkscape:document-units="mm"
     inkscape:current-layer="layer2"
     showgrid="false"
     inkscape:window-width="1280"
     inkscape:window-height="772"
     inkscape:window-x="0"
     inkscape:window-y="0"
     inkscape:window-maximized="1"
     units="px"
     inkscape:snap-global="false" />
  <metadata
     id="metadata5947">
    <rdf:RDF>
      <cc:Work
         rdf:about="">
        <dc:format>image/svg+xml</dc:format>
        <dc:type
           rdf:resource="http://purl.org/dc/dcmitype/StillImage" />
        <dc:title></dc:title>
      </cc:Work>
    </rdf:RDF>
  </metadata>
  <g
     inkscape:groupmode="layer"
     id="layer2"
     inkscape:label="front"
     style="display:inline"
     transform="translate(0,220.86615)">
    <rect
       style="fill:url(#linearGradient3253);fill-opacity:1;stroke:none;opacity:1"
       id="rect4302-5-3-2"
       width="166"
       height="606"
       x="-3"
       y="-223.86615" />
    <g
       id="g4572"
       transform="matrix(0.56153814,0,0,0.56153814,4.1772767,-387.12143)"
       style="opacity:0.5;filter:url(#filter4607-1)">
      <path
         transform="matrix(0.90730153,0,0,0.90730153,60.700586,667.30776)"
         d="m 238,303.63385 c 0,86.43256 -70.06744,156.5 -156.5,156.5 -86.4325633,0 -156.5,-70.06744 -156.5,-156.5 0,-86.43256 70.0674367,-156.5 156.5,-156.5 86.43256,0 156.5,70.06744 156.5,156.5 z"
         sodipodi:ry="156.5"
         sodipodi:rx="156.5"
         sodipodi:cy="303.63385"
         sodipodi:cx="81.5"
         id="path4480"
         style="color:#000000;fill:none;stroke:#36890a;stroke-width:11.71597385;stroke-linecap:round;stroke-linejoin:round;stroke-miterlimit:4;stroke-opacity:1;stroke-dasharray:none;stroke-dashoffset:0;marker:none;visibility:visible;display:inline;overflow:visible;enable-background:accumulate"
         sodipodi:type="arc" />
      <path
         transform="matrix(0.60614316,0,0,0.91285243,85.244993,667.62232)"
         d="m 238,303.63385 c 0,86.43256 -70.06744,156.5 -156.5,156.5 -86.4325633,0 -156.5,-70.06744 -156.5,-156.5 0,-86.43256 70.0674367,-156.5 156.5,-156.5 86.43256,0 156.5,70.06744 156.5,156.5 z"
         sodipodi:ry="156.5"
         sodipodi:rx="156.5"
         sodipodi:cy="303.63385"
         sodipodi:cx="81.5"
         id="path4480-6"
         style="color:#000000;fill:none;stroke:#36890a;stroke-width:14.29032707;stroke-linecap:round;stroke-linejoin:round;stroke-miterlimit:4;stroke-opacity:1;stroke-dasharray:none;stroke-dashoffset:0;marker:none;visibility:visible;display:inline;overflow:visible;enable-background:accumulate"
         sodipodi:type="arc" />
      <path
         transform="matrix(0.21993874,0,0,0.92281522,116.72065,664.59728)"
         d="m 238,303.63385 c 0,86.43256 -70.06744,156.5 -156.5,156.5 -86.4325633,0 -156.5,-70.06744 -156.5,-156.5 0,-86.43256 70.0674367,-156.5 156.5,-156.5 86.43256,0 156.5,70.06744 156.5,156.5 z"
         sodipodi:ry="156.5"
         sodipodi:rx="156.5"
         sodipodi:cy="303.63385"
         sodipodi:cx="81.5"
         id="path4480-3"
         style="color:#000000;fill:none;stroke:#36890a;stroke-width:23.5950985;stroke-linecap:round;stroke-linejoin:round;stroke-miterlimit:4;stroke-opacity:1;stroke-dasharray:none;stroke-dashoffset:0;marker:none;visibility:visible;display:inline;overflow:visible;enable-background:accumulate"
         sodipodi:type="arc" />
      <path
         inkscape:connector-curvature="0"
         sodipodi:nodetypes="cc"
         id="path4513"
         d="m -6,942.79522 281,0"
         style="fill:#36890a;fill-opacity:1;stroke:#36890a;stroke-width:10.62992096;stroke-linecap:butt;stroke-linejoin:miter;stroke-miterlimit:4;stroke-opacity:1;stroke-dasharray:none" />
      <path
         inkscape:connector-curvature="0"
         sodipodi:nodetypes="cc"
         id="path4513-9"
         d="m 7.4897,888.79522 254.0206,0"
         style="fill:#36890a;fill-opacity:1;stroke:#36890a;stroke-width:10.10674572;stroke-linecap:butt;stroke-linejoin:miter;stroke-miterlimit:4;stroke-opacity:1;stroke-dasharray:none" />
      <path
         inkscape:connector-curvature="0"
         sodipodi:nodetypes="cc"
         id="path4513-9-3"
         d="m 45.068149,836.79522 178.863701,0"
         style="fill:#36890a;fill-opacity:1;stroke:#36890a;stroke-width:8.48082256;stroke-linecap:butt;stroke-linejoin:miter;stroke-miterlimit:4;stroke-opacity:1;stroke-dasharray:none" />
    </g>
    <text
       xml:space="preserve"
       style="font-size:20.17072487px;font-style:normal;font-variant:normal;font-weight:bold;font-stretch:normal;text-align:center;line-height:110.00000238%;writing-mode:lr-tb;text-anchor:middle;fill:#5eab17;fill-opacity:1;stroke:none;filter:url(#filter3754-5);font-family:Yanone Kaffeesatz;-inkscape-font-specification:Yanone Kaffeesatz Bold"
       x="26.528658"
       y="791.55292"
       id="text3708-1-2-3"
       sodipodi:linespacing="110%"
       transform="matrix(1.3696126,0,0,1.1236025,44.8945,-986.9536)"><tspan
         sodipodi:role="line"
         x="26.528658"
         y="791.55292"
         style="font-size:28px;font-style:normal;font-variant:normal;font-weight:bold;font-stretch:normal;text-align:center;line-height:110.00000238%;writing-mode:lr-tb;text-anchor:middle;fill:#5eab17;fill-opacity:1;stroke:none;font-family:Yanone Kaffeesatz;-inkscape-font-specification:Yanone Kaffeesatz Bold"
         id="tspan2904">Document</tspan><tspan
         sodipodi:role="line"
         x="26.528658"
         y="822.35291"
         style="font-size:28px;font-style:normal;font-variant:normal;font-weight:bold;font-stretch:normal;text-align:center;line-height:110.00000238%;writing-mode:lr-tb;text-anchor:middle;fill:#5eab17;fill-opacity:1;stroke:none;font-family:Yanone Kaffeesatz;-inkscape-font-specification:Yanone Kaffeesatz Bold"
         id="tspan3282">Freedom</tspan><tspan
         sodipodi:role="line"
         x="26.528658"
         y="853.15289"
         style="font-size:28px;font-style:normal;font-variant:normal;font-weight:bold;font-stretch:normal;text-align:center;line-height:110.00000238%;writing-mode:lr-tb;text-anchor:middle;fill:#5eab17;fill-opacity:1;stroke:none;font-family:Yanone Kaffeesatz;-inkscape-font-specification:Yanone Kaffeesatz Bold"
         id="tspan3280">Day</tspan></text>
    <text
       xml:space="preserve"
       style="font-size:40px;font-style:normal;font-weight:normal;fill:#000000;fill-opacity:1;stroke:none;font-family:Bitstream Vera Sans"
       x="79.806404"
       y="348.86157"
       id="text3792-1"
       sodipodi:linespacing="125%"><tspan
         sodipodi:role="line"
         id="tspan3794-9"
         x="80.116196"
         y="348.86157"
         style="font-size:14px;font-style:normal;font-variant:normal;font-weight:300;font-stretch:normal;text-align:center;line-height:125%;letter-spacing:0.61957799999999996;writing-mode:lr-tb;text-anchor:middle;fill:#000000;fill-opacity:1;font-family:Yanone Kaffeesatz;-inkscape-font-specification:Yanone Kaffeesatz Light">document<tspan
   style="-inkscape-font-specification:Yanone Kaffeesatz Bold;font-family:Yanone Kaffeesatz;font-weight:bold;font-style:normal;font-stretch:normal;font-variant:normal;font-size:14px;text-anchor:middle;text-align:center;writing-mode:lr;line-height:125%;fill:#000000"
   id="tspan4052">freedom</tspan>.org</tspan></text>
    <g
       id="g3789"
       transform="matrix(0.76322128,0,0,0.76322128,-25.57608,-582.25002)">
      <path
         inkscape:connector-curvature="0"
         transform="matrix(1.2459507,0,0,1.2459507,16.015824,-302.28807)"
         inkscape:export-ydpi="72.031548"
         inkscape:export-xdpi="72.031548"
         inkscape:export-filename="/home/ivan/Desktop/wiki.png"
         d="m 126.97744,909.42425 c 0,0 -1.88167,2.06241 -1.88167,2.06241 -3.35129,-9.87991 -9.57018,-16.53647 -17.56063,-20.62402 0,0 28.86844,-22.41568 28.86844,-22.41568 -7.73675,13.03671 -9.4611,31.85781 -9.42614,40.97729 z m 17.47772,-18.4973 c 0,0 -6.46371,0.93643 -10.03005,11.40527 -3.05286,8.9536 -5.72351,12.28754 -8.21823,15.04267 0,0 -35.55739,37.01604 -35.55739,37.01604 0,0 -6.10394,5.66032 -13.4662,7.75092 -10.10814,2.8725 -30.1236,6.11389 -36.34037,6.85624 -6.21564,0.74464 -1.97711,4.33019 4.65869,8.28236 6.63556,3.95215 7.62491,5.90625 20.87663,-1.25458 13.25127,-7.16204 25.9417,-0.58672 53.10323,-8.38953 27.16091,-7.80282 32.68007,-29.54266 32.18479,-45.5071 -0.49532,-15.96559 1.51399,-19.43939 3.11185,-20.79216 1.59783,-1.35162 7.57393,-3.20528 7.57393,-3.20528 0,0 -7.0037,-2.27791 -7.0037,-2.27791 0,0 -0.84842,-1.26583 -3.79435,-3.5381 -2.94671,-2.27111 -7.09883,-1.38884 -7.09883,-1.38884 z M 87.53625,949.00927 C 75.28978,932.79326 57.02184,927.31683 36.74621,930.72182 c 0,0 34.9584,-39.5715 34.9584,-39.5715 20.34276,-3.18948 43.2677,1.79162 49.527,23.66124 0,0 -32.97837,35.17363 -32.97837,35.17363 0,0 -0.46259,-0.6318 -0.71755,-0.98152 z"
         style="fill:#599117;fill-opacity:1;stroke:#599117;stroke-width:1.99070072;stroke-linecap:round;stroke-linejoin:round;stroke-miterlimit:4;stroke-opacity:1;stroke-dasharray:none;filter:url(#filter3785-9)"
         id="path4190" />
      <path
         inkscape:connector-curvature="0"
         inkscape:export-ydpi="72.031548"
         inkscape:export-xdpi="72.031548"
         inkscape:export-filename="/home/ivan/Desktop/wiki.png"
         d="m 174.22345,830.8097 c 0,0 -2.34447,2.56966 -2.34447,2.56966 -4.17554,-12.30988 -11.92397,-20.60363 -21.87967,-25.69651 0,0 35.96865,-27.92883 35.96865,-27.92883 -9.63961,16.24309 -11.78807,39.69326 -11.74451,51.05568 z m 21.77638,-23.04673 c 0,0 -8.05346,1.16675 -12.49695,14.21041 -3.80371,11.15574 -7.13121,15.30967 -10.23951,18.74242 0,0 -44.30275,46.12016 -44.30275,46.12016 0,0 -7.60521,7.05248 -16.77822,9.65727 -12.59425,3.57899 -37.53252,7.6176 -45.27831,8.54254 -7.74438,0.92778 -2.46338,5.3952 5.8045,10.31941 8.26758,4.92418 9.50026,7.35889 26.01125,-1.56315 16.51043,-8.92355 32.32208,-0.73102 66.164,-10.45294 33.84116,-9.72193 40.71776,-36.8087 40.10067,-56.6996 -0.61715,-19.89234 1.88635,-24.22052 3.87721,-25.90601 1.99081,-1.68405 9.43674,-3.99362 9.43674,-3.99362 0,0 -8.72626,-2.83816 -8.72626,-2.83816 0,0 -1.05709,-1.57716 -4.72758,-4.4083 -3.67145,-2.82969 -8.84479,-1.73043 -8.84479,-1.73043 z m -70.91815,72.36771 c -15.2585,-20.20435 -38.01945,-27.02771 -63.28189,-22.78526 0,0 43.55644,-49.30414 43.55644,-49.30414 25.34608,-3.97393 53.90942,2.23227 61.7082,29.48074 0,0 -41.08942,43.82461 -41.08942,43.82461 0,0 -0.57637,-0.78719 -0.89403,-1.22293 z"
         style="fill:#ffffff;fill-opacity:1"
         id="path4190-8" />
    </g>
    <text
       xml:space="preserve"
       style="font-size:27.20152092px;font-style:normal;font-variant:normal;font-weight:bold;font-stretch:normal;text-align:start;line-height:139.99999762%;writing-mode:lr-tb;text-anchor:start;fill:#ffffff;fill-opacity:1;stroke:none;font-family:Yanone Kaffeesatz;-inkscape-font-specification:Yanone Kaffeesatz Bold"
       x="71.627609"
       y="198.52406"
       id="text3708-1-6-7-8"
       sodipodi:linespacing="140%"
       transform="scale(1.1040596,0.9057482)"><tspan
         sodipodi:role="line"
         x="71.743515"
         y="198.52406"
         style="font-size:20px;font-style:normal;font-variant:normal;font-weight:normal;font-stretch:normal;text-align:center;line-height:139.99999762%;letter-spacing:0.231815;writing-mode:lr-tb;text-anchor:middle;fill:#ffffff;fill-opacity:1;stroke:none;font-family:Yanone Kaffeesatz;-inkscape-font-specification:Yanone Kaffeesatz"
         id="tspan2892">Celebrating</tspan><tspan
         sodipodi:role="line"
         x="71.743515"
         y="226.52406"
         style="font-size:20px;font-style:normal;font-variant:normal;font-weight:normal;font-stretch:normal;text-align:center;line-height:139.99999762%;letter-spacing:0.231815;writing-mode:lr-tb;text-anchor:middle;fill:#ffffff;fill-opacity:1;stroke:none;font-family:Yanone Kaffeesatz;-inkscape-font-specification:Yanone Kaffeesatz"
         id="tspan4081">information</tspan><tspan
         sodipodi:role="line"
         x="71.743515"
         y="254.52406"
         style="font-size:20px;font-style:normal;font-variant:normal;font-weight:normal;font-stretch:normal;text-align:center;line-height:139.99999762%;letter-spacing:0.231815;writing-mode:lr-tb;text-anchor:middle;fill:#ffffff;fill-opacity:1;stroke:none;font-family:Yanone Kaffeesatz;-inkscape-font-specification:Yanone Kaffeesatz"
         id="tspan4083">accessibility</tspan><tspan
         sodipodi:role="line"
         x="71.743515"
         y="282.52405"
         style="font-size:20px;font-style:normal;font-variant:normal;font-weight:normal;font-stretch:normal;text-align:center;line-height:139.99999762%;letter-spacing:0.231815;writing-mode:lr-tb;text-anchor:middle;fill:#ffffff;fill-opacity:1;stroke:none;font-family:Yanone Kaffeesatz;-inkscape-font-specification:Yanone Kaffeesatz"
         id="tspan2935-5">and raising</tspan><tspan
         sodipodi:role="line"
         x="71.743515"
         y="310.52405"
         style="font-size:20px;font-style:normal;font-variant:normal;font-weight:normal;font-stretch:normal;text-align:center;line-height:139.99999762%;letter-spacing:0.231815;writing-mode:lr-tb;text-anchor:middle;fill:#ffffff;fill-opacity:1;stroke:none;font-family:Yanone Kaffeesatz;-inkscape-font-specification:Yanone Kaffeesatz"
         id="tspan4478">awareness of</tspan><tspan
         sodipodi:role="line"
         x="71.743515"
         y="338.52405"
         style="font-size:20px;font-style:normal;font-variant:normal;font-weight:normal;font-stretch:normal;text-align:center;line-height:139.99999762%;letter-spacing:0.231815;writing-mode:lr-tb;text-anchor:middle;fill:#ffffff;fill-opacity:1;stroke:none;font-family:Yanone Kaffeesatz;-inkscape-font-specification:Yanone Kaffeesatz"
         id="tspan4089">open standards</tspan></text>
    <text
       xml:space="preserve"
       style="font-size:25.0222702px;font-style:normal;font-variant:normal;font-weight:bold;font-stretch:normal;text-align:center;line-height:110.00000238%;writing-mode:lr-tb;text-anchor:middle;fill:#ffffff;fill-opacity:1;stroke:none;font-family:Yanone Kaffeesatz;-inkscape-font-specification:Yanone Kaffeesatz Bold"
       x="73.572556"
       y="-107.71507"
       id="text3708-1-2-9"
       sodipodi:linespacing="110%"
       transform="scale(1.1040596,0.9057482)"><tspan
         sodipodi:role="line"
         x="73.572556"
         y="-107.71507"
         style="font-size:34.73467636px;font-style:normal;font-variant:normal;font-weight:bold;font-stretch:normal;text-align:center;line-height:110.00000238%;writing-mode:lr-tb;text-anchor:middle;fill:#ffffff;fill-opacity:1;stroke:none;font-family:Yanone Kaffeesatz;-inkscape-font-specification:Yanone Kaffeesatz Bold"
         id="tspan2904-3">Document</tspan><tspan
         sodipodi:role="line"
         x="73.572556"
         y="-69.50692"
         style="font-size:34.73467636px;font-style:normal;font-variant:normal;font-weight:bold;font-stretch:normal;text-align:center;line-height:110.00000238%;writing-mode:lr-tb;text-anchor:middle;fill:#ffffff;fill-opacity:1;stroke:none;font-family:Yanone Kaffeesatz;-inkscape-font-specification:Yanone Kaffeesatz Bold"
         id="tspan3272">Freedom</tspan><tspan
         sodipodi:role="line"
         x="73.572556"
         y="-31.298779"
         style="font-size:34.73467636px;font-style:normal;font-variant:normal;font-weight:bold;font-stretch:normal;text-align:center;line-height:110.00000238%;writing-mode:lr-tb;text-anchor:middle;fill:#ffffff;fill-opacity:1;stroke:none;font-family:Yanone Kaffeesatz;-inkscape-font-specification:Yanone Kaffeesatz Bold"
         id="tspan3274">Day</tspan></text>
    <g
       id="g4628"
       transform="translate(2,0)">
      <text
         transform="scale(1.1040596,0.90574822)"
         sodipodi:linespacing="100%"
         id="text3708-1-6"
         y="-191.3513"
         x="66.494835"
         style="font-size:33.6686554px;font-style:normal;font-variant:normal;font-weight:bold;font-stretch:normal;text-align:start;line-height:100%;writing-mode:lr-tb;text-anchor:start;fill:#000000;fill-opacity:1;stroke:none;font-family:Yanone Kaffeesatz;-inkscape-font-specification:Yanone Kaffeesatz Bold"
         xml:space="preserve"><tspan
           style="font-size:27.23047638px;font-style:normal;font-variant:normal;font-weight:normal;font-stretch:normal;text-align:center;line-height:100%;writing-mode:lr-tb;text-anchor:middle;fill:#000000;fill-opacity:1;stroke:none;font-family:Yanone Kaffeesatz;-inkscape-font-specification:Yanone Kaffeesatz"
           y="-191.3513"
           x="66.494835"
           sodipodi:role="line"
           id="tspan2914">March 26</tspan></text>
      <text
         transform="scale(1.1040596,0.90574822)"
         sodipodi:linespacing="100%"
         id="text3708-1-6-6-8"
         y="-200.28609"
         x="110.57589"
         style="font-size:33.6686554px;font-style:normal;font-variant:normal;font-weight:bold;font-stretch:normal;text-align:start;line-height:100%;writing-mode:lr-tb;text-anchor:start;fill:#000000;fill-opacity:1;stroke:none;font-family:Yanone Kaffeesatz;-inkscape-font-specification:Yanone Kaffeesatz Bold"
         xml:space="preserve"><tspan
           style="font-size:14.85298729px;font-style:normal;font-variant:normal;font-weight:normal;font-stretch:normal;text-align:center;line-height:100%;writing-mode:lr-tb;text-anchor:middle;fill:#000000;fill-opacity:1;stroke:none;font-family:Yanone Kaffeesatz;-inkscape-font-specification:Yanone Kaffeesatz"
           y="-200.28609"
           x="110.57589"
           sodipodi:role="line"
           id="tspan6527-5-7">th</tspan></text>
    </g>
    <text
       transform="scale(1.1040596,0.90574821)"
       sodipodi:linespacing="100%"
       id="text3708-1-6-8"
       y="-162.17474"
       x="72.391357"
       style="font-size:33.6686554px;font-style:normal;font-variant:normal;font-weight:bold;font-stretch:normal;text-align:start;line-height:100%;writing-mode:lr-tb;text-anchor:start;fill:#000000;fill-opacity:1;stroke:none;font-family:Yanone Kaffeesatz;-inkscape-font-specification:Yanone Kaffeesatz Bold"
       xml:space="preserve"><tspan
         style="font-size:27.23047638px;font-style:normal;font-variant:normal;font-weight:normal;font-stretch:normal;text-align:center;line-height:100%;writing-mode:lr-tb;text-anchor:middle;fill:#000000;fill-opacity:1;stroke:none;font-family:Yanone Kaffeesatz;-inkscape-font-specification:Yanone Kaffeesatz"
         y="-162.17474"
         x="72.391357"
         sodipodi:role="line"
         id="tspan2914-2">2014</tspan></text>
  </g>
</svg>
