<?xml version="1.0" encoding="UTF-8" standalone="no"?>
<!-- Created with Inkscape (http://www.inkscape.org/) -->

<svg
   xmlns:dc="http://purl.org/dc/elements/1.1/"
   xmlns:cc="http://creativecommons.org/ns#"
   xmlns:rdf="http://www.w3.org/1999/02/22-rdf-syntax-ns#"
   xmlns:svg="http://www.w3.org/2000/svg"
   xmlns="http://www.w3.org/2000/svg"
   xmlns:xlink="http://www.w3.org/1999/xlink"
   xmlns:sodipodi="http://sodipodi.sourceforge.net/DTD/sodipodi-0.dtd"
   xmlns:inkscape="http://www.inkscape.org/namespaces/inkscape"
   width="112.09354"
   height="112.107"
   id="svg3427"
   version="1.1"
   inkscape:version="0.48.3.1 r9886"
   sodipodi:docname="dove-logo-2012.svg">
  <defs
     id="defs3429">
    <radialGradient
       inkscape:collect="always"
       xlink:href="#linearGradient4352"
       id="radialGradient3313"
       gradientUnits="userSpaceOnUse"
       gradientTransform="matrix(1.1007255,-1.4983474,1.3652283,1.5818133,-1170.4493,-722.86106)"
       cx="313.43893"
       cy="663.65607"
       fx="313.43893"
       fy="663.65607"
       r="132.9715" />
    <linearGradient
       id="linearGradient4352">
      <stop
         style="stop-color:#ffff4f;stop-opacity:0.82745099;"
         offset="0"
         id="stop4354" />
      <stop
         style="stop-color:#42b30b;stop-opacity:0;"
         offset="1"
         id="stop4356" />
    </linearGradient>
    <linearGradient
       inkscape:collect="always"
       xlink:href="#linearGradient4364"
       id="linearGradient3315"
       gradientUnits="userSpaceOnUse"
       gradientTransform="matrix(0.41656246,0,0,0.40597853,-53.313411,-448.40506)"
       x1="248.9016"
       y1="319.79956"
       x2="287.28848"
       y2="526.40344" />
    <linearGradient
       id="linearGradient4364">
      <stop
         style="stop-color:#ffffff;stop-opacity:1;"
         offset="0"
         id="stop4366" />
      <stop
         style="stop-color:#42b30b;stop-opacity:0;"
         offset="1"
         id="stop4368" />
    </linearGradient>
    <linearGradient
       inkscape:collect="always"
       xlink:href="#linearGradient4364"
       id="linearGradient2997"
       gradientUnits="userSpaceOnUse"
       gradientTransform="matrix(0.41686059,0,0,0.40626909,303.13052,409.49967)"
       x1="248.9016"
       y1="319.79956"
       x2="287.28848"
       y2="526.40344" />
    <radialGradient
       inkscape:collect="always"
       xlink:href="#linearGradient4352"
       id="radialGradient3000"
       gradientUnits="userSpaceOnUse"
       gradientTransform="matrix(1.1015133,-1.4994198,1.3662054,1.5829454,-814.8049,134.84724)"
       cx="313.43893"
       cy="663.65607"
       fx="313.43893"
       fy="663.65607"
       r="132.9715" />
    <radialGradient
       inkscape:collect="always"
       xlink:href="#linearGradient4352"
       id="radialGradient3008"
       gradientUnits="userSpaceOnUse"
       gradientTransform="matrix(1.1015133,-1.4994198,1.3662054,1.5829454,-814.8049,134.84724)"
       cx="313.43893"
       cy="663.65607"
       fx="313.43893"
       fy="663.65607"
       r="132.9715" />
    <linearGradient
       inkscape:collect="always"
       xlink:href="#linearGradient4364"
       id="linearGradient3010"
       gradientUnits="userSpaceOnUse"
       gradientTransform="matrix(0.41686059,0,0,0.40626909,303.13052,409.49967)"
       x1="248.9016"
       y1="319.79956"
       x2="287.28848"
       y2="526.40344" />
  </defs>
  <sodipodi:namedview
     id="base"
     pagecolor="#ffffff"
     bordercolor="#666666"
     borderopacity="1.0"
     inkscape:pageopacity="0.0"
     inkscape:pageshadow="2"
     inkscape:zoom="1.4"
     inkscape:cx="-29.665179"
     inkscape:cy="70.725339"
     inkscape:document-units="px"
     inkscape:current-layer="layer1"
     showgrid="false"
     fit-margin-top="0"
     fit-margin-left="0"
     fit-margin-right="0"
     fit-margin-bottom="0"
     inkscape:window-width="1366"
     inkscape:window-height="709"
     inkscape:window-x="0"
     inkscape:window-y="27"
     inkscape:window-maximized="1" />
  <metadata
     id="metadata3432">
    <rdf:RDF>
      <cc:Work
         rdf:about="">
        <dc:format>image/svg+xml</dc:format>
        <dc:type
           rdf:resource="http://purl.org/dc/dcmitype/StillImage" />
        <dc:title></dc:title>
      </cc:Work>
    </rdf:RDF>
  </metadata>
  <g
     inkscape:label="Layer 1"
     inkscape:groupmode="layer"
     id="layer1"
     transform="translate(-381.09375,-585.26623)">
    <g
       id="g3003"
       transform="matrix(0.99999816,0,0,0.86236155,7.0021745e-4,95.983849)">
      <rect
         ry="7.0760608"
         style="fill:#42b30b;fill-opacity:1;stroke:#5d5d5d;stroke-width:1.25875628;stroke-miterlimit:4;stroke-opacity:1;stroke-dasharray:none"
         id="rect3112"
         width="110.84845"
         height="128.74124"
         x="381.71863"
         y="567.99158" />
      <rect
         ry="5.3748441"
         style="fill:url(#radialGradient3008);fill-opacity:1;stroke:#cbcbcb;stroke-width:1.62352526;stroke-miterlimit:4;stroke-opacity:1;stroke-dasharray:none"
         id="rect3114"
         width="106.82815"
         height="124.72105"
         x="383.72876"
         y="570.00171" />
      <path
         style="fill:url(#linearGradient3010);fill-opacity:1;stroke:none"
         d="m 386.25423,616.4142 c 0,-17.48406 0.52562,-27.33689 0.58425,-41.65441 0,-1.54076 1.31648,-2.58603 2.91742,-2.58603 31.17425,0 72.78301,0 93.77078,0 0.28001,0 0.54527,0.002 0.79608,0.006 15.12024,0.23975 -45.76366,12.0581 -62.1072,18.9542 -21.6045,1.73591 -27.06829,2.93288 -35.96132,25.28026 z"
         id="path3120"
         sodipodi:nodetypes="cccssccc"
         inkscape:connector-curvature="0" />
    </g>
    <path
       inkscape:connector-curvature="0"
       inkscape:export-ydpi="72.031548"
       inkscape:export-xdpi="72.031548"
       inkscape:export-filename="/home/ivan/Desktop/wiki.png"
       d="m 453.56185,629.09358 c 0,0 -1.26363,1.38503 -1.26363,1.38503 -2.25046,-6.63457 -6.42672,-11.10469 -11.79255,-13.84942 0,0 19.38617,-15.05339 19.38617,-15.05339 -5.19552,8.75517 -6.3535,21.39389 -6.32999,27.51778 z m 11.73679,-12.42171 c 0,0 -4.34052,0.63125 -6.73551,7.65873 -2.05009,6.01361 -3.84355,8.25203 -5.51875,10.10187 0,0 -23.87811,24.85775 -23.87811,24.85775 0,0 -4.09892,3.80066 -9.043,5.20516 -6.78792,1.92906 -20.22898,4.10582 -24.40382,4.60448 -4.17407,0.49906 -1.3277,2.90817 3.12855,5.56174 4.45592,2.65398 5.12035,3.9662 14.01934,-0.8427 8.89872,-4.80931 17.42072,-0.39382 35.66074,-5.63419 18.23944,-5.23995 21.94575,-19.83817 21.61312,-30.55924 -0.33273,-10.72168 1.01672,-13.05452 2.08972,-13.96288 1.073,-0.9079 5.08617,-2.1526 5.08617,-2.1526 0,0 -4.70332,-1.52933 -4.70332,-1.52933 0,0 -0.56944,-0.85059 -2.5479,-2.37595 -1.9788,-1.52532 -4.76723,-0.93284 -4.76723,-0.93284 z m -38.22294,39.00506 c -8.22395,-10.89021 -20.49149,-14.56797 -34.1073,-12.28177 0,0 23.47575,-26.57308 23.47575,-26.57308 13.66092,-2.14156 29.05574,1.20281 33.25913,15.88977 0,0 -22.14613,23.61998 -22.14613,23.61998 0,0 -0.31106,-0.42944 -0.48145,-0.6549 z"
       style="fill:#ffffff;fill-opacity:1;stroke:#5d5d5d;stroke-width:1.08235002;stroke-opacity:1"
       id="path3122" />
  </g>
</svg>
